<?xml version="1.0" encoding="UTF-8"?>
<svg xmlns="http://www.w3.org/2000/svg" xmlns:xlink="http://www.w3.org/1999/xlink" width="777pt" height="615pt" viewBox="0 0 777 615" version="1.1">
<defs>
<g>
<symbol overflow="visible" id="glyph0-0">
<path style="stroke:none;" d="M 0.796875 2.828125 L 0.796875 -11.28125 L 8.796875 -11.28125 L 8.796875 2.828125 Z M 1.703125 1.9375 L 7.90625 1.9375 L 7.90625 -10.390625 L 1.703125 -10.390625 Z M 1.703125 1.9375 "/>
</symbol>
<symbol overflow="visible" id="glyph0-1">
<path style="stroke:none;" d="M 8.421875 -8.484375 L 8.421875 -6.203125 C 8.035156 -6.460938 7.648438 -6.65625 7.265625 -6.78125 C 6.890625 -6.902344 6.492188 -6.96875 6.078125 -6.96875 C 5.296875 -6.96875 4.683594 -6.738281 4.25 -6.28125 C 3.820312 -5.820312 3.609375 -5.183594 3.609375 -4.375 C 3.609375 -3.550781 3.820312 -2.910156 4.25 -2.453125 C 4.683594 -2.003906 5.296875 -1.78125 6.078125 -1.78125 C 6.511719 -1.78125 6.929688 -1.84375 7.328125 -1.96875 C 7.722656 -2.101562 8.085938 -2.296875 8.421875 -2.546875 L 8.421875 -0.265625 C 7.984375 -0.0976562 7.535156 0.0234375 7.078125 0.109375 C 6.628906 0.191406 6.179688 0.234375 5.734375 0.234375 C 4.148438 0.234375 2.910156 -0.171875 2.015625 -0.984375 C 1.128906 -1.792969 0.6875 -2.925781 0.6875 -4.375 C 0.6875 -5.808594 1.128906 -6.9375 2.015625 -7.75 C 2.910156 -8.558594 4.148438 -8.96875 5.734375 -8.96875 C 6.191406 -8.96875 6.640625 -8.925781 7.078125 -8.84375 C 7.523438 -8.757812 7.972656 -8.636719 8.421875 -8.484375 Z M 8.421875 -8.484375 "/>
</symbol>
<symbol overflow="visible" id="glyph0-2">
<path style="stroke:none;" d="M 1.25 -3.40625 L 1.25 -8.75 L 4.0625 -8.75 L 4.0625 -7.875 C 4.0625 -7.40625 4.054688 -6.808594 4.046875 -6.09375 C 4.046875 -5.375 4.046875 -4.894531 4.046875 -4.65625 C 4.046875 -3.957031 4.0625 -3.449219 4.09375 -3.140625 C 4.132812 -2.828125 4.203125 -2.601562 4.296875 -2.46875 C 4.410156 -2.28125 4.554688 -2.132812 4.734375 -2.03125 C 4.917969 -1.9375 5.132812 -1.890625 5.375 -1.890625 C 5.957031 -1.890625 6.414062 -2.113281 6.75 -2.5625 C 7.082031 -3.007812 7.25 -3.632812 7.25 -4.4375 L 7.25 -8.75 L 10.046875 -8.75 L 10.046875 0 L 7.25 0 L 7.25 -1.265625 C 6.832031 -0.753906 6.382812 -0.371094 5.90625 -0.125 C 5.4375 0.113281 4.917969 0.234375 4.359375 0.234375 C 3.347656 0.234375 2.574219 -0.078125 2.046875 -0.703125 C 1.515625 -1.324219 1.25 -2.226562 1.25 -3.40625 Z M 1.25 -3.40625 "/>
</symbol>
<symbol overflow="visible" id="glyph0-3">
<path style="stroke:none;" d="M 10.078125 -4.40625 L 10.078125 -3.609375 L 3.546875 -3.609375 C 3.605469 -2.953125 3.84375 -2.457031 4.25 -2.125 C 4.652344 -1.800781 5.222656 -1.640625 5.953125 -1.640625 C 6.542969 -1.640625 7.148438 -1.722656 7.765625 -1.890625 C 8.378906 -2.066406 9.015625 -2.332031 9.671875 -2.6875 L 9.671875 -0.53125 C 9.003906 -0.28125 8.335938 -0.0898438 7.671875 0.03125 C 7.015625 0.164062 6.355469 0.234375 5.703125 0.234375 C 4.117188 0.234375 2.882812 -0.164062 2 -0.96875 C 1.125 -1.777344 0.6875 -2.914062 0.6875 -4.375 C 0.6875 -5.800781 1.117188 -6.921875 1.984375 -7.734375 C 2.847656 -8.554688 4.035156 -8.96875 5.546875 -8.96875 C 6.917969 -8.96875 8.019531 -8.550781 8.84375 -7.71875 C 9.664062 -6.894531 10.078125 -5.789062 10.078125 -4.40625 Z M 7.203125 -5.328125 C 7.203125 -5.855469 7.042969 -6.285156 6.734375 -6.609375 C 6.429688 -6.941406 6.027344 -7.109375 5.53125 -7.109375 C 4.988281 -7.109375 4.542969 -6.949219 4.203125 -6.640625 C 3.867188 -6.335938 3.660156 -5.898438 3.578125 -5.328125 Z M 7.203125 -5.328125 "/>
</symbol>
<symbol overflow="visible" id="glyph0-4">
<path style="stroke:none;" d="M 10.140625 -5.328125 L 10.140625 0 L 7.328125 0 L 7.328125 -4.078125 C 7.328125 -4.835938 7.308594 -5.359375 7.28125 -5.640625 C 7.25 -5.929688 7.191406 -6.144531 7.109375 -6.28125 C 6.992188 -6.457031 6.839844 -6.597656 6.65625 -6.703125 C 6.46875 -6.804688 6.253906 -6.859375 6.015625 -6.859375 C 5.429688 -6.859375 4.972656 -6.628906 4.640625 -6.171875 C 4.304688 -5.722656 4.140625 -5.101562 4.140625 -4.3125 L 4.140625 0 L 1.34375 0 L 1.34375 -8.75 L 4.140625 -8.75 L 4.140625 -7.46875 C 4.566406 -7.976562 5.015625 -8.351562 5.484375 -8.59375 C 5.960938 -8.839844 6.488281 -8.96875 7.0625 -8.96875 C 8.070312 -8.96875 8.835938 -8.652344 9.359375 -8.03125 C 9.878906 -7.414062 10.140625 -6.511719 10.140625 -5.328125 Z M 10.140625 -5.328125 "/>
</symbol>
<symbol overflow="visible" id="glyph0-5">
<path style="stroke:none;" d="M 4.40625 -11.234375 L 4.40625 -8.75 L 7.28125 -8.75 L 7.28125 -6.75 L 4.40625 -6.75 L 4.40625 -3.046875 C 4.40625 -2.640625 4.484375 -2.363281 4.640625 -2.21875 C 4.804688 -2.070312 5.128906 -2 5.609375 -2 L 7.046875 -2 L 7.046875 0 L 4.640625 0 C 3.535156 0 2.753906 -0.226562 2.296875 -0.6875 C 1.835938 -1.152344 1.609375 -1.941406 1.609375 -3.046875 L 1.609375 -6.75 L 0.21875 -6.75 L 0.21875 -8.75 L 1.609375 -8.75 L 1.609375 -11.234375 Z M 4.40625 -11.234375 "/>
</symbol>
<symbol overflow="visible" id="glyph0-6">
<path style="stroke:none;" d="M 5.265625 -3.9375 C 4.679688 -3.9375 4.242188 -3.835938 3.953125 -3.640625 C 3.660156 -3.441406 3.515625 -3.148438 3.515625 -2.765625 C 3.515625 -2.410156 3.628906 -2.132812 3.859375 -1.9375 C 4.097656 -1.738281 4.429688 -1.640625 4.859375 -1.640625 C 5.378906 -1.640625 5.816406 -1.828125 6.171875 -2.203125 C 6.535156 -2.574219 6.71875 -3.050781 6.71875 -3.625 L 6.71875 -3.9375 Z M 9.546875 -5 L 9.546875 0 L 6.71875 0 L 6.71875 -1.296875 C 6.34375 -0.765625 5.917969 -0.371094 5.453125 -0.125 C 4.984375 0.113281 4.414062 0.234375 3.75 0.234375 C 2.84375 0.234375 2.101562 -0.03125 1.53125 -0.5625 C 0.96875 -1.089844 0.6875 -1.78125 0.6875 -2.625 C 0.6875 -3.652344 1.039062 -4.410156 1.75 -4.890625 C 2.457031 -5.367188 3.566406 -5.609375 5.078125 -5.609375 L 6.71875 -5.609375 L 6.71875 -5.828125 C 6.71875 -6.261719 6.539062 -6.585938 6.1875 -6.796875 C 5.84375 -7.003906 5.300781 -7.109375 4.5625 -7.109375 C 3.96875 -7.109375 3.410156 -7.042969 2.890625 -6.921875 C 2.378906 -6.804688 1.898438 -6.628906 1.453125 -6.390625 L 1.453125 -8.515625 C 2.054688 -8.660156 2.660156 -8.769531 3.265625 -8.84375 C 3.867188 -8.925781 4.472656 -8.96875 5.078125 -8.96875 C 6.648438 -8.96875 7.785156 -8.652344 8.484375 -8.03125 C 9.191406 -7.40625 9.546875 -6.394531 9.546875 -5 Z M 9.546875 -5 "/>
</symbol>
<symbol overflow="visible" id="glyph0-7">
<path style="stroke:none;" d="M 1.46875 -11.671875 L 6.46875 -11.671875 C 7.945312 -11.671875 9.082031 -11.335938 9.875 -10.671875 C 10.675781 -10.015625 11.078125 -9.074219 11.078125 -7.859375 C 11.078125 -6.640625 10.675781 -5.695312 9.875 -5.03125 C 9.082031 -4.375 7.945312 -4.046875 6.46875 -4.046875 L 4.484375 -4.046875 L 4.484375 0 L 1.46875 0 Z M 4.484375 -9.484375 L 4.484375 -6.234375 L 6.140625 -6.234375 C 6.722656 -6.234375 7.171875 -6.375 7.484375 -6.65625 C 7.804688 -6.933594 7.96875 -7.335938 7.96875 -7.859375 C 7.96875 -8.378906 7.804688 -8.78125 7.484375 -9.0625 C 7.171875 -9.339844 6.722656 -9.484375 6.140625 -9.484375 Z M 4.484375 -9.484375 "/>
</symbol>
<symbol overflow="visible" id="glyph0-8">
<path style="stroke:none;" d="M 4.140625 -1.265625 L 4.140625 3.328125 L 1.34375 3.328125 L 1.34375 -8.75 L 4.140625 -8.75 L 4.140625 -7.46875 C 4.523438 -7.976562 4.953125 -8.351562 5.421875 -8.59375 C 5.886719 -8.839844 6.429688 -8.96875 7.046875 -8.96875 C 8.117188 -8.96875 9 -8.535156 9.6875 -7.671875 C 10.382812 -6.816406 10.734375 -5.714844 10.734375 -4.375 C 10.734375 -3.019531 10.382812 -1.910156 9.6875 -1.046875 C 9 -0.191406 8.117188 0.234375 7.046875 0.234375 C 6.429688 0.234375 5.886719 0.113281 5.421875 -0.125 C 4.953125 -0.371094 4.523438 -0.753906 4.140625 -1.265625 Z M 6 -6.9375 C 5.40625 -6.9375 4.945312 -6.710938 4.625 -6.265625 C 4.300781 -5.828125 4.140625 -5.195312 4.140625 -4.375 C 4.140625 -3.539062 4.300781 -2.902344 4.625 -2.46875 C 4.945312 -2.03125 5.40625 -1.8125 6 -1.8125 C 6.601562 -1.8125 7.0625 -2.03125 7.375 -2.46875 C 7.683594 -2.902344 7.84375 -3.539062 7.84375 -4.375 C 7.84375 -5.207031 7.683594 -5.84375 7.375 -6.28125 C 7.0625 -6.714844 6.601562 -6.9375 6 -6.9375 Z M 6 -6.9375 "/>
</symbol>
<symbol overflow="visible" id="glyph0-9">
<path style="stroke:none;" d="M 1.46875 -11.671875 L 4.484375 -11.671875 L 4.484375 -1.140625 C 4.484375 0.316406 4.085938 1.40625 3.296875 2.125 C 2.503906 2.839844 1.304688 3.203125 -0.296875 3.203125 L -0.90625 3.203125 L -0.90625 0.9375 L -0.4375 0.9375 C 0.195312 0.9375 0.671875 0.757812 0.984375 0.40625 C 1.304688 0.0507812 1.46875 -0.460938 1.46875 -1.140625 Z M 1.46875 -11.671875 "/>
</symbol>
<symbol overflow="visible" id="glyph0-10">
<path style="stroke:none;" d="M 1.34375 -12.15625 L 4.140625 -12.15625 L 4.140625 0 L 1.34375 0 Z M 1.34375 -12.15625 "/>
</symbol>
<symbol overflow="visible" id="glyph0-11">
<path style="stroke:none;" d="M 1.34375 -8.75 L 4.140625 -8.75 L 4.140625 0 L 1.34375 0 Z M 1.34375 -12.15625 L 4.140625 -12.15625 L 4.140625 -9.875 L 1.34375 -9.875 Z M 1.34375 -12.15625 "/>
</symbol>
<symbol overflow="visible" id="glyph0-12">
<path style="stroke:none;" d="M 10.71875 -0.640625 C 10.164062 -0.359375 9.585938 -0.144531 8.984375 0 C 8.390625 0.152344 7.769531 0.234375 7.125 0.234375 C 5.175781 0.234375 3.632812 -0.304688 2.5 -1.390625 C 1.363281 -2.480469 0.796875 -3.960938 0.796875 -5.828125 C 0.796875 -7.691406 1.363281 -9.164062 2.5 -10.25 C 3.632812 -11.332031 5.175781 -11.875 7.125 -11.875 C 7.769531 -11.875 8.390625 -11.800781 8.984375 -11.65625 C 9.585938 -11.507812 10.164062 -11.292969 10.71875 -11.015625 L 10.71875 -8.59375 C 10.164062 -8.976562 9.617188 -9.257812 9.078125 -9.4375 C 8.535156 -9.613281 7.960938 -9.703125 7.359375 -9.703125 C 6.285156 -9.703125 5.441406 -9.355469 4.828125 -8.671875 C 4.210938 -7.984375 3.90625 -7.035156 3.90625 -5.828125 C 3.90625 -4.617188 4.210938 -3.667969 4.828125 -2.984375 C 5.441406 -2.296875 6.285156 -1.953125 7.359375 -1.953125 C 7.960938 -1.953125 8.535156 -2.039062 9.078125 -2.21875 C 9.617188 -2.394531 10.164062 -2.675781 10.71875 -3.0625 Z M 10.71875 -0.640625 "/>
</symbol>
<symbol overflow="visible" id="glyph0-13">
<path style="stroke:none;" d="M 5.515625 -6.96875 C 4.890625 -6.96875 4.414062 -6.742188 4.09375 -6.296875 C 3.769531 -5.847656 3.609375 -5.207031 3.609375 -4.375 C 3.609375 -3.53125 3.769531 -2.882812 4.09375 -2.4375 C 4.414062 -2 4.890625 -1.78125 5.515625 -1.78125 C 6.117188 -1.78125 6.582031 -2 6.90625 -2.4375 C 7.226562 -2.882812 7.390625 -3.53125 7.390625 -4.375 C 7.390625 -5.207031 7.226562 -5.847656 6.90625 -6.296875 C 6.582031 -6.742188 6.117188 -6.96875 5.515625 -6.96875 Z M 5.515625 -8.96875 C 7.011719 -8.96875 8.1875 -8.558594 9.03125 -7.75 C 9.882812 -6.9375 10.3125 -5.808594 10.3125 -4.375 C 10.3125 -2.9375 9.882812 -1.804688 9.03125 -0.984375 C 8.1875 -0.171875 7.011719 0.234375 5.515625 0.234375 C 4.003906 0.234375 2.820312 -0.171875 1.96875 -0.984375 C 1.113281 -1.804688 0.6875 -2.9375 0.6875 -4.375 C 0.6875 -5.808594 1.113281 -6.9375 1.96875 -7.75 C 2.820312 -8.558594 4.003906 -8.96875 5.515625 -8.96875 Z M 5.515625 -8.96875 "/>
</symbol>
<symbol overflow="visible" id="glyph0-14">
<path style="stroke:none;" d="M 9.453125 -7.296875 C 9.804688 -7.835938 10.226562 -8.25 10.71875 -8.53125 C 11.207031 -8.820312 11.742188 -8.96875 12.328125 -8.96875 C 13.324219 -8.96875 14.085938 -8.652344 14.609375 -8.03125 C 15.136719 -7.414062 15.40625 -6.511719 15.40625 -5.328125 L 15.40625 0 L 12.59375 0 L 12.59375 -4.5625 C 12.601562 -4.632812 12.609375 -4.707031 12.609375 -4.78125 C 12.609375 -4.851562 12.609375 -4.957031 12.609375 -5.09375 C 12.609375 -5.707031 12.511719 -6.15625 12.328125 -6.4375 C 12.148438 -6.714844 11.855469 -6.859375 11.453125 -6.859375 C 10.921875 -6.859375 10.507812 -6.636719 10.21875 -6.203125 C 9.9375 -5.765625 9.789062 -5.128906 9.78125 -4.296875 L 9.78125 0 L 6.96875 0 L 6.96875 -4.5625 C 6.96875 -5.527344 6.882812 -6.15625 6.71875 -6.4375 C 6.550781 -6.714844 6.253906 -6.859375 5.828125 -6.859375 C 5.285156 -6.859375 4.867188 -6.632812 4.578125 -6.1875 C 4.285156 -5.75 4.140625 -5.121094 4.140625 -4.3125 L 4.140625 0 L 1.328125 0 L 1.328125 -8.75 L 4.140625 -8.75 L 4.140625 -7.46875 C 4.480469 -7.964844 4.878906 -8.34375 5.328125 -8.59375 C 5.773438 -8.839844 6.265625 -8.96875 6.796875 -8.96875 C 7.398438 -8.96875 7.929688 -8.820312 8.390625 -8.53125 C 8.855469 -8.238281 9.210938 -7.824219 9.453125 -7.296875 Z M 9.453125 -7.296875 "/>
</symbol>
<symbol overflow="visible" id="glyph0-15">
<path style="stroke:none;" d="M 6 -1.8125 C 6.601562 -1.8125 7.0625 -2.03125 7.375 -2.46875 C 7.683594 -2.902344 7.84375 -3.539062 7.84375 -4.375 C 7.84375 -5.207031 7.683594 -5.84375 7.375 -6.28125 C 7.0625 -6.714844 6.601562 -6.9375 6 -6.9375 C 5.40625 -6.9375 4.945312 -6.710938 4.625 -6.265625 C 4.300781 -5.828125 4.140625 -5.195312 4.140625 -4.375 C 4.140625 -3.539062 4.300781 -2.902344 4.625 -2.46875 C 4.945312 -2.03125 5.40625 -1.8125 6 -1.8125 Z M 4.140625 -7.46875 C 4.523438 -7.976562 4.953125 -8.351562 5.421875 -8.59375 C 5.886719 -8.839844 6.429688 -8.96875 7.046875 -8.96875 C 8.117188 -8.96875 9 -8.535156 9.6875 -7.671875 C 10.382812 -6.816406 10.734375 -5.714844 10.734375 -4.375 C 10.734375 -3.019531 10.382812 -1.910156 9.6875 -1.046875 C 9 -0.191406 8.117188 0.234375 7.046875 0.234375 C 6.429688 0.234375 5.886719 0.113281 5.421875 -0.125 C 4.953125 -0.371094 4.523438 -0.753906 4.140625 -1.265625 L 4.140625 0 L 1.34375 0 L 1.34375 -12.15625 L 4.140625 -12.15625 Z M 4.140625 -7.46875 "/>
</symbol>
<symbol overflow="visible" id="glyph0-16">
<path style="stroke:none;" d="M 7.296875 -7.46875 L 7.296875 -12.15625 L 10.109375 -12.15625 L 10.109375 0 L 7.296875 0 L 7.296875 -1.265625 C 6.910156 -0.753906 6.480469 -0.371094 6.015625 -0.125 C 5.554688 0.113281 5.023438 0.234375 4.421875 0.234375 C 3.335938 0.234375 2.445312 -0.191406 1.75 -1.046875 C 1.0625 -1.910156 0.71875 -3.019531 0.71875 -4.375 C 0.71875 -5.714844 1.0625 -6.816406 1.75 -7.671875 C 2.445312 -8.535156 3.335938 -8.96875 4.421875 -8.96875 C 5.023438 -8.96875 5.554688 -8.839844 6.015625 -8.59375 C 6.480469 -8.351562 6.910156 -7.976562 7.296875 -7.46875 Z M 5.453125 -1.8125 C 6.054688 -1.8125 6.515625 -2.03125 6.828125 -2.46875 C 7.136719 -2.902344 7.296875 -3.539062 7.296875 -4.375 C 7.296875 -5.207031 7.136719 -5.84375 6.828125 -6.28125 C 6.515625 -6.714844 6.054688 -6.9375 5.453125 -6.9375 C 4.859375 -6.9375 4.402344 -6.714844 4.09375 -6.28125 C 3.78125 -5.84375 3.625 -5.207031 3.625 -4.375 C 3.625 -3.539062 3.78125 -2.902344 4.09375 -2.46875 C 4.402344 -2.03125 4.859375 -1.8125 5.453125 -1.8125 Z M 5.453125 -1.8125 "/>
</symbol>
<symbol overflow="visible" id="glyph0-17">
<path style="stroke:none;" d="M 8.1875 -8.484375 L 8.1875 -6.359375 C 7.582031 -6.605469 6.996094 -6.796875 6.4375 -6.921875 C 5.882812 -7.042969 5.363281 -7.109375 4.875 -7.109375 C 4.34375 -7.109375 3.945312 -7.039062 3.6875 -6.90625 C 3.425781 -6.769531 3.296875 -6.566406 3.296875 -6.296875 C 3.296875 -6.066406 3.394531 -5.886719 3.59375 -5.765625 C 3.789062 -5.648438 4.140625 -5.566406 4.640625 -5.515625 L 5.140625 -5.4375 C 6.566406 -5.257812 7.523438 -4.960938 8.015625 -4.546875 C 8.511719 -4.128906 8.765625 -3.472656 8.765625 -2.578125 C 8.765625 -1.648438 8.417969 -0.945312 7.734375 -0.46875 C 7.046875 0 6.019531 0.234375 4.65625 0.234375 C 4.082031 0.234375 3.480469 0.183594 2.859375 0.09375 C 2.242188 0 1.613281 -0.140625 0.96875 -0.328125 L 0.96875 -2.453125 C 1.519531 -2.179688 2.085938 -1.976562 2.671875 -1.84375 C 3.261719 -1.707031 3.863281 -1.640625 4.46875 -1.640625 C 5.007812 -1.640625 5.414062 -1.710938 5.6875 -1.859375 C 5.964844 -2.011719 6.109375 -2.238281 6.109375 -2.53125 C 6.109375 -2.777344 6.011719 -2.96875 5.828125 -3.09375 C 5.640625 -3.214844 5.257812 -3.3125 4.6875 -3.375 L 4.203125 -3.4375 C 2.953125 -3.589844 2.074219 -3.878906 1.578125 -4.296875 C 1.078125 -4.722656 0.828125 -5.367188 0.828125 -6.234375 C 0.828125 -7.160156 1.144531 -7.847656 1.78125 -8.296875 C 2.414062 -8.742188 3.390625 -8.96875 4.703125 -8.96875 C 5.222656 -8.96875 5.765625 -8.925781 6.328125 -8.84375 C 6.898438 -8.769531 7.519531 -8.648438 8.1875 -8.484375 Z M 8.1875 -8.484375 "/>
</symbol>
<symbol overflow="visible" id="glyph0-18">
<path style="stroke:none;" d="M 10.140625 -5.328125 L 10.140625 0 L 7.328125 0 L 7.328125 -4.0625 C 7.328125 -4.832031 7.308594 -5.359375 7.28125 -5.640625 C 7.25 -5.929688 7.191406 -6.144531 7.109375 -6.28125 C 6.992188 -6.457031 6.839844 -6.597656 6.65625 -6.703125 C 6.46875 -6.804688 6.253906 -6.859375 6.015625 -6.859375 C 5.429688 -6.859375 4.972656 -6.628906 4.640625 -6.171875 C 4.304688 -5.722656 4.140625 -5.101562 4.140625 -4.3125 L 4.140625 0 L 1.34375 0 L 1.34375 -12.15625 L 4.140625 -12.15625 L 4.140625 -7.46875 C 4.566406 -7.976562 5.015625 -8.351562 5.484375 -8.59375 C 5.960938 -8.839844 6.488281 -8.96875 7.0625 -8.96875 C 8.070312 -8.96875 8.835938 -8.652344 9.359375 -8.03125 C 9.878906 -7.414062 10.140625 -6.511719 10.140625 -5.328125 Z M 10.140625 -5.328125 "/>
</symbol>
<symbol overflow="visible" id="glyph0-19">
<path style="stroke:none;" d="M 7.84375 -6.375 C 7.601562 -6.488281 7.355469 -6.570312 7.109375 -6.625 C 6.867188 -6.675781 6.628906 -6.703125 6.390625 -6.703125 C 5.671875 -6.703125 5.113281 -6.472656 4.71875 -6.015625 C 4.332031 -5.554688 4.140625 -4.894531 4.140625 -4.03125 L 4.140625 0 L 1.34375 0 L 1.34375 -8.75 L 4.140625 -8.75 L 4.140625 -7.3125 C 4.503906 -7.882812 4.914062 -8.300781 5.375 -8.5625 C 5.839844 -8.832031 6.40625 -8.96875 7.0625 -8.96875 C 7.152344 -8.96875 7.253906 -8.960938 7.359375 -8.953125 C 7.472656 -8.941406 7.632812 -8.925781 7.84375 -8.90625 Z M 7.84375 -6.375 "/>
</symbol>
<symbol overflow="visible" id="glyph0-20">
<path style="stroke:none;" d="M 7.703125 -12.15625 L 10.515625 -12.15625 L 10.515625 -9.875 L 7.703125 -9.875 Z M 7.125 -12.15625 L 7.125 -10.328125 L 5.578125 -10.328125 C 5.179688 -10.328125 4.902344 -10.253906 4.75 -10.109375 C 4.601562 -9.960938 4.53125 -9.710938 4.53125 -9.359375 L 4.53125 -8.75 L 10.515625 -8.75 L 10.515625 0 L 7.703125 0 L 7.703125 -6.75 L 4.53125 -6.75 L 4.53125 0 L 1.71875 0 L 1.71875 -6.75 L 0.34375 -6.75 L 0.34375 -8.75 L 1.71875 -8.75 L 1.71875 -9.359375 C 1.71875 -10.316406 1.984375 -11.019531 2.515625 -11.46875 C 3.042969 -11.925781 3.867188 -12.15625 4.984375 -12.15625 Z M 7.125 -12.15625 "/>
</symbol>
<symbol overflow="visible" id="glyph0-21">
<path style="stroke:none;" d="M 7.359375 -5.84375 C 7.359375 -7.300781 7.222656 -8.328125 6.953125 -8.921875 C 6.679688 -9.523438 6.222656 -9.828125 5.578125 -9.828125 C 4.929688 -9.828125 4.464844 -9.523438 4.1875 -8.921875 C 3.914062 -8.328125 3.78125 -7.300781 3.78125 -5.84375 C 3.78125 -4.375 3.914062 -3.335938 4.1875 -2.734375 C 4.464844 -2.128906 4.929688 -1.828125 5.578125 -1.828125 C 6.210938 -1.828125 6.664062 -2.128906 6.9375 -2.734375 C 7.214844 -3.335938 7.359375 -4.375 7.359375 -5.84375 Z M 10.375 -5.828125 C 10.375 -3.890625 9.957031 -2.394531 9.125 -1.34375 C 8.289062 -0.289062 7.105469 0.234375 5.578125 0.234375 C 4.035156 0.234375 2.847656 -0.289062 2.015625 -1.34375 C 1.179688 -2.394531 0.765625 -3.890625 0.765625 -5.828125 C 0.765625 -7.761719 1.179688 -9.253906 2.015625 -10.296875 C 2.847656 -11.347656 4.035156 -11.875 5.578125 -11.875 C 7.105469 -11.875 8.289062 -11.347656 9.125 -10.296875 C 9.957031 -9.253906 10.375 -7.761719 10.375 -5.828125 Z M 10.375 -5.828125 "/>
</symbol>
<symbol overflow="visible" id="glyph0-22">
<path style="stroke:none;" d="M 1.875 -2.078125 L 4.53125 -2.078125 L 4.53125 -9.625 L 1.8125 -9.0625 L 1.8125 -11.109375 L 4.515625 -11.671875 L 7.375 -11.671875 L 7.375 -2.078125 L 10.03125 -2.078125 L 10.03125 0 L 1.875 0 Z M 1.875 -2.078125 "/>
</symbol>
<symbol overflow="visible" id="glyph0-23">
<path style="stroke:none;" d="M 1.078125 -11.671875 L 9.859375 -11.671875 L 9.859375 -9.96875 L 5.3125 0 L 2.390625 0 L 6.6875 -9.453125 L 1.078125 -9.453125 Z M 1.078125 -11.671875 "/>
</symbol>
<symbol overflow="visible" id="glyph0-24">
<path style="stroke:none;" d="M 1.609375 -0.265625 L 1.609375 -2.421875 C 2.085938 -2.191406 2.546875 -2.019531 2.984375 -1.90625 C 3.417969 -1.800781 3.851562 -1.75 4.28125 -1.75 C 5.175781 -1.75 5.875 -1.992188 6.375 -2.484375 C 6.871094 -2.980469 7.164062 -3.722656 7.25 -4.703125 C 6.894531 -4.441406 6.511719 -4.242188 6.109375 -4.109375 C 5.710938 -3.984375 5.277344 -3.921875 4.8125 -3.921875 C 3.625 -3.921875 2.660156 -4.269531 1.921875 -4.96875 C 1.191406 -5.664062 0.828125 -6.582031 0.828125 -7.71875 C 0.828125 -8.964844 1.234375 -9.96875 2.046875 -10.71875 C 2.867188 -11.476562 3.960938 -11.859375 5.328125 -11.859375 C 6.847656 -11.859375 8.023438 -11.339844 8.859375 -10.3125 C 9.691406 -9.289062 10.109375 -7.839844 10.109375 -5.96875 C 10.109375 -4.039062 9.617188 -2.523438 8.640625 -1.421875 C 7.671875 -0.316406 6.335938 0.234375 4.640625 0.234375 C 4.097656 0.234375 3.574219 0.191406 3.078125 0.109375 C 2.578125 0.0234375 2.085938 -0.0976562 1.609375 -0.265625 Z M 5.3125 -5.875 C 5.839844 -5.875 6.238281 -6.046875 6.5 -6.390625 C 6.769531 -6.730469 6.90625 -7.242188 6.90625 -7.921875 C 6.90625 -8.597656 6.769531 -9.109375 6.5 -9.453125 C 6.238281 -9.792969 5.839844 -9.96875 5.3125 -9.96875 C 4.789062 -9.96875 4.394531 -9.792969 4.125 -9.453125 C 3.863281 -9.109375 3.734375 -8.597656 3.734375 -7.921875 C 3.734375 -7.242188 3.863281 -6.730469 4.125 -6.390625 C 4.394531 -6.046875 4.789062 -5.875 5.3125 -5.875 Z M 5.3125 -5.875 "/>
</symbol>
<symbol overflow="visible" id="glyph0-25">
<path style="stroke:none;" d="M 1.703125 -11.671875 L 9.171875 -11.671875 L 9.171875 -9.453125 L 4.09375 -9.453125 L 4.09375 -7.65625 C 4.320312 -7.714844 4.550781 -7.765625 4.78125 -7.796875 C 5.019531 -7.824219 5.265625 -7.84375 5.515625 -7.84375 C 6.929688 -7.84375 8.035156 -7.488281 8.828125 -6.78125 C 9.617188 -6.070312 10.015625 -5.082031 10.015625 -3.8125 C 10.015625 -2.550781 9.582031 -1.558594 8.71875 -0.84375 C 7.863281 -0.125 6.667969 0.234375 5.140625 0.234375 C 4.472656 0.234375 3.816406 0.164062 3.171875 0.03125 C 2.523438 -0.0898438 1.878906 -0.285156 1.234375 -0.546875 L 1.234375 -2.921875 C 1.867188 -2.554688 2.472656 -2.277344 3.046875 -2.09375 C 3.617188 -1.914062 4.15625 -1.828125 4.65625 -1.828125 C 5.382812 -1.828125 5.957031 -2.003906 6.375 -2.359375 C 6.800781 -2.710938 7.015625 -3.195312 7.015625 -3.8125 C 7.015625 -4.425781 6.800781 -4.910156 6.375 -5.265625 C 5.957031 -5.617188 5.382812 -5.796875 4.65625 -5.796875 C 4.226562 -5.796875 3.769531 -5.738281 3.28125 -5.625 C 2.789062 -5.507812 2.261719 -5.335938 1.703125 -5.109375 Z M 1.703125 -11.671875 "/>
</symbol>
<symbol overflow="visible" id="glyph0-26">
<path style="stroke:none;" d="M 7.453125 -6.296875 C 8.242188 -6.085938 8.84375 -5.730469 9.25 -5.234375 C 9.652344 -4.734375 9.859375 -4.089844 9.859375 -3.3125 C 9.859375 -2.15625 9.414062 -1.273438 8.53125 -0.671875 C 7.644531 -0.0664062 6.351562 0.234375 4.65625 0.234375 C 4.0625 0.234375 3.460938 0.179688 2.859375 0.078125 C 2.253906 -0.0117188 1.660156 -0.160156 1.078125 -0.359375 L 1.078125 -2.671875 C 1.636719 -2.390625 2.195312 -2.175781 2.75 -2.03125 C 3.300781 -1.894531 3.847656 -1.828125 4.390625 -1.828125 C 5.179688 -1.828125 5.789062 -1.960938 6.21875 -2.234375 C 6.644531 -2.511719 6.859375 -2.910156 6.859375 -3.421875 C 6.859375 -3.949219 6.636719 -4.351562 6.203125 -4.625 C 5.765625 -4.902344 5.121094 -5.046875 4.28125 -5.046875 L 3.078125 -5.046875 L 3.078125 -6.984375 L 4.34375 -6.984375 C 5.089844 -6.984375 5.648438 -7.097656 6.015625 -7.328125 C 6.386719 -7.566406 6.578125 -7.929688 6.578125 -8.421875 C 6.578125 -8.867188 6.394531 -9.210938 6.03125 -9.453125 C 5.675781 -9.699219 5.167969 -9.828125 4.515625 -9.828125 C 4.035156 -9.828125 3.542969 -9.769531 3.046875 -9.65625 C 2.554688 -9.550781 2.066406 -9.386719 1.578125 -9.171875 L 1.578125 -11.375 C 2.167969 -11.539062 2.757812 -11.664062 3.34375 -11.75 C 3.925781 -11.832031 4.5 -11.875 5.0625 -11.875 C 6.570312 -11.875 7.703125 -11.621094 8.453125 -11.125 C 9.210938 -10.632812 9.59375 -9.886719 9.59375 -8.890625 C 9.59375 -8.203125 9.410156 -7.636719 9.046875 -7.203125 C 8.691406 -6.773438 8.160156 -6.472656 7.453125 -6.296875 Z M 7.453125 -6.296875 "/>
</symbol>
<symbol overflow="visible" id="glyph0-27">
<path style="stroke:none;" d="M 5.890625 -9.1875 L 2.59375 -4.3125 L 5.890625 -4.3125 Z M 5.390625 -11.671875 L 8.734375 -11.671875 L 8.734375 -4.3125 L 10.40625 -4.3125 L 10.40625 -2.125 L 8.734375 -2.125 L 8.734375 0 L 5.890625 0 L 5.890625 -2.125 L 0.71875 -2.125 L 0.71875 -4.703125 Z M 5.390625 -11.671875 "/>
</symbol>
<symbol overflow="visible" id="glyph0-28">
<path style="stroke:none;" d="M 1.640625 -3.03125 L 4.453125 -3.03125 L 4.453125 0 L 1.640625 0 Z M 1.640625 -3.03125 "/>
</symbol>
<symbol overflow="visible" id="glyph0-29">
<path style="stroke:none;" d="M 4.609375 -2.21875 L 9.75 -2.21875 L 9.75 0 L 1.265625 0 L 1.265625 -2.21875 L 5.53125 -5.96875 C 5.902344 -6.308594 6.179688 -6.644531 6.359375 -6.96875 C 6.542969 -7.300781 6.640625 -7.644531 6.640625 -8 C 6.640625 -8.550781 6.457031 -8.992188 6.09375 -9.328125 C 5.726562 -9.660156 5.238281 -9.828125 4.625 -9.828125 C 4.15625 -9.828125 3.636719 -9.722656 3.078125 -9.515625 C 2.523438 -9.316406 1.929688 -9.019531 1.296875 -8.625 L 1.296875 -11.1875 C 1.972656 -11.414062 2.640625 -11.585938 3.296875 -11.703125 C 3.960938 -11.816406 4.613281 -11.875 5.25 -11.875 C 6.644531 -11.875 7.726562 -11.566406 8.5 -10.953125 C 9.277344 -10.335938 9.671875 -9.480469 9.671875 -8.390625 C 9.671875 -7.753906 9.503906 -7.160156 9.171875 -6.609375 C 8.847656 -6.054688 8.160156 -5.320312 7.109375 -4.40625 Z M 4.609375 -2.21875 "/>
</symbol>
<symbol overflow="visible" id="glyph0-30">
<path style="stroke:none;" d="M 5.578125 -5.21875 C 5.015625 -5.21875 4.582031 -5.058594 4.28125 -4.75 C 3.976562 -4.445312 3.828125 -4.007812 3.828125 -3.4375 C 3.828125 -2.863281 3.976562 -2.425781 4.28125 -2.125 C 4.582031 -1.820312 5.015625 -1.671875 5.578125 -1.671875 C 6.128906 -1.671875 6.550781 -1.820312 6.84375 -2.125 C 7.144531 -2.425781 7.296875 -2.863281 7.296875 -3.4375 C 7.296875 -4.019531 7.144531 -4.460938 6.84375 -4.765625 C 6.550781 -5.066406 6.128906 -5.21875 5.578125 -5.21875 Z M 3.375 -6.21875 C 2.664062 -6.425781 2.128906 -6.75 1.765625 -7.1875 C 1.410156 -7.632812 1.234375 -8.191406 1.234375 -8.859375 C 1.234375 -9.835938 1.597656 -10.582031 2.328125 -11.09375 C 3.066406 -11.613281 4.148438 -11.875 5.578125 -11.875 C 6.980469 -11.875 8.050781 -11.617188 8.78125 -11.109375 C 9.519531 -10.597656 9.890625 -9.847656 9.890625 -8.859375 C 9.890625 -8.191406 9.707031 -7.632812 9.34375 -7.1875 C 8.988281 -6.75 8.457031 -6.425781 7.75 -6.21875 C 8.539062 -6 9.132812 -5.636719 9.53125 -5.140625 C 9.933594 -4.648438 10.140625 -4.027344 10.140625 -3.28125 C 10.140625 -2.125 9.753906 -1.246094 8.984375 -0.65625 C 8.222656 -0.0625 7.085938 0.234375 5.578125 0.234375 C 4.054688 0.234375 2.910156 -0.0625 2.140625 -0.65625 C 1.367188 -1.246094 0.984375 -2.125 0.984375 -3.28125 C 0.984375 -4.027344 1.179688 -4.648438 1.578125 -5.140625 C 1.980469 -5.636719 2.582031 -6 3.375 -6.21875 Z M 4.078125 -8.546875 C 4.078125 -8.085938 4.207031 -7.730469 4.46875 -7.484375 C 4.726562 -7.234375 5.097656 -7.109375 5.578125 -7.109375 C 6.042969 -7.109375 6.40625 -7.234375 6.65625 -7.484375 C 6.914062 -7.730469 7.046875 -8.085938 7.046875 -8.546875 C 7.046875 -9.011719 6.914062 -9.367188 6.65625 -9.609375 C 6.40625 -9.855469 6.042969 -9.984375 5.578125 -9.984375 C 5.097656 -9.984375 4.726562 -9.855469 4.46875 -9.609375 C 4.207031 -9.359375 4.078125 -9.003906 4.078125 -8.546875 Z M 4.078125 -8.546875 "/>
</symbol>
<symbol overflow="visible" id="glyph1-0">
<path style="stroke:none;" d="M 0.65625 2.296875 L 0.65625 -9.171875 L 7.15625 -9.171875 L 7.15625 2.296875 Z M 1.390625 1.578125 L 6.4375 1.578125 L 6.4375 -8.4375 L 1.390625 -8.4375 Z M 1.390625 1.578125 "/>
</symbol>
<symbol overflow="visible" id="glyph1-1">
<path style="stroke:none;" d="M 4.4375 -7.4375 L 4.4375 -4.609375 L 7.265625 -4.609375 L 7.265625 -3.53125 L 4.4375 -3.53125 L 4.4375 -0.71875 L 3.375 -0.71875 L 3.375 -3.53125 L 0.5625 -3.53125 L 0.5625 -4.609375 L 3.375 -4.609375 L 3.375 -7.4375 Z M 4.4375 -7.4375 "/>
</symbol>
<symbol overflow="visible" id="glyph1-2">
<path style="stroke:none;" d="M 6.171875 -6.859375 L 6.171875 -5.71875 C 5.835938 -5.914062 5.496094 -6.0625 5.15625 -6.15625 C 4.820312 -6.246094 4.476562 -6.296875 4.125 -6.296875 C 3.601562 -6.296875 3.210938 -6.210938 2.953125 -6.046875 C 2.691406 -5.878906 2.5625 -5.617188 2.5625 -5.265625 C 2.5625 -4.941406 2.65625 -4.699219 2.84375 -4.546875 C 3.039062 -4.390625 3.523438 -4.238281 4.296875 -4.09375 L 4.78125 -4 C 5.351562 -3.894531 5.785156 -3.675781 6.078125 -3.34375 C 6.378906 -3.007812 6.53125 -2.582031 6.53125 -2.0625 C 6.53125 -1.351562 6.277344 -0.800781 5.78125 -0.40625 C 5.289062 -0.0078125 4.597656 0.1875 3.703125 0.1875 C 3.359375 0.1875 2.992188 0.148438 2.609375 0.078125 C 2.222656 0.00390625 1.804688 -0.109375 1.359375 -0.265625 L 1.359375 -1.46875 C 1.785156 -1.238281 2.195312 -1.066406 2.59375 -0.953125 C 2.996094 -0.847656 3.378906 -0.796875 3.734375 -0.796875 C 4.242188 -0.796875 4.640625 -0.898438 4.921875 -1.109375 C 5.210938 -1.316406 5.359375 -1.609375 5.359375 -1.984375 C 5.359375 -2.523438 4.835938 -2.898438 3.796875 -3.109375 L 3.75 -3.125 L 3.3125 -3.21875 C 2.632812 -3.339844 2.136719 -3.5625 1.828125 -3.875 C 1.523438 -4.183594 1.375 -4.609375 1.375 -5.140625 C 1.375 -5.824219 1.601562 -6.351562 2.0625 -6.71875 C 2.527344 -7.089844 3.191406 -7.28125 4.046875 -7.28125 C 4.417969 -7.28125 4.785156 -7.242188 5.140625 -7.171875 C 5.492188 -7.109375 5.835938 -7.003906 6.171875 -6.859375 Z M 6.171875 -6.859375 "/>
</symbol>
<symbol overflow="visible" id="glyph1-3">
<path style="stroke:none;" d="M 4.453125 -3.578125 L 4.0625 -3.578125 C 3.382812 -3.578125 2.871094 -3.457031 2.53125 -3.21875 C 2.1875 -2.976562 2.015625 -2.617188 2.015625 -2.140625 C 2.015625 -1.710938 2.140625 -1.378906 2.390625 -1.140625 C 2.648438 -0.910156 3.007812 -0.796875 3.46875 -0.796875 C 4.113281 -0.796875 4.617188 -1.019531 4.984375 -1.46875 C 5.355469 -1.914062 5.546875 -2.53125 5.546875 -3.3125 L 5.546875 -3.578125 Z M 6.71875 -4.0625 L 6.71875 0 L 5.546875 0 L 5.546875 -1.046875 C 5.296875 -0.628906 4.976562 -0.316406 4.59375 -0.109375 C 4.21875 0.0859375 3.757812 0.1875 3.21875 0.1875 C 2.5 0.1875 1.917969 -0.015625 1.484375 -0.421875 C 1.054688 -0.835938 0.84375 -1.382812 0.84375 -2.0625 C 0.84375 -2.851562 1.109375 -3.453125 1.640625 -3.859375 C 2.167969 -4.273438 2.953125 -4.484375 3.984375 -4.484375 L 5.546875 -4.484375 L 5.546875 -4.671875 C 5.546875 -5.230469 5.398438 -5.644531 5.109375 -5.90625 C 4.828125 -6.164062 4.378906 -6.296875 3.765625 -6.296875 C 3.359375 -6.296875 2.949219 -6.238281 2.546875 -6.125 C 2.140625 -6.007812 1.742188 -5.839844 1.359375 -5.625 L 1.359375 -6.78125 C 1.792969 -6.945312 2.210938 -7.070312 2.609375 -7.15625 C 3.003906 -7.238281 3.390625 -7.28125 3.765625 -7.28125 C 4.347656 -7.28125 4.847656 -7.191406 5.265625 -7.015625 C 5.679688 -6.847656 6.019531 -6.585938 6.28125 -6.234375 C 6.433594 -6.023438 6.546875 -5.761719 6.609375 -5.453125 C 6.679688 -5.140625 6.71875 -4.675781 6.71875 -4.0625 Z M 6.71875 -4.0625 "/>
</symbol>
<symbol overflow="visible" id="glyph1-4">
<path style="stroke:none;" d="M 4.0625 -2.578125 C 4.0625 -2.054688 4.15625 -1.660156 4.34375 -1.390625 C 4.539062 -1.117188 4.828125 -0.984375 5.203125 -0.984375 L 6.5625 -0.984375 L 6.5625 0 L 5.078125 0 C 4.378906 0 3.835938 -0.222656 3.453125 -0.671875 C 3.078125 -1.117188 2.890625 -1.753906 2.890625 -2.578125 L 2.890625 -9.03125 L 1.015625 -9.03125 L 1.015625 -9.953125 L 4.0625 -9.953125 Z M 4.0625 -2.578125 "/>
</symbol>
<symbol overflow="visible" id="glyph1-5">
<path style="stroke:none;" d="M 5.453125 -6.203125 L 5.453125 -9.875 L 6.609375 -9.875 L 6.609375 0 L 5.453125 0 L 5.453125 -0.890625 C 5.253906 -0.546875 4.992188 -0.277344 4.671875 -0.09375 C 4.347656 0.0898438 3.972656 0.1875 3.546875 0.1875 C 2.691406 0.1875 2.011719 -0.144531 1.515625 -0.8125 C 1.023438 -1.476562 0.78125 -2.398438 0.78125 -3.578125 C 0.78125 -4.730469 1.023438 -5.640625 1.515625 -6.296875 C 2.011719 -6.949219 2.691406 -7.28125 3.546875 -7.28125 C 3.972656 -7.28125 4.347656 -7.183594 4.671875 -7 C 5.003906 -6.820312 5.265625 -6.554688 5.453125 -6.203125 Z M 2.015625 -3.546875 C 2.015625 -2.640625 2.15625 -1.957031 2.4375 -1.5 C 2.726562 -1.039062 3.15625 -0.8125 3.71875 -0.8125 C 4.277344 -0.8125 4.707031 -1.039062 5 -1.5 C 5.300781 -1.964844 5.453125 -2.648438 5.453125 -3.546875 C 5.453125 -4.449219 5.300781 -5.132812 5 -5.59375 C 4.707031 -6.058594 4.277344 -6.296875 3.71875 -6.296875 C 3.15625 -6.296875 2.726562 -6.058594 2.4375 -5.59375 C 2.15625 -5.132812 2.015625 -4.449219 2.015625 -3.546875 Z M 2.015625 -3.546875 "/>
</symbol>
<symbol overflow="visible" id="glyph1-6">
<path style="stroke:none;" d="M 3.90625 -6.296875 C 3.3125 -6.296875 2.863281 -6.058594 2.5625 -5.59375 C 2.257812 -5.132812 2.109375 -4.449219 2.109375 -3.546875 C 2.109375 -2.648438 2.257812 -1.964844 2.5625 -1.5 C 2.863281 -1.039062 3.3125 -0.8125 3.90625 -0.8125 C 4.507812 -0.8125 4.960938 -1.039062 5.265625 -1.5 C 5.566406 -1.964844 5.71875 -2.648438 5.71875 -3.546875 C 5.71875 -4.449219 5.566406 -5.132812 5.265625 -5.59375 C 4.960938 -6.058594 4.507812 -6.296875 3.90625 -6.296875 Z M 3.90625 -7.28125 C 4.894531 -7.28125 5.648438 -6.957031 6.171875 -6.3125 C 6.691406 -5.675781 6.953125 -4.753906 6.953125 -3.546875 C 6.953125 -2.335938 6.691406 -1.410156 6.171875 -0.765625 C 5.648438 -0.128906 4.894531 0.1875 3.90625 0.1875 C 2.925781 0.1875 2.175781 -0.128906 1.65625 -0.765625 C 1.132812 -1.410156 0.875 -2.335938 0.875 -3.546875 C 0.875 -4.753906 1.132812 -5.675781 1.65625 -6.3125 C 2.175781 -6.957031 2.925781 -7.28125 3.90625 -7.28125 Z M 3.90625 -7.28125 "/>
</symbol>
<symbol overflow="visible" id="glyph1-7">
<path style="stroke:none;" d="M 1.25 -9.484375 L 6.875 -9.484375 L 6.875 -8.390625 L 2.53125 -8.390625 L 2.53125 -5.59375 L 6.6875 -5.59375 L 6.6875 -4.515625 L 2.53125 -4.515625 L 2.53125 -1.078125 L 7 -1.078125 L 7 0 L 1.25 0 Z M 1.25 -9.484375 "/>
</symbol>
<symbol overflow="visible" id="glyph1-8">
<path style="stroke:none;" d="M 6.671875 -4.40625 L 6.671875 0 L 5.5 0 L 5.5 -4.40625 C 5.5 -5.039062 5.382812 -5.507812 5.15625 -5.8125 C 4.9375 -6.113281 4.585938 -6.265625 4.109375 -6.265625 C 3.554688 -6.265625 3.132812 -6.070312 2.84375 -5.6875 C 2.550781 -5.300781 2.40625 -4.742188 2.40625 -4.015625 L 2.40625 0 L 1.234375 0 L 1.234375 -7.109375 L 2.40625 -7.109375 L 2.40625 -6.046875 C 2.613281 -6.449219 2.894531 -6.757812 3.25 -6.96875 C 3.601562 -7.175781 4.023438 -7.28125 4.515625 -7.28125 C 5.230469 -7.28125 5.769531 -7.039062 6.125 -6.5625 C 6.488281 -6.09375 6.671875 -5.371094 6.671875 -4.40625 Z M 6.671875 -4.40625 "/>
</symbol>
<symbol overflow="visible" id="glyph1-9">
<path style="stroke:none;" d="M 2.765625 -1.046875 C 3.847656 -1.046875 4.601562 -1.3125 5.03125 -1.84375 C 5.457031 -2.371094 5.671875 -3.335938 5.671875 -4.734375 C 5.671875 -6.128906 5.457031 -7.09375 5.03125 -7.625 C 4.601562 -8.152344 3.847656 -8.421875 2.765625 -8.421875 L 2.15625 -8.421875 L 2.15625 -1.046875 Z M 2.796875 -9.484375 C 4.242188 -9.484375 5.304688 -9.097656 5.984375 -8.328125 C 6.667969 -7.554688 7.015625 -6.355469 7.015625 -4.734375 C 7.015625 -3.109375 6.667969 -1.910156 5.984375 -1.140625 C 5.304688 -0.378906 4.242188 0 2.796875 0 L 0.875 0 L 0.875 -9.484375 Z M 2.796875 -9.484375 "/>
</symbol>
<symbol overflow="visible" id="glyph1-10">
<path style="stroke:none;" d="M 7.328125 -5.640625 C 7.078125 -5.835938 6.820312 -5.976562 6.5625 -6.0625 C 6.3125 -6.152344 6.027344 -6.203125 5.71875 -6.203125 C 4.988281 -6.203125 4.429688 -5.972656 4.046875 -5.515625 C 3.660156 -5.054688 3.46875 -4.394531 3.46875 -3.53125 L 3.46875 0 L 2.296875 0 L 2.296875 -7.109375 L 3.46875 -7.109375 L 3.46875 -5.71875 C 3.664062 -6.214844 3.96875 -6.601562 4.375 -6.875 C 4.777344 -7.144531 5.257812 -7.28125 5.8125 -7.28125 C 6.089844 -7.28125 6.359375 -7.242188 6.609375 -7.171875 C 6.855469 -7.097656 7.097656 -6.988281 7.328125 -6.84375 Z M 7.328125 -5.640625 "/>
</symbol>
<symbol overflow="visible" id="glyph1-11">
<path style="stroke:none;" d="M 7.0625 -3.84375 L 7.0625 -3.28125 L 2 -3.28125 L 2 -3.234375 C 2 -2.460938 2.203125 -1.863281 2.609375 -1.4375 C 3.011719 -1.019531 3.582031 -0.8125 4.3125 -0.8125 C 4.683594 -0.8125 5.078125 -0.867188 5.484375 -0.984375 C 5.886719 -1.097656 6.320312 -1.28125 6.78125 -1.53125 L 6.78125 -0.359375 C 6.34375 -0.179688 5.914062 -0.0429688 5.5 0.046875 C 5.082031 0.136719 4.679688 0.1875 4.296875 0.1875 C 3.191406 0.1875 2.324219 -0.140625 1.703125 -0.796875 C 1.085938 -1.460938 0.78125 -2.378906 0.78125 -3.546875 C 0.78125 -4.679688 1.082031 -5.585938 1.6875 -6.265625 C 2.300781 -6.941406 3.113281 -7.28125 4.125 -7.28125 C 5.027344 -7.28125 5.742188 -6.972656 6.265625 -6.359375 C 6.792969 -5.742188 7.0625 -4.902344 7.0625 -3.84375 Z M 5.890625 -4.1875 C 5.867188 -4.871094 5.699219 -5.394531 5.390625 -5.75 C 5.085938 -6.113281 4.648438 -6.296875 4.078125 -6.296875 C 3.515625 -6.296875 3.050781 -6.105469 2.6875 -5.734375 C 2.320312 -5.359375 2.105469 -4.839844 2.046875 -4.1875 Z M 5.890625 -4.1875 "/>
</symbol>
<symbol overflow="visible" id="glyph1-12">
<path style="stroke:none;" d="M 2.375 -0.890625 L 2.375 2.703125 L 1.203125 2.703125 L 1.203125 -7.109375 L 2.375 -7.109375 L 2.375 -6.203125 C 2.570312 -6.554688 2.832031 -6.820312 3.15625 -7 C 3.476562 -7.183594 3.851562 -7.28125 4.28125 -7.28125 C 5.132812 -7.28125 5.804688 -6.945312 6.296875 -6.28125 C 6.785156 -5.613281 7.03125 -4.691406 7.03125 -3.515625 C 7.03125 -2.367188 6.785156 -1.460938 6.296875 -0.796875 C 5.804688 -0.140625 5.132812 0.1875 4.28125 0.1875 C 3.84375 0.1875 3.460938 0.0898438 3.140625 -0.09375 C 2.816406 -0.277344 2.558594 -0.546875 2.375 -0.890625 Z M 5.8125 -3.546875 C 5.8125 -4.449219 5.664062 -5.132812 5.375 -5.59375 C 5.09375 -6.058594 4.667969 -6.296875 4.109375 -6.296875 C 3.535156 -6.296875 3.101562 -6.058594 2.8125 -5.59375 C 2.519531 -5.132812 2.375 -4.449219 2.375 -3.546875 C 2.375 -2.648438 2.519531 -1.964844 2.8125 -1.5 C 3.101562 -1.039062 3.535156 -0.8125 4.109375 -0.8125 C 4.667969 -0.8125 5.09375 -1.039062 5.375 -1.5 C 5.664062 -1.957031 5.8125 -2.640625 5.8125 -3.546875 Z M 5.8125 -3.546875 "/>
</symbol>
<symbol overflow="visible" id="glyph1-13">
<path style="stroke:none;" d="M 6.734375 -0.359375 C 6.421875 -0.179688 6.097656 -0.0429688 5.765625 0.046875 C 5.429688 0.136719 5.089844 0.1875 4.75 0.1875 C 3.644531 0.1875 2.777344 -0.140625 2.15625 -0.796875 C 1.539062 -1.460938 1.234375 -2.378906 1.234375 -3.546875 C 1.234375 -4.710938 1.539062 -5.625 2.15625 -6.28125 C 2.777344 -6.945312 3.644531 -7.28125 4.75 -7.28125 C 5.089844 -7.28125 5.425781 -7.230469 5.75 -7.140625 C 6.070312 -7.054688 6.398438 -6.917969 6.734375 -6.734375 L 6.734375 -5.515625 C 6.421875 -5.785156 6.105469 -5.984375 5.796875 -6.109375 C 5.492188 -6.230469 5.144531 -6.296875 4.75 -6.296875 C 4.019531 -6.296875 3.457031 -6.054688 3.0625 -5.578125 C 2.664062 -5.109375 2.46875 -4.429688 2.46875 -3.546875 C 2.46875 -2.671875 2.664062 -1.992188 3.0625 -1.515625 C 3.457031 -1.046875 4.019531 -0.8125 4.75 -0.8125 C 5.152344 -0.8125 5.519531 -0.875 5.84375 -1 C 6.164062 -1.121094 6.460938 -1.316406 6.734375 -1.578125 Z M 6.734375 -0.359375 "/>
</symbol>
<symbol overflow="visible" id="glyph1-14">
<path style="stroke:none;" d="M 1.625 -7.109375 L 4.609375 -7.109375 L 4.609375 -0.90625 L 6.9375 -0.90625 L 6.9375 0 L 1.125 0 L 1.125 -0.90625 L 3.453125 -0.90625 L 3.453125 -6.203125 L 1.625 -6.203125 Z M 3.453125 -9.875 L 4.609375 -9.875 L 4.609375 -8.390625 L 3.453125 -8.390625 Z M 3.453125 -9.875 "/>
</symbol>
<symbol overflow="visible" id="glyph1-15">
<path style="stroke:none;" d="M 6.8125 -0.34375 C 6.488281 -0.164062 6.152344 -0.0351562 5.8125 0.046875 C 5.46875 0.136719 5.101562 0.1875 4.71875 0.1875 C 3.5 0.1875 2.550781 -0.238281 1.875 -1.09375 C 1.207031 -1.957031 0.875 -3.171875 0.875 -4.734375 C 0.875 -6.273438 1.210938 -7.476562 1.890625 -8.34375 C 2.566406 -9.214844 3.507812 -9.65625 4.71875 -9.65625 C 5.101562 -9.65625 5.46875 -9.605469 5.8125 -9.515625 C 6.152344 -9.429688 6.488281 -9.300781 6.8125 -9.125 L 6.8125 -7.8125 C 6.5 -8.070312 6.160156 -8.269531 5.796875 -8.40625 C 5.441406 -8.539062 5.082031 -8.609375 4.71875 -8.609375 C 3.882812 -8.609375 3.257812 -8.285156 2.84375 -7.640625 C 2.425781 -6.992188 2.21875 -6.023438 2.21875 -4.734375 C 2.21875 -3.429688 2.425781 -2.457031 2.84375 -1.8125 C 3.257812 -1.175781 3.882812 -0.859375 4.71875 -0.859375 C 5.089844 -0.859375 5.457031 -0.925781 5.8125 -1.0625 C 6.164062 -1.195312 6.5 -1.394531 6.8125 -1.65625 Z M 6.8125 -0.34375 "/>
</symbol>
<symbol overflow="visible" id="glyph1-16">
<path style="stroke:none;" d="M 4.296875 -6.390625 C 4.429688 -6.691406 4.609375 -6.914062 4.828125 -7.0625 C 5.054688 -7.207031 5.328125 -7.28125 5.640625 -7.28125 C 6.210938 -7.28125 6.613281 -7.054688 6.84375 -6.609375 C 7.082031 -6.171875 7.203125 -5.339844 7.203125 -4.125 L 7.203125 0 L 6.140625 0 L 6.140625 -4.0625 C 6.140625 -5.070312 6.082031 -5.695312 5.96875 -5.9375 C 5.851562 -6.175781 5.648438 -6.296875 5.359375 -6.296875 C 5.015625 -6.296875 4.777344 -6.164062 4.65625 -5.90625 C 4.53125 -5.644531 4.46875 -5.027344 4.46875 -4.0625 L 4.46875 0 L 3.40625 0 L 3.40625 -4.0625 C 3.40625 -5.082031 3.339844 -5.707031 3.21875 -5.9375 C 3.101562 -6.175781 2.886719 -6.296875 2.578125 -6.296875 C 2.265625 -6.296875 2.042969 -6.164062 1.921875 -5.90625 C 1.804688 -5.644531 1.75 -5.027344 1.75 -4.0625 L 1.75 0 L 0.6875 0 L 0.6875 -7.109375 L 1.75 -7.109375 L 1.75 -6.5 C 1.894531 -6.746094 2.070312 -6.941406 2.28125 -7.078125 C 2.488281 -7.210938 2.722656 -7.28125 2.984375 -7.28125 C 3.304688 -7.28125 3.570312 -7.207031 3.78125 -7.0625 C 3.996094 -6.914062 4.171875 -6.691406 4.296875 -6.390625 Z M 4.296875 -6.390625 "/>
</symbol>
<symbol overflow="visible" id="glyph1-17">
<path style="stroke:none;" d="M 3.90625 -1.078125 L 6.140625 -9.484375 L 7.46875 -9.484375 L 4.6875 0 L 3.140625 0 L 0.359375 -9.484375 L 1.6875 -9.484375 Z M 3.90625 -1.078125 "/>
</symbol>
<symbol overflow="visible" id="glyph1-18">
<path style="stroke:none;" d="M 3.890625 -9.125 L 3.890625 -7.109375 L 6.546875 -7.109375 L 6.546875 -6.203125 L 3.890625 -6.203125 L 3.890625 -2.34375 C 3.890625 -1.820312 3.988281 -1.457031 4.1875 -1.25 C 4.394531 -1.039062 4.742188 -0.9375 5.234375 -0.9375 L 6.546875 -0.9375 L 6.546875 0 L 5.125 0 C 4.25 0 3.628906 -0.171875 3.265625 -0.515625 C 2.910156 -0.867188 2.734375 -1.476562 2.734375 -2.34375 L 2.734375 -6.203125 L 0.828125 -6.203125 L 0.828125 -7.109375 L 2.734375 -7.109375 L 2.734375 -9.125 Z M 3.890625 -9.125 "/>
</symbol>
<symbol overflow="visible" id="glyph1-19">
<path style="stroke:none;" d="M 1.234375 -2.6875 L 1.234375 -7.09375 L 2.40625 -7.09375 L 2.40625 -2.6875 C 2.40625 -2.050781 2.515625 -1.582031 2.734375 -1.28125 C 2.960938 -0.976562 3.316406 -0.828125 3.796875 -0.828125 C 4.347656 -0.828125 4.769531 -1.019531 5.0625 -1.40625 C 5.351562 -1.800781 5.5 -2.359375 5.5 -3.078125 L 5.5 -7.09375 L 6.671875 -7.09375 L 6.671875 0 L 5.5 0 L 5.5 -1.0625 C 5.289062 -0.65625 5.003906 -0.339844 4.640625 -0.125 C 4.285156 0.0820312 3.867188 0.1875 3.390625 0.1875 C 2.660156 0.1875 2.117188 -0.0507812 1.765625 -0.53125 C 1.410156 -1.007812 1.234375 -1.726562 1.234375 -2.6875 Z M 1.234375 -2.6875 "/>
</symbol>
<symbol overflow="visible" id="glyph1-20">
<path style="stroke:none;" d="M 2.53125 -8.421875 L 2.53125 -4.859375 L 4.015625 -4.859375 C 4.605469 -4.859375 5.070312 -5.015625 5.40625 -5.328125 C 5.738281 -5.636719 5.90625 -6.078125 5.90625 -6.640625 C 5.90625 -7.199219 5.738281 -7.640625 5.40625 -7.953125 C 5.070312 -8.261719 4.605469 -8.421875 4.015625 -8.421875 Z M 1.25 -9.484375 L 4.015625 -9.484375 C 5.074219 -9.484375 5.878906 -9.238281 6.421875 -8.75 C 6.972656 -8.269531 7.25 -7.566406 7.25 -6.640625 C 7.25 -5.710938 6.972656 -5.007812 6.421875 -4.53125 C 5.878906 -4.050781 5.074219 -3.8125 4.015625 -3.8125 L 2.53125 -3.8125 L 2.53125 0 L 1.25 0 Z M 1.25 -9.484375 "/>
</symbol>
<symbol overflow="visible" id="glyph1-21">
<path style="stroke:none;" d="M 6.421875 -9.15625 L 6.421875 -7.859375 C 6.035156 -8.105469 5.644531 -8.296875 5.25 -8.421875 C 4.863281 -8.542969 4.464844 -8.609375 4.0625 -8.609375 C 3.457031 -8.609375 2.976562 -8.464844 2.625 -8.1875 C 2.28125 -7.90625 2.109375 -7.523438 2.109375 -7.046875 C 2.109375 -6.628906 2.222656 -6.304688 2.453125 -6.078125 C 2.679688 -5.859375 3.113281 -5.675781 3.75 -5.53125 L 4.421875 -5.390625 C 5.304688 -5.179688 5.953125 -4.851562 6.359375 -4.40625 C 6.761719 -3.957031 6.96875 -3.351562 6.96875 -2.59375 C 6.96875 -1.6875 6.683594 -0.992188 6.125 -0.515625 C 5.570312 -0.046875 4.757812 0.1875 3.6875 0.1875 C 3.25 0.1875 2.804688 0.132812 2.359375 0.03125 C 1.910156 -0.0585938 1.457031 -0.203125 1 -0.390625 L 1 -1.75 C 1.488281 -1.4375 1.945312 -1.207031 2.375 -1.0625 C 2.808594 -0.925781 3.25 -0.859375 3.6875 -0.859375 C 4.339844 -0.859375 4.847656 -1.003906 5.203125 -1.296875 C 5.566406 -1.585938 5.75 -1.988281 5.75 -2.5 C 5.75 -2.976562 5.621094 -3.34375 5.375 -3.59375 C 5.125 -3.839844 4.691406 -4.035156 4.078125 -4.171875 L 3.390625 -4.328125 C 2.515625 -4.523438 1.871094 -4.820312 1.46875 -5.21875 C 1.070312 -5.621094 0.875 -6.164062 0.875 -6.84375 C 0.875 -7.695312 1.160156 -8.378906 1.734375 -8.890625 C 2.304688 -9.398438 3.0625 -9.65625 4 -9.65625 C 4.363281 -9.65625 4.742188 -9.613281 5.140625 -9.53125 C 5.542969 -9.445312 5.972656 -9.320312 6.421875 -9.15625 Z M 6.421875 -9.15625 "/>
</symbol>
<symbol overflow="visible" id="glyph1-22">
<path style="stroke:none;" d="M 5.453125 -3.609375 C 5.453125 -4.480469 5.304688 -5.148438 5.015625 -5.609375 C 4.734375 -6.066406 4.316406 -6.296875 3.765625 -6.296875 C 3.191406 -6.296875 2.753906 -6.066406 2.453125 -5.609375 C 2.160156 -5.148438 2.015625 -4.480469 2.015625 -3.609375 C 2.015625 -2.734375 2.164062 -2.066406 2.46875 -1.609375 C 2.769531 -1.148438 3.207031 -0.921875 3.78125 -0.921875 C 4.320312 -0.921875 4.734375 -1.148438 5.015625 -1.609375 C 5.304688 -2.066406 5.453125 -2.734375 5.453125 -3.609375 Z M 6.609375 -0.453125 C 6.609375 0.605469 6.355469 1.414062 5.859375 1.96875 C 5.359375 2.519531 4.617188 2.796875 3.640625 2.796875 C 3.316406 2.796875 2.976562 2.761719 2.625 2.703125 C 2.269531 2.640625 1.917969 2.550781 1.578125 2.4375 L 1.578125 1.28125 C 1.992188 1.476562 2.367188 1.625 2.703125 1.71875 C 3.042969 1.808594 3.359375 1.859375 3.640625 1.859375 C 4.261719 1.859375 4.722656 1.683594 5.015625 1.34375 C 5.304688 1 5.453125 0.457031 5.453125 -0.28125 L 5.453125 -1.125 C 5.265625 -0.726562 5.007812 -0.429688 4.6875 -0.234375 C 4.363281 -0.046875 3.972656 0.046875 3.515625 0.046875 C 2.679688 0.046875 2.011719 -0.28125 1.515625 -0.9375 C 1.023438 -1.601562 0.78125 -2.492188 0.78125 -3.609375 C 0.78125 -4.722656 1.023438 -5.613281 1.515625 -6.28125 C 2.011719 -6.945312 2.679688 -7.28125 3.515625 -7.28125 C 3.972656 -7.28125 4.359375 -7.183594 4.671875 -7 C 4.980469 -6.820312 5.242188 -6.539062 5.453125 -6.15625 L 5.453125 -7.078125 L 6.609375 -7.078125 Z M 6.609375 -0.453125 "/>
</symbol>
<symbol overflow="visible" id="glyph1-23">
<path style="stroke:none;" d="M 0.640625 -7.109375 L 1.84375 -7.109375 L 3.90625 -1.140625 L 5.984375 -7.109375 L 7.1875 -7.109375 L 4.671875 0 L 3.15625 0 Z M 0.640625 -7.109375 "/>
</symbol>
<symbol overflow="visible" id="glyph1-24">
<path style="stroke:none;" d="M 2.109375 -3.515625 C 2.109375 -2.617188 2.25 -1.933594 2.53125 -1.46875 C 2.820312 -1.007812 3.25 -0.78125 3.8125 -0.78125 C 4.371094 -0.78125 4.796875 -1.007812 5.078125 -1.46875 C 5.367188 -1.933594 5.515625 -2.617188 5.515625 -3.515625 C 5.515625 -4.417969 5.367188 -5.101562 5.078125 -5.5625 C 4.796875 -6.027344 4.371094 -6.265625 3.8125 -6.265625 C 3.25 -6.265625 2.820312 -6.027344 2.53125 -5.5625 C 2.25 -5.101562 2.109375 -4.417969 2.109375 -3.515625 Z M 5.515625 -0.875 C 5.328125 -0.53125 5.070312 -0.261719 4.75 -0.078125 C 4.425781 0.105469 4.050781 0.203125 3.625 0.203125 C 2.769531 0.203125 2.097656 -0.125 1.609375 -0.78125 C 1.117188 -1.433594 0.875 -2.34375 0.875 -3.5 C 0.875 -4.675781 1.117188 -5.59375 1.609375 -6.25 C 2.097656 -6.914062 2.769531 -7.25 3.625 -7.25 C 4.050781 -7.25 4.425781 -7.152344 4.75 -6.96875 C 5.070312 -6.789062 5.328125 -6.523438 5.515625 -6.171875 L 5.515625 -7.078125 L 6.703125 -7.078125 L 6.703125 2.734375 L 5.515625 2.734375 Z M 5.515625 -0.875 "/>
</symbol>
</g>
</defs>
<g id="surface42179">
<rect x="0" y="0" width="777" height="615" style="fill:rgb(100%,100%,100%);fill-opacity:1;stroke:none;"/>
<path style="fill-rule:evenodd;fill:rgb(100%,100%,100%);fill-opacity:1;stroke-width:0.1;stroke-linecap:butt;stroke-linejoin:miter;stroke:rgb(0%,0%,0%);stroke-opacity:1;stroke-miterlimit:10;" d="M 31 5.5 L 36.825 5.5 L 36.825 6.9 L 31 6.9 Z M 31 5.5 " transform="matrix(20,0,0,20,-109,71)"/>
<g style="fill:rgb(0%,0%,0%);fill-opacity:1;">
  <use xlink:href="#glyph0-1" x="516.046875" y="200.007867"/>
  <use xlink:href="#glyph0-2" x="525.531196" y="200.007867"/>
  <use xlink:href="#glyph0-3" x="536.921712" y="200.007867"/>
  <use xlink:href="#glyph0-4" x="547.77322" y="200.007867"/>
  <use xlink:href="#glyph0-5" x="559.163737" y="200.007867"/>
  <use xlink:href="#glyph0-6" x="566.81212" y="200.007867"/>
  <use xlink:href="#glyph0-7" x="577.609104" y="200.007867"/>
  <use xlink:href="#glyph0-3" x="589.33572" y="200.007867"/>
  <use xlink:href="#glyph0-8" x="600.187229" y="200.007867"/>
  <use xlink:href="#glyph0-3" x="611.640408" y="200.007867"/>
</g>
<path style="fill-rule:evenodd;fill:rgb(100%,100%,100%);fill-opacity:1;stroke-width:0.1;stroke-linecap:butt;stroke-linejoin:miter;stroke:rgb(0%,0%,0%);stroke-opacity:1;stroke-miterlimit:10;" d="M 31 6.9 L 36.825 6.9 L 36.825 7.9 L 31 7.9 Z M 31 6.9 " transform="matrix(20,0,0,20,-109,71)"/>
<g style="fill:rgb(0%,0%,0%);fill-opacity:1;">
  <use xlink:href="#glyph1-1" x="514" y="223.005968"/>
  <use xlink:href="#glyph1-2" x="521.826606" y="223.005968"/>
  <use xlink:href="#glyph1-3" x="529.653212" y="223.005968"/>
  <use xlink:href="#glyph1-4" x="537.479818" y="223.005968"/>
  <use xlink:href="#glyph1-5" x="545.306424" y="223.005968"/>
  <use xlink:href="#glyph1-6" x="553.13303" y="223.005968"/>
</g>
<path style="fill-rule:evenodd;fill:rgb(100%,100%,100%);fill-opacity:1;stroke-width:0.1;stroke-linecap:butt;stroke-linejoin:miter;stroke:rgb(0%,0%,0%);stroke-opacity:1;stroke-miterlimit:10;" d="M 31 7.9 L 36.825 7.9 L 36.825 8.3 L 31 8.3 Z M 31 7.9 " transform="matrix(20,0,0,20,-109,71)"/>
<path style="fill-rule:evenodd;fill:rgb(100%,100%,100%);fill-opacity:1;stroke-width:0.1;stroke-linecap:butt;stroke-linejoin:miter;stroke:rgb(0%,0%,0%);stroke-opacity:1;stroke-miterlimit:10;" d="M 31 10.5 L 37.107422 10.5 L 37.107422 11.9 L 31 11.9 Z M 31 10.5 " transform="matrix(20,0,0,20,-109,71)"/>
<g style="fill:rgb(0%,0%,0%);fill-opacity:1;">
  <use xlink:href="#glyph0-1" x="516.058594" y="300.007867"/>
  <use xlink:href="#glyph0-2" x="525.542914" y="300.007867"/>
  <use xlink:href="#glyph0-3" x="536.933431" y="300.007867"/>
  <use xlink:href="#glyph0-4" x="547.784939" y="300.007867"/>
  <use xlink:href="#glyph0-5" x="559.175456" y="300.007867"/>
  <use xlink:href="#glyph0-6" x="566.823839" y="300.007867"/>
  <use xlink:href="#glyph0-9" x="577.620822" y="300.007867"/>
  <use xlink:href="#glyph0-2" x="583.574056" y="300.007867"/>
  <use xlink:href="#glyph0-10" x="594.964572" y="300.007867"/>
  <use xlink:href="#glyph0-11" x="600.449056" y="300.007867"/>
  <use xlink:href="#glyph0-6" x="605.933539" y="300.007867"/>
  <use xlink:href="#glyph0-4" x="616.730523" y="300.007867"/>
</g>
<path style="fill-rule:evenodd;fill:rgb(100%,100%,100%);fill-opacity:1;stroke-width:0.1;stroke-linecap:butt;stroke-linejoin:miter;stroke:rgb(0%,0%,0%);stroke-opacity:1;stroke-miterlimit:10;" d="M 31 11.9 L 37.107422 11.9 L 37.107422 12.9 L 31 12.9 Z M 31 11.9 " transform="matrix(20,0,0,20,-109,71)"/>
<g style="fill:rgb(0%,0%,0%);fill-opacity:1;">
  <use xlink:href="#glyph1-1" x="514" y="323.005968"/>
  <use xlink:href="#glyph1-2" x="521.826606" y="323.005968"/>
  <use xlink:href="#glyph1-3" x="529.653212" y="323.005968"/>
  <use xlink:href="#glyph1-4" x="537.479818" y="323.005968"/>
  <use xlink:href="#glyph1-5" x="545.306424" y="323.005968"/>
  <use xlink:href="#glyph1-6" x="553.13303" y="323.005968"/>
</g>
<path style="fill-rule:evenodd;fill:rgb(100%,100%,100%);fill-opacity:1;stroke-width:0.1;stroke-linecap:butt;stroke-linejoin:miter;stroke:rgb(0%,0%,0%);stroke-opacity:1;stroke-miterlimit:10;" d="M 31 12.9 L 37.107422 12.9 L 37.107422 13.3 L 31 13.3 Z M 31 12.9 " transform="matrix(20,0,0,20,-109,71)"/>
<path style="fill-rule:evenodd;fill:rgb(100%,100%,100%);fill-opacity:1;stroke-width:0.1;stroke-linecap:butt;stroke-linejoin:miter;stroke:rgb(0%,0%,0%);stroke-opacity:1;stroke-miterlimit:10;" d="M 31 -1.5 L 37.275 -1.5 L 37.275 -0.1 L 31 -0.1 Z M 31 -1.5 " transform="matrix(20,0,0,20,-109,71)"/>
<g style="fill:rgb(0%,0%,0%);fill-opacity:1;">
  <use xlink:href="#glyph0-1" x="520.800781" y="60.007867"/>
  <use xlink:href="#glyph0-2" x="530.285102" y="60.007867"/>
  <use xlink:href="#glyph0-3" x="541.675618" y="60.007867"/>
  <use xlink:href="#glyph0-4" x="552.527127" y="60.007867"/>
  <use xlink:href="#glyph0-5" x="563.917643" y="60.007867"/>
  <use xlink:href="#glyph0-6" x="571.566026" y="60.007867"/>
  <use xlink:href="#glyph0-7" x="582.36301" y="60.007867"/>
  <use xlink:href="#glyph0-6" x="593.659939" y="60.007867"/>
  <use xlink:href="#glyph0-8" x="604.456923" y="60.007867"/>
  <use xlink:href="#glyph0-6" x="615.910102" y="60.007867"/>
</g>
<path style="fill-rule:evenodd;fill:rgb(100%,100%,100%);fill-opacity:1;stroke-width:0.1;stroke-linecap:butt;stroke-linejoin:miter;stroke:rgb(0%,0%,0%);stroke-opacity:1;stroke-miterlimit:10;" d="M 31 -0.1 L 37.275 -0.1 L 37.275 2.5 L 31 2.5 Z M 31 -0.1 " transform="matrix(20,0,0,20,-109,71)"/>
<g style="fill:rgb(0%,0%,0%);fill-opacity:1;">
  <use xlink:href="#glyph1-1" x="514" y="83.005968"/>
  <use xlink:href="#glyph1-2" x="521.826606" y="83.005968"/>
  <use xlink:href="#glyph1-3" x="529.653212" y="83.005968"/>
  <use xlink:href="#glyph1-4" x="537.479818" y="83.005968"/>
  <use xlink:href="#glyph1-5" x="545.306424" y="83.005968"/>
  <use xlink:href="#glyph1-6" x="553.13303" y="83.005968"/>
  <use xlink:href="#glyph1-7" x="560.959635" y="83.005968"/>
  <use xlink:href="#glyph1-8" x="568.786241" y="83.005968"/>
  <use xlink:href="#glyph1-9" x="576.612847" y="83.005968"/>
  <use xlink:href="#glyph1-6" x="584.439453" y="83.005968"/>
  <use xlink:href="#glyph1-4" x="592.266059" y="83.005968"/>
  <use xlink:href="#glyph1-3" x="600.092665" y="83.005968"/>
  <use xlink:href="#glyph1-10" x="607.919271" y="83.005968"/>
  <use xlink:href="#glyph1-11" x="615.745877" y="83.005968"/>
  <use xlink:href="#glyph1-2" x="623.572483" y="83.005968"/>
</g>
<g style="fill:rgb(0%,0%,0%);fill-opacity:1;">
  <use xlink:href="#glyph1-1" x="514" y="99.005968"/>
  <use xlink:href="#glyph1-12" x="521.826606" y="99.005968"/>
  <use xlink:href="#glyph1-10" x="529.653212" y="99.005968"/>
  <use xlink:href="#glyph1-11" x="537.479818" y="99.005968"/>
  <use xlink:href="#glyph1-13" x="545.306424" y="99.005968"/>
  <use xlink:href="#glyph1-14" x="553.13303" y="99.005968"/>
  <use xlink:href="#glyph1-6" x="560.959635" y="99.005968"/>
  <use xlink:href="#glyph1-9" x="568.786241" y="99.005968"/>
  <use xlink:href="#glyph1-11" x="576.612847" y="99.005968"/>
  <use xlink:href="#glyph1-15" x="584.439453" y="99.005968"/>
  <use xlink:href="#glyph1-6" x="592.266059" y="99.005968"/>
  <use xlink:href="#glyph1-16" x="600.092665" y="99.005968"/>
  <use xlink:href="#glyph1-12" x="607.919271" y="99.005968"/>
  <use xlink:href="#glyph1-10" x="615.745877" y="99.005968"/>
  <use xlink:href="#glyph1-3" x="623.572483" y="99.005968"/>
</g>
<g style="fill:rgb(0%,0%,0%);fill-opacity:1;">
  <use xlink:href="#glyph1-1" x="514" y="115.005968"/>
  <use xlink:href="#glyph1-12" x="521.826606" y="115.005968"/>
  <use xlink:href="#glyph1-10" x="529.653212" y="115.005968"/>
  <use xlink:href="#glyph1-11" x="537.479818" y="115.005968"/>
  <use xlink:href="#glyph1-13" x="545.306424" y="115.005968"/>
  <use xlink:href="#glyph1-14" x="553.13303" y="115.005968"/>
  <use xlink:href="#glyph1-6" x="560.959635" y="115.005968"/>
  <use xlink:href="#glyph1-9" x="568.786241" y="115.005968"/>
  <use xlink:href="#glyph1-11" x="576.612847" y="115.005968"/>
  <use xlink:href="#glyph1-17" x="584.439453" y="115.005968"/>
  <use xlink:href="#glyph1-11" x="592.266059" y="115.005968"/>
  <use xlink:href="#glyph1-8" x="600.092665" y="115.005968"/>
  <use xlink:href="#glyph1-18" x="607.919271" y="115.005968"/>
  <use xlink:href="#glyph1-3" x="615.745877" y="115.005968"/>
</g>
<path style="fill-rule:evenodd;fill:rgb(100%,100%,100%);fill-opacity:1;stroke-width:0.1;stroke-linecap:butt;stroke-linejoin:miter;stroke:rgb(0%,0%,0%);stroke-opacity:1;stroke-miterlimit:10;" d="M 31 2.5 L 37.275 2.5 L 37.275 2.9 L 31 2.9 Z M 31 2.5 " transform="matrix(20,0,0,20,-109,71)"/>
<path style="fill-rule:evenodd;fill:rgb(100%,100%,100%);fill-opacity:1;stroke-width:0.1;stroke-linecap:butt;stroke-linejoin:miter;stroke:rgb(0%,0%,0%);stroke-opacity:1;stroke-miterlimit:10;" d="M 18 5.5 L 26.619922 5.5 L 26.619922 6.9 L 18 6.9 Z M 18 5.5 " transform="matrix(20,0,0,20,-109,71)"/>
<g style="fill:rgb(0%,0%,0%);fill-opacity:1;">
  <use xlink:href="#glyph0-1" x="256.027344" y="200.007867"/>
  <use xlink:href="#glyph0-2" x="265.511664" y="200.007867"/>
  <use xlink:href="#glyph0-3" x="276.902181" y="200.007867"/>
  <use xlink:href="#glyph0-4" x="287.753689" y="200.007867"/>
  <use xlink:href="#glyph0-5" x="299.144206" y="200.007867"/>
  <use xlink:href="#glyph0-6" x="306.792589" y="200.007867"/>
  <use xlink:href="#glyph0-12" x="317.589572" y="200.007867"/>
  <use xlink:href="#glyph0-13" x="329.331651" y="200.007867"/>
  <use xlink:href="#glyph0-14" x="340.323947" y="200.007867"/>
  <use xlink:href="#glyph0-15" x="356.995768" y="200.007867"/>
  <use xlink:href="#glyph0-11" x="368.448947" y="200.007867"/>
  <use xlink:href="#glyph0-4" x="373.933431" y="200.007867"/>
  <use xlink:href="#glyph0-6" x="385.323947" y="200.007867"/>
  <use xlink:href="#glyph0-16" x="396.120931" y="200.007867"/>
  <use xlink:href="#glyph0-6" x="407.57411" y="200.007867"/>
</g>
<path style="fill-rule:evenodd;fill:rgb(100%,100%,100%);fill-opacity:1;stroke-width:0.1;stroke-linecap:butt;stroke-linejoin:miter;stroke:rgb(0%,0%,0%);stroke-opacity:1;stroke-miterlimit:10;" d="M 18 6.9 L 26.619922 6.9 L 26.619922 8.7 L 18 8.7 Z M 18 6.9 " transform="matrix(20,0,0,20,-109,71)"/>
<g style="fill:rgb(0%,0%,0%);fill-opacity:1;">
  <use xlink:href="#glyph1-1" x="254" y="223.005968"/>
  <use xlink:href="#glyph1-13" x="261.826606" y="223.005968"/>
  <use xlink:href="#glyph1-19" x="269.653212" y="223.005968"/>
  <use xlink:href="#glyph1-11" x="277.479818" y="223.005968"/>
  <use xlink:href="#glyph1-8" x="285.306424" y="223.005968"/>
  <use xlink:href="#glyph1-18" x="293.13303" y="223.005968"/>
  <use xlink:href="#glyph1-3" x="300.959635" y="223.005968"/>
  <use xlink:href="#glyph1-20" x="308.786241" y="223.005968"/>
  <use xlink:href="#glyph1-10" x="316.612847" y="223.005968"/>
  <use xlink:href="#glyph1-14" x="324.439453" y="223.005968"/>
  <use xlink:href="#glyph1-16" x="332.266059" y="223.005968"/>
  <use xlink:href="#glyph1-3" x="340.092665" y="223.005968"/>
  <use xlink:href="#glyph1-10" x="347.919271" y="223.005968"/>
  <use xlink:href="#glyph1-14" x="355.745877" y="223.005968"/>
  <use xlink:href="#glyph1-3" x="363.572483" y="223.005968"/>
</g>
<g style="fill:rgb(0%,0%,0%);fill-opacity:1;">
  <use xlink:href="#glyph1-1" x="254" y="239.005968"/>
  <use xlink:href="#glyph1-13" x="261.826606" y="239.005968"/>
  <use xlink:href="#glyph1-19" x="269.653212" y="239.005968"/>
  <use xlink:href="#glyph1-11" x="277.479818" y="239.005968"/>
  <use xlink:href="#glyph1-8" x="285.306424" y="239.005968"/>
  <use xlink:href="#glyph1-18" x="293.13303" y="239.005968"/>
  <use xlink:href="#glyph1-3" x="300.959635" y="239.005968"/>
  <use xlink:href="#glyph1-21" x="308.786241" y="239.005968"/>
  <use xlink:href="#glyph1-11" x="316.612847" y="239.005968"/>
  <use xlink:href="#glyph1-13" x="324.439453" y="239.005968"/>
  <use xlink:href="#glyph1-19" x="332.266059" y="239.005968"/>
  <use xlink:href="#glyph1-8" x="340.092665" y="239.005968"/>
  <use xlink:href="#glyph1-5" x="347.919271" y="239.005968"/>
  <use xlink:href="#glyph1-3" x="355.745877" y="239.005968"/>
  <use xlink:href="#glyph1-10" x="363.572483" y="239.005968"/>
  <use xlink:href="#glyph1-14" x="371.399089" y="239.005968"/>
  <use xlink:href="#glyph1-3" x="379.225694" y="239.005968"/>
</g>
<path style="fill-rule:evenodd;fill:rgb(100%,100%,100%);fill-opacity:1;stroke-width:0.1;stroke-linecap:butt;stroke-linejoin:miter;stroke:rgb(0%,0%,0%);stroke-opacity:1;stroke-miterlimit:10;" d="M 18 8.7 L 26.619922 8.7 L 26.619922 9.1 L 18 9.1 Z M 18 8.7 " transform="matrix(20,0,0,20,-109,71)"/>
<path style="fill:none;stroke-width:0.1;stroke-linecap:butt;stroke-linejoin:miter;stroke:rgb(0%,0%,0%);stroke-opacity:1;stroke-miterlimit:10;" d="M 30.515039 6.239063 C 29.155664 6.379492 27.834375 6.773242 26.619922 7.4 " transform="matrix(20,0,0,20,-109,71)"/>
<path style="fill-rule:evenodd;fill:rgb(0%,0%,0%);fill-opacity:1;stroke-width:0.1;stroke-linecap:butt;stroke-linejoin:miter;stroke:rgb(0%,0%,0%);stroke-opacity:1;stroke-miterlimit:10;" d="M 30.888477 6.206445 L 30.403906 6.485156 L 30.514063 6.22832 L 30.374609 5.986133 Z M 30.888477 6.206445 " transform="matrix(20,0,0,20,-109,71)"/>
<path style="fill:none;stroke-width:0.1;stroke-linecap:butt;stroke-linejoin:miter;stroke:rgb(0%,0%,0%);stroke-opacity:1;stroke-miterlimit:10;" d="M 30.69043 10.825 C 29.607422 9.584766 28.19668 8.675 26.619922 8.2 " transform="matrix(20,0,0,20,-109,71)"/>
<path style="fill-rule:evenodd;fill:rgb(0%,0%,0%);fill-opacity:1;stroke-width:0.1;stroke-linecap:butt;stroke-linejoin:miter;stroke:rgb(0%,0%,0%);stroke-opacity:1;stroke-miterlimit:10;" d="M 30.93125 11.111914 L 30.426562 10.871289 L 30.700586 10.816211 L 30.820898 10.563867 Z M 30.93125 11.111914 " transform="matrix(20,0,0,20,-109,71)"/>
<path style="fill-rule:evenodd;fill:rgb(100%,100%,100%);fill-opacity:1;stroke-width:0.1;stroke-linecap:butt;stroke-linejoin:miter;stroke:rgb(0%,0%,0%);stroke-opacity:1;stroke-miterlimit:10;" d="M 5.5 9.5 L 12.544922 9.5 L 12.544922 10.9 L 5.5 10.9 Z M 5.5 9.5 " transform="matrix(20,0,0,20,-109,71)"/>
<g style="fill:rgb(0%,0%,0%);fill-opacity:1;">
  <use xlink:href="#glyph0-1" x="51.15625" y="280.007867"/>
  <use xlink:href="#glyph0-6" x="60.640571" y="280.007867"/>
  <use xlink:href="#glyph0-17" x="71.437554" y="280.007867"/>
  <use xlink:href="#glyph0-6" x="80.960938" y="280.007867"/>
</g>
<path style="fill-rule:evenodd;fill:rgb(100%,100%,100%);fill-opacity:1;stroke-width:0.1;stroke-linecap:butt;stroke-linejoin:miter;stroke:rgb(0%,0%,0%);stroke-opacity:1;stroke-miterlimit:10;" d="M 5.5 10.9 L 12.544922 10.9 L 12.544922 14.3 L 5.5 14.3 Z M 5.5 10.9 " transform="matrix(20,0,0,20,-109,71)"/>
<g style="fill:rgb(0%,0%,0%);fill-opacity:1;">
  <use xlink:href="#glyph1-1" x="4" y="303.005968"/>
  <use xlink:href="#glyph1-13" x="11.826606" y="303.005968"/>
  <use xlink:href="#glyph1-19" x="19.653212" y="303.005968"/>
  <use xlink:href="#glyph1-11" x="27.479818" y="303.005968"/>
  <use xlink:href="#glyph1-8" x="35.306424" y="303.005968"/>
  <use xlink:href="#glyph1-18" x="43.13303" y="303.005968"/>
  <use xlink:href="#glyph1-3" x="50.959635" y="303.005968"/>
</g>
<g style="fill:rgb(0%,0%,0%);fill-opacity:1;">
  <use xlink:href="#glyph1-1" x="4" y="319.005968"/>
  <use xlink:href="#glyph1-22" x="11.826606" y="319.005968"/>
  <use xlink:href="#glyph1-3" x="19.653212" y="319.005968"/>
  <use xlink:href="#glyph1-2" x="27.479818" y="319.005968"/>
  <use xlink:href="#glyph1-18" x="35.306424" y="319.005968"/>
  <use xlink:href="#glyph1-6" x="43.13303" y="319.005968"/>
  <use xlink:href="#glyph1-2" x="50.959635" y="319.005968"/>
</g>
<g style="fill:rgb(0%,0%,0%);fill-opacity:1;">
  <use xlink:href="#glyph1-1" x="4" y="335.005968"/>
  <use xlink:href="#glyph1-18" x="11.826606" y="335.005968"/>
  <use xlink:href="#glyph1-14" x="19.653212" y="335.005968"/>
  <use xlink:href="#glyph1-11" x="27.479818" y="335.005968"/>
  <use xlink:href="#glyph1-8" x="35.306424" y="335.005968"/>
  <use xlink:href="#glyph1-11" x="43.13303" y="335.005968"/>
  <use xlink:href="#glyph1-15" x="50.959635" y="335.005968"/>
  <use xlink:href="#glyph1-6" x="58.786241" y="335.005968"/>
  <use xlink:href="#glyph1-16" x="66.612847" y="335.005968"/>
  <use xlink:href="#glyph1-14" x="74.439453" y="335.005968"/>
  <use xlink:href="#glyph1-5" x="82.266059" y="335.005968"/>
  <use xlink:href="#glyph1-3" x="90.092665" y="335.005968"/>
</g>
<g style="fill:rgb(0%,0%,0%);fill-opacity:1;">
  <use xlink:href="#glyph1-1" x="4" y="351.005968"/>
  <use xlink:href="#glyph1-23" x="11.826606" y="351.005968"/>
  <use xlink:href="#glyph1-14" x="19.653212" y="351.005968"/>
  <use xlink:href="#glyph1-11" x="27.479818" y="351.005968"/>
  <use xlink:href="#glyph1-8" x="35.306424" y="351.005968"/>
  <use xlink:href="#glyph1-11" x="43.13303" y="351.005968"/>
  <use xlink:href="#glyph1-9" x="50.959635" y="351.005968"/>
  <use xlink:href="#glyph1-11" x="58.786241" y="351.005968"/>
  <use xlink:href="#glyph1-7" x="66.612847" y="351.005968"/>
  <use xlink:href="#glyph1-24" x="74.439453" y="351.005968"/>
  <use xlink:href="#glyph1-19" x="82.266059" y="351.005968"/>
  <use xlink:href="#glyph1-14" x="90.092665" y="351.005968"/>
  <use xlink:href="#glyph1-12" x="97.919271" y="351.005968"/>
  <use xlink:href="#glyph1-3" x="105.745877" y="351.005968"/>
  <use xlink:href="#glyph1-10" x="113.572483" y="351.005968"/>
  <use xlink:href="#glyph1-2" x="121.399089" y="351.005968"/>
  <use xlink:href="#glyph1-11" x="129.225694" y="351.005968"/>
</g>
<path style="fill-rule:evenodd;fill:rgb(100%,100%,100%);fill-opacity:1;stroke-width:0.1;stroke-linecap:butt;stroke-linejoin:miter;stroke:rgb(0%,0%,0%);stroke-opacity:1;stroke-miterlimit:10;" d="M 5.5 14.3 L 12.544922 14.3 L 12.544922 14.7 L 5.5 14.7 Z M 5.5 14.3 " transform="matrix(20,0,0,20,-109,71)"/>
<path style="fill:none;stroke-width:0.1;stroke-linecap:butt;stroke-linejoin:miter;stroke:rgb(0%,0%,0%);stroke-opacity:1;stroke-miterlimit:10;" d="M 17.609766 6.49082 C 15.729297 7.916602 14.028711 9.565039 12.544922 11.4 " transform="matrix(20,0,0,20,-109,71)"/>
<path style="fill-rule:evenodd;fill:rgb(0%,0%,0%);fill-opacity:1;stroke-width:0.1;stroke-linecap:butt;stroke-linejoin:miter;stroke:rgb(0%,0%,0%);stroke-opacity:1;stroke-miterlimit:10;" d="M 17.909766 6.266016 L 17.654102 6.763086 L 17.607227 6.487695 L 17.358594 6.359766 Z M 17.909766 6.266016 " transform="matrix(20,0,0,20,-109,71)"/>
<path style="fill-rule:evenodd;fill:rgb(100%,100%,100%);fill-opacity:1;stroke-width:0.1;stroke-linecap:butt;stroke-linejoin:miter;stroke:rgb(0%,0%,0%);stroke-opacity:1;stroke-miterlimit:10;" d="M 8.5 21.5 L 12.977539 21.5 L 12.977539 22.9 L 8.5 22.9 Z M 8.5 21.5 " transform="matrix(20,0,0,20,-109,71)"/>
<g style="fill:rgb(0%,0%,0%);fill-opacity:1;">
  <use xlink:href="#glyph0-18" x="66.027344" y="520.007867"/>
  <use xlink:href="#glyph0-3" x="77.41786" y="520.007867"/>
  <use xlink:href="#glyph0-10" x="88.269368" y="520.007867"/>
  <use xlink:href="#glyph0-6" x="93.753852" y="520.007867"/>
  <use xlink:href="#glyph0-16" x="104.550836" y="520.007867"/>
  <use xlink:href="#glyph0-3" x="116.004015" y="520.007867"/>
  <use xlink:href="#glyph0-19" x="126.855523" y="520.007867"/>
  <use xlink:href="#glyph0-6" x="134.746148" y="520.007867"/>
</g>
<path style="fill-rule:evenodd;fill:rgb(100%,100%,100%);fill-opacity:1;stroke-width:0.1;stroke-linecap:butt;stroke-linejoin:miter;stroke:rgb(0%,0%,0%);stroke-opacity:1;stroke-miterlimit:10;" d="M 8.5 22.9 L 12.977539 22.9 L 12.977539 23.9 L 8.5 23.9 Z M 8.5 22.9 " transform="matrix(20,0,0,20,-109,71)"/>
<g style="fill:rgb(0%,0%,0%);fill-opacity:1;">
  <use xlink:href="#glyph1-1" x="64" y="543.005968"/>
  <use xlink:href="#glyph1-12" x="71.826606" y="543.005968"/>
  <use xlink:href="#glyph1-10" x="79.653212" y="543.005968"/>
  <use xlink:href="#glyph1-11" x="87.479818" y="543.005968"/>
  <use xlink:href="#glyph1-13" x="95.306424" y="543.005968"/>
  <use xlink:href="#glyph1-14" x="103.13303" y="543.005968"/>
  <use xlink:href="#glyph1-6" x="110.959635" y="543.005968"/>
</g>
<path style="fill-rule:evenodd;fill:rgb(100%,100%,100%);fill-opacity:1;stroke-width:0.1;stroke-linecap:butt;stroke-linejoin:miter;stroke:rgb(0%,0%,0%);stroke-opacity:1;stroke-miterlimit:10;" d="M 8.5 23.9 L 12.977539 23.9 L 12.977539 24.3 L 8.5 24.3 Z M 8.5 23.9 " transform="matrix(20,0,0,20,-109,71)"/>
<path style="fill-rule:evenodd;fill:rgb(100%,100%,100%);fill-opacity:1;stroke-width:0.1;stroke-linecap:butt;stroke-linejoin:miter;stroke:rgb(0%,0%,0%);stroke-opacity:1;stroke-miterlimit:10;" d="M 15.5 21.5 L 18.694922 21.5 L 18.694922 22.9 L 15.5 22.9 Z M 15.5 21.5 " transform="matrix(20,0,0,20,-109,71)"/>
<g style="fill:rgb(0%,0%,0%);fill-opacity:1;">
  <use xlink:href="#glyph0-1" x="209.082031" y="520.007867"/>
  <use xlink:href="#glyph0-6" x="218.566352" y="520.007867"/>
  <use xlink:href="#glyph0-14" x="229.363336" y="520.007867"/>
  <use xlink:href="#glyph0-6" x="246.035156" y="520.007867"/>
</g>
<path style="fill-rule:evenodd;fill:rgb(100%,100%,100%);fill-opacity:1;stroke-width:0.1;stroke-linecap:butt;stroke-linejoin:miter;stroke:rgb(0%,0%,0%);stroke-opacity:1;stroke-miterlimit:10;" d="M 15.5 22.9 L 18.694922 22.9 L 18.694922 23.9 L 15.5 23.9 Z M 15.5 22.9 " transform="matrix(20,0,0,20,-109,71)"/>
<g style="fill:rgb(0%,0%,0%);fill-opacity:1;">
  <use xlink:href="#glyph1-1" x="204" y="543.005968"/>
  <use xlink:href="#glyph1-12" x="211.826606" y="543.005968"/>
  <use xlink:href="#glyph1-10" x="219.653212" y="543.005968"/>
  <use xlink:href="#glyph1-11" x="227.479818" y="543.005968"/>
  <use xlink:href="#glyph1-13" x="235.306424" y="543.005968"/>
  <use xlink:href="#glyph1-14" x="243.13303" y="543.005968"/>
  <use xlink:href="#glyph1-6" x="250.959635" y="543.005968"/>
</g>
<path style="fill-rule:evenodd;fill:rgb(100%,100%,100%);fill-opacity:1;stroke-width:0.1;stroke-linecap:butt;stroke-linejoin:miter;stroke:rgb(0%,0%,0%);stroke-opacity:1;stroke-miterlimit:10;" d="M 15.5 23.9 L 18.694922 23.9 L 18.694922 24.3 L 15.5 24.3 Z M 15.5 23.9 " transform="matrix(20,0,0,20,-109,71)"/>
<path style="fill-rule:evenodd;fill:rgb(100%,100%,100%);fill-opacity:1;stroke-width:0.1;stroke-linecap:butt;stroke-linejoin:miter;stroke:rgb(0%,0%,0%);stroke-opacity:1;stroke-miterlimit:10;" d="M 21.5 21.5 L 24.694922 21.5 L 24.694922 22.9 L 21.5 22.9 Z M 21.5 21.5 " transform="matrix(20,0,0,20,-109,71)"/>
<g style="fill:rgb(0%,0%,0%);fill-opacity:1;">
  <use xlink:href="#glyph0-6" x="326.171875" y="520.007867"/>
  <use xlink:href="#glyph0-17" x="336.968859" y="520.007867"/>
  <use xlink:href="#glyph0-6" x="346.492242" y="520.007867"/>
  <use xlink:href="#glyph0-16" x="357.289225" y="520.007867"/>
  <use xlink:href="#glyph0-13" x="368.742405" y="520.007867"/>
</g>
<path style="fill-rule:evenodd;fill:rgb(100%,100%,100%);fill-opacity:1;stroke-width:0.1;stroke-linecap:butt;stroke-linejoin:miter;stroke:rgb(0%,0%,0%);stroke-opacity:1;stroke-miterlimit:10;" d="M 21.5 22.9 L 24.694922 22.9 L 24.694922 23.9 L 21.5 23.9 Z M 21.5 22.9 " transform="matrix(20,0,0,20,-109,71)"/>
<g style="fill:rgb(0%,0%,0%);fill-opacity:1;">
  <use xlink:href="#glyph1-1" x="324" y="543.005968"/>
  <use xlink:href="#glyph1-12" x="331.826606" y="543.005968"/>
  <use xlink:href="#glyph1-10" x="339.653212" y="543.005968"/>
  <use xlink:href="#glyph1-11" x="347.479818" y="543.005968"/>
  <use xlink:href="#glyph1-13" x="355.306424" y="543.005968"/>
  <use xlink:href="#glyph1-14" x="363.13303" y="543.005968"/>
  <use xlink:href="#glyph1-6" x="370.959635" y="543.005968"/>
</g>
<path style="fill-rule:evenodd;fill:rgb(100%,100%,100%);fill-opacity:1;stroke-width:0.1;stroke-linecap:butt;stroke-linejoin:miter;stroke:rgb(0%,0%,0%);stroke-opacity:1;stroke-miterlimit:10;" d="M 21.5 23.9 L 24.694922 23.9 L 24.694922 24.3 L 21.5 24.3 Z M 21.5 23.9 " transform="matrix(20,0,0,20,-109,71)"/>
<path style="fill-rule:evenodd;fill:rgb(100%,100%,100%);fill-opacity:1;stroke-width:0.1;stroke-linecap:butt;stroke-linejoin:miter;stroke:rgb(0%,0%,0%);stroke-opacity:1;stroke-miterlimit:10;" d="M 27 21.5 L 30.232422 21.5 L 30.232422 22.9 L 27 22.9 Z M 27 21.5 " transform="matrix(20,0,0,20,-109,71)"/>
<g style="fill:rgb(0%,0%,0%);fill-opacity:1;">
  <use xlink:href="#glyph0-20" x="436" y="520.007867"/>
  <use xlink:href="#glyph0-16" x="447.859266" y="520.007867"/>
  <use xlink:href="#glyph0-3" x="459.312446" y="520.007867"/>
  <use xlink:href="#glyph0-13" x="470.163954" y="520.007867"/>
  <use xlink:href="#glyph0-17" x="481.15625" y="520.007867"/>
</g>
<path style="fill-rule:evenodd;fill:rgb(100%,100%,100%);fill-opacity:1;stroke-width:0.1;stroke-linecap:butt;stroke-linejoin:miter;stroke:rgb(0%,0%,0%);stroke-opacity:1;stroke-miterlimit:10;" d="M 27 22.9 L 30.232422 22.9 L 30.232422 23.9 L 27 23.9 Z M 27 22.9 " transform="matrix(20,0,0,20,-109,71)"/>
<g style="fill:rgb(0%,0%,0%);fill-opacity:1;">
  <use xlink:href="#glyph1-1" x="434" y="543.005968"/>
  <use xlink:href="#glyph1-12" x="441.826606" y="543.005968"/>
  <use xlink:href="#glyph1-10" x="449.653212" y="543.005968"/>
  <use xlink:href="#glyph1-11" x="457.479818" y="543.005968"/>
  <use xlink:href="#glyph1-13" x="465.306424" y="543.005968"/>
  <use xlink:href="#glyph1-14" x="473.13303" y="543.005968"/>
  <use xlink:href="#glyph1-6" x="480.959635" y="543.005968"/>
</g>
<path style="fill-rule:evenodd;fill:rgb(100%,100%,100%);fill-opacity:1;stroke-width:0.1;stroke-linecap:butt;stroke-linejoin:miter;stroke:rgb(0%,0%,0%);stroke-opacity:1;stroke-miterlimit:10;" d="M 27 23.9 L 30.232422 23.9 L 30.232422 24.3 L 27 24.3 Z M 27 23.9 " transform="matrix(20,0,0,20,-109,71)"/>
<path style="fill-rule:evenodd;fill:rgb(100%,100%,100%);fill-opacity:1;stroke-width:0.1;stroke-linecap:butt;stroke-linejoin:miter;stroke:rgb(0%,0%,0%);stroke-opacity:1;stroke-miterlimit:10;" d="M 33 21.5 L 37.042578 21.5 L 37.042578 22.9 L 33 22.9 Z M 33 21.5 " transform="matrix(20,0,0,20,-109,71)"/>
<g style="fill:rgb(0%,0%,0%);fill-opacity:1;">
  <use xlink:href="#glyph0-8" x="556.035156" y="520.007867"/>
  <use xlink:href="#glyph0-10" x="567.488336" y="520.007867"/>
  <use xlink:href="#glyph0-6" x="572.972819" y="520.007867"/>
  <use xlink:href="#glyph0-4" x="583.769803" y="520.007867"/>
  <use xlink:href="#glyph0-1" x="595.160319" y="520.007867"/>
  <use xlink:href="#glyph0-18" x="604.64464" y="520.007867"/>
  <use xlink:href="#glyph0-6" x="616.035156" y="520.007867"/>
</g>
<path style="fill-rule:evenodd;fill:rgb(100%,100%,100%);fill-opacity:1;stroke-width:0.1;stroke-linecap:butt;stroke-linejoin:miter;stroke:rgb(0%,0%,0%);stroke-opacity:1;stroke-miterlimit:10;" d="M 33 22.9 L 37.042578 22.9 L 37.042578 23.9 L 33 23.9 Z M 33 22.9 " transform="matrix(20,0,0,20,-109,71)"/>
<g style="fill:rgb(0%,0%,0%);fill-opacity:1;">
  <use xlink:href="#glyph1-1" x="554" y="543.005968"/>
  <use xlink:href="#glyph1-12" x="561.826606" y="543.005968"/>
  <use xlink:href="#glyph1-10" x="569.653212" y="543.005968"/>
  <use xlink:href="#glyph1-11" x="577.479818" y="543.005968"/>
  <use xlink:href="#glyph1-13" x="585.306424" y="543.005968"/>
  <use xlink:href="#glyph1-14" x="593.13303" y="543.005968"/>
  <use xlink:href="#glyph1-6" x="600.959635" y="543.005968"/>
</g>
<path style="fill-rule:evenodd;fill:rgb(100%,100%,100%);fill-opacity:1;stroke-width:0.1;stroke-linecap:butt;stroke-linejoin:miter;stroke:rgb(0%,0%,0%);stroke-opacity:1;stroke-miterlimit:10;" d="M 33 23.9 L 37.042578 23.9 L 37.042578 24.3 L 33 24.3 Z M 33 23.9 " transform="matrix(20,0,0,20,-109,71)"/>
<path style="fill-rule:evenodd;fill:rgb(100%,100%,100%);fill-opacity:1;stroke-width:0.1;stroke-linecap:butt;stroke-linejoin:miter;stroke:rgb(0%,0%,0%);stroke-opacity:1;stroke-miterlimit:10;" d="M 41 7 L 42.057422 7 L 42.057422 8.4 L 41 8.4 Z M 41 7 " transform="matrix(20,0,0,20,-109,71)"/>
<g style="fill:rgb(0%,0%,0%);fill-opacity:1;">
  <use xlink:href="#glyph0-21" x="716.007813" y="230.007867"/>
</g>
<path style="fill-rule:evenodd;fill:rgb(100%,100%,100%);fill-opacity:1;stroke-width:0.1;stroke-linecap:butt;stroke-linejoin:miter;stroke:rgb(0%,0%,0%);stroke-opacity:1;stroke-miterlimit:10;" d="M 41 8.4 L 42.057422 8.4 L 42.057422 8.8 L 41 8.8 Z M 41 8.4 " transform="matrix(20,0,0,20,-109,71)"/>
<path style="fill-rule:evenodd;fill:rgb(100%,100%,100%);fill-opacity:1;stroke-width:0.1;stroke-linecap:butt;stroke-linejoin:miter;stroke:rgb(0%,0%,0%);stroke-opacity:1;stroke-miterlimit:10;" d="M 41 8.8 L 42.057422 8.8 L 42.057422 9.2 L 41 9.2 Z M 41 8.8 " transform="matrix(20,0,0,20,-109,71)"/>
<path style="fill:none;stroke-width:0.1;stroke-linecap:butt;stroke-linejoin:miter;stroke:rgb(0%,0%,0%);stroke-opacity:1;stroke-miterlimit:10;" d="M 40.516602 7.642188 C 39.290625 7.503125 38.058789 7.422266 36.825 7.4 " transform="matrix(20,0,0,20,-109,71)"/>
<path style="fill-rule:evenodd;fill:rgb(0%,0%,0%);fill-opacity:1;stroke-width:0.1;stroke-linecap:butt;stroke-linejoin:miter;stroke:rgb(0%,0%,0%);stroke-opacity:1;stroke-miterlimit:10;" d="M 40.889063 7.685938 L 40.361719 7.871484 L 40.516992 7.639063 L 40.424219 7.375391 Z M 40.889063 7.685938 " transform="matrix(20,0,0,20,-109,71)"/>
<path style="fill-rule:evenodd;fill:rgb(100%,100%,100%);fill-opacity:1;stroke-width:0.1;stroke-linecap:butt;stroke-linejoin:miter;stroke:rgb(0%,0%,0%);stroke-opacity:1;stroke-miterlimit:10;" d="M 41 12 L 44.2875 12 L 44.2875 13.4 L 41 13.4 Z M 41 12 " transform="matrix(20,0,0,20,-109,71)"/>
<g style="fill:rgb(0%,0%,0%);fill-opacity:1;">
  <use xlink:href="#glyph0-22" x="716.042969" y="330.007867"/>
  <use xlink:href="#glyph0-21" x="727.175781" y="330.007867"/>
  <use xlink:href="#glyph0-23" x="738.308594" y="330.007867"/>
  <use xlink:href="#glyph0-24" x="749.441406" y="330.007867"/>
  <use xlink:href="#glyph0-25" x="760.574219" y="330.007867"/>
</g>
<path style="fill-rule:evenodd;fill:rgb(100%,100%,100%);fill-opacity:1;stroke-width:0.1;stroke-linecap:butt;stroke-linejoin:miter;stroke:rgb(0%,0%,0%);stroke-opacity:1;stroke-miterlimit:10;" d="M 41 13.4 L 44.2875 13.4 L 44.2875 13.8 L 41 13.8 Z M 41 13.4 " transform="matrix(20,0,0,20,-109,71)"/>
<path style="fill-rule:evenodd;fill:rgb(100%,100%,100%);fill-opacity:1;stroke-width:0.1;stroke-linecap:butt;stroke-linejoin:miter;stroke:rgb(0%,0%,0%);stroke-opacity:1;stroke-miterlimit:10;" d="M 41 13.8 L 44.2875 13.8 L 44.2875 14.2 L 41 14.2 Z M 41 13.8 " transform="matrix(20,0,0,20,-109,71)"/>
<path style="fill:none;stroke-width:0.1;stroke-linecap:butt;stroke-linejoin:miter;stroke:rgb(0%,0%,0%);stroke-opacity:1;stroke-miterlimit:10;" d="M 40.516602 12.642773 C 39.383984 12.515234 38.24668 12.434375 37.107422 12.4 " transform="matrix(20,0,0,20,-109,71)"/>
<path style="fill-rule:evenodd;fill:rgb(0%,0%,0%);fill-opacity:1;stroke-width:0.1;stroke-linecap:butt;stroke-linejoin:miter;stroke:rgb(0%,0%,0%);stroke-opacity:1;stroke-miterlimit:10;" d="M 40.889063 12.686133 L 40.362109 12.872656 L 40.516992 12.639844 L 40.423828 12.376367 Z M 40.889063 12.686133 " transform="matrix(20,0,0,20,-109,71)"/>
<path style="fill-rule:evenodd;fill:rgb(100%,100%,100%);fill-opacity:1;stroke-width:0.1;stroke-linecap:butt;stroke-linejoin:miter;stroke:rgb(0%,0%,0%);stroke-opacity:1;stroke-miterlimit:10;" d="M 41 -3.5 L 43.730078 -3.5 L 43.730078 -2.1 L 41 -2.1 Z M 41 -3.5 " transform="matrix(20,0,0,20,-109,71)"/>
<g style="fill:rgb(0%,0%,0%);fill-opacity:1;">
  <use xlink:href="#glyph0-26" x="716.035156" y="20.007867"/>
  <use xlink:href="#glyph0-21" x="727.167969" y="20.007867"/>
  <use xlink:href="#glyph0-21" x="738.300781" y="20.007867"/>
  <use xlink:href="#glyph0-21" x="749.433594" y="20.007867"/>
</g>
<path style="fill-rule:evenodd;fill:rgb(100%,100%,100%);fill-opacity:1;stroke-width:0.1;stroke-linecap:butt;stroke-linejoin:miter;stroke:rgb(0%,0%,0%);stroke-opacity:1;stroke-miterlimit:10;" d="M 41 -2.1 L 43.730078 -2.1 L 43.730078 -1.7 L 41 -1.7 Z M 41 -2.1 " transform="matrix(20,0,0,20,-109,71)"/>
<path style="fill-rule:evenodd;fill:rgb(100%,100%,100%);fill-opacity:1;stroke-width:0.1;stroke-linecap:butt;stroke-linejoin:miter;stroke:rgb(0%,0%,0%);stroke-opacity:1;stroke-miterlimit:10;" d="M 41 -1.7 L 43.730078 -1.7 L 43.730078 -1.3 L 41 -1.3 Z M 41 -1.7 " transform="matrix(20,0,0,20,-109,71)"/>
<path style="fill-rule:evenodd;fill:rgb(100%,100%,100%);fill-opacity:1;stroke-width:0.1;stroke-linecap:butt;stroke-linejoin:miter;stroke:rgb(0%,0%,0%);stroke-opacity:1;stroke-miterlimit:10;" d="M 41 -0.5 L 44.034961 -0.5 L 44.034961 0.9 L 41 0.9 Z M 41 -0.5 " transform="matrix(20,0,0,20,-109,71)"/>
<g style="fill:rgb(0%,0%,0%);fill-opacity:1;">
  <use xlink:href="#glyph0-22" x="716.058594" y="80.007867"/>
  <use xlink:href="#glyph0-27" x="727.191406" y="80.007867"/>
  <use xlink:href="#glyph0-28" x="738.324219" y="80.007867"/>
  <use xlink:href="#glyph0-23" x="744.402235" y="80.007867"/>
  <use xlink:href="#glyph0-21" x="755.535048" y="80.007867"/>
</g>
<path style="fill-rule:evenodd;fill:rgb(100%,100%,100%);fill-opacity:1;stroke-width:0.1;stroke-linecap:butt;stroke-linejoin:miter;stroke:rgb(0%,0%,0%);stroke-opacity:1;stroke-miterlimit:10;" d="M 41 0.9 L 44.034961 0.9 L 44.034961 1.3 L 41 1.3 Z M 41 0.9 " transform="matrix(20,0,0,20,-109,71)"/>
<path style="fill-rule:evenodd;fill:rgb(100%,100%,100%);fill-opacity:1;stroke-width:0.1;stroke-linecap:butt;stroke-linejoin:miter;stroke:rgb(0%,0%,0%);stroke-opacity:1;stroke-miterlimit:10;" d="M 41 1.3 L 44.034961 1.3 L 44.034961 1.7 L 41 1.7 Z M 41 1.3 " transform="matrix(20,0,0,20,-109,71)"/>
<path style="fill-rule:evenodd;fill:rgb(100%,100%,100%);fill-opacity:1;stroke-width:0.1;stroke-linecap:butt;stroke-linejoin:miter;stroke:rgb(0%,0%,0%);stroke-opacity:1;stroke-miterlimit:10;" d="M 41 2.5 L 44.034961 2.5 L 44.034961 3.9 L 41 3.9 Z M 41 2.5 " transform="matrix(20,0,0,20,-109,71)"/>
<g style="fill:rgb(0%,0%,0%);fill-opacity:1;">
  <use xlink:href="#glyph0-22" x="716.058594" y="140.007867"/>
  <use xlink:href="#glyph0-25" x="727.191406" y="140.007867"/>
  <use xlink:href="#glyph0-28" x="738.324219" y="140.007867"/>
  <use xlink:href="#glyph0-22" x="744.402235" y="140.007867"/>
  <use xlink:href="#glyph0-21" x="755.535048" y="140.007867"/>
</g>
<path style="fill-rule:evenodd;fill:rgb(100%,100%,100%);fill-opacity:1;stroke-width:0.1;stroke-linecap:butt;stroke-linejoin:miter;stroke:rgb(0%,0%,0%);stroke-opacity:1;stroke-miterlimit:10;" d="M 41 3.9 L 44.034961 3.9 L 44.034961 4.3 L 41 4.3 Z M 41 3.9 " transform="matrix(20,0,0,20,-109,71)"/>
<path style="fill-rule:evenodd;fill:rgb(100%,100%,100%);fill-opacity:1;stroke-width:0.1;stroke-linecap:butt;stroke-linejoin:miter;stroke:rgb(0%,0%,0%);stroke-opacity:1;stroke-miterlimit:10;" d="M 41 4.3 L 44.034961 4.3 L 44.034961 4.7 L 41 4.7 Z M 41 4.3 " transform="matrix(20,0,0,20,-109,71)"/>
<path style="fill:none;stroke-width:0.1;stroke-linecap:butt;stroke-linejoin:miter;stroke:rgb(0%,0%,0%);stroke-opacity:1;stroke-miterlimit:10;" d="M 40.569727 -2.573047 C 39.262305 -1.841992 38.136133 -0.825781 37.275 0.4 " transform="matrix(20,0,0,20,-109,71)"/>
<path style="fill-rule:evenodd;fill:rgb(0%,0%,0%);fill-opacity:1;stroke-width:0.1;stroke-linecap:butt;stroke-linejoin:miter;stroke:rgb(0%,0%,0%);stroke-opacity:1;stroke-miterlimit:10;" d="M 40.899805 -2.750195 L 40.563281 -2.303906 L 40.564063 -2.583398 L 40.34082 -2.751758 Z M 40.899805 -2.750195 " transform="matrix(20,0,0,20,-109,71)"/>
<path style="fill:none;stroke-width:0.1;stroke-linecap:butt;stroke-linejoin:miter;stroke:rgb(0%,0%,0%);stroke-opacity:1;stroke-miterlimit:10;" d="M 40.519727 0.27832 C 39.409961 0.475781 38.322852 0.78457 37.275 1.2 " transform="matrix(20,0,0,20,-109,71)"/>
<path style="fill-rule:evenodd;fill:rgb(0%,0%,0%);fill-opacity:1;stroke-width:0.1;stroke-linecap:butt;stroke-linejoin:miter;stroke:rgb(0%,0%,0%);stroke-opacity:1;stroke-miterlimit:10;" d="M 40.889453 0.216406 L 40.431445 0.536914 L 40.518359 0.271289 L 40.358203 0.0423828 Z M 40.889453 0.216406 " transform="matrix(20,0,0,20,-109,71)"/>
<path style="fill:none;stroke-width:0.1;stroke-linecap:butt;stroke-linejoin:miter;stroke:rgb(0%,0%,0%);stroke-opacity:1;stroke-miterlimit:10;" d="M 40.602539 2.921094 C 39.611523 2.285742 38.451563 1.964648 37.275 2 " transform="matrix(20,0,0,20,-109,71)"/>
<path style="fill-rule:evenodd;fill:rgb(0%,0%,0%);fill-opacity:1;stroke-width:0.1;stroke-linecap:butt;stroke-linejoin:miter;stroke:rgb(0%,0%,0%);stroke-opacity:1;stroke-miterlimit:10;" d="M 40.911133 3.132031 L 40.362305 3.026563 L 40.613477 2.904102 L 40.666211 2.629688 Z M 40.911133 3.132031 " transform="matrix(20,0,0,20,-109,71)"/>
<path style="fill-rule:evenodd;fill:rgb(100%,100%,100%);fill-opacity:1;stroke-width:0.1;stroke-linecap:butt;stroke-linejoin:miter;stroke:rgb(0%,0%,0%);stroke-opacity:1;stroke-miterlimit:10;" d="M 18 10 L 20.730078 10 L 20.730078 11.4 L 18 11.4 Z M 18 10 " transform="matrix(20,0,0,20,-109,71)"/>
<g style="fill:rgb(0%,0%,0%);fill-opacity:1;">
  <use xlink:href="#glyph0-24" x="256.035156" y="290.007867"/>
  <use xlink:href="#glyph0-29" x="267.167969" y="290.007867"/>
  <use xlink:href="#glyph0-21" x="278.300781" y="290.007867"/>
  <use xlink:href="#glyph0-21" x="289.433594" y="290.007867"/>
</g>
<path style="fill-rule:evenodd;fill:rgb(100%,100%,100%);fill-opacity:1;stroke-width:0.1;stroke-linecap:butt;stroke-linejoin:miter;stroke:rgb(0%,0%,0%);stroke-opacity:1;stroke-miterlimit:10;" d="M 18 11.4 L 20.730078 11.4 L 20.730078 11.8 L 18 11.8 Z M 18 11.4 " transform="matrix(20,0,0,20,-109,71)"/>
<path style="fill-rule:evenodd;fill:rgb(100%,100%,100%);fill-opacity:1;stroke-width:0.1;stroke-linecap:butt;stroke-linejoin:miter;stroke:rgb(0%,0%,0%);stroke-opacity:1;stroke-miterlimit:10;" d="M 18 11.8 L 20.730078 11.8 L 20.730078 12.2 L 18 12.2 Z M 18 11.8 " transform="matrix(20,0,0,20,-109,71)"/>
<path style="fill-rule:evenodd;fill:rgb(100%,100%,100%);fill-opacity:1;stroke-width:0.1;stroke-linecap:butt;stroke-linejoin:miter;stroke:rgb(0%,0%,0%);stroke-opacity:1;stroke-miterlimit:10;" d="M 18 13 L 20.190039 13 L 20.190039 14.4 L 18 14.4 Z M 18 13 " transform="matrix(20,0,0,20,-109,71)"/>
<g style="fill:rgb(0%,0%,0%);fill-opacity:1;">
  <use xlink:href="#glyph0-4" x="256.023438" y="350.007867"/>
  <use xlink:href="#glyph0-2" x="267.413954" y="350.007867"/>
  <use xlink:href="#glyph0-10" x="278.80447" y="350.007867"/>
  <use xlink:href="#glyph0-10" x="284.288954" y="350.007867"/>
</g>
<path style="fill-rule:evenodd;fill:rgb(100%,100%,100%);fill-opacity:1;stroke-width:0.1;stroke-linecap:butt;stroke-linejoin:miter;stroke:rgb(0%,0%,0%);stroke-opacity:1;stroke-miterlimit:10;" d="M 18 14.4 L 20.190039 14.4 L 20.190039 14.8 L 18 14.8 Z M 18 14.4 " transform="matrix(20,0,0,20,-109,71)"/>
<path style="fill-rule:evenodd;fill:rgb(100%,100%,100%);fill-opacity:1;stroke-width:0.1;stroke-linecap:butt;stroke-linejoin:miter;stroke:rgb(0%,0%,0%);stroke-opacity:1;stroke-miterlimit:10;" d="M 18 14.8 L 20.190039 14.8 L 20.190039 15.2 L 18 15.2 Z M 18 14.8 " transform="matrix(20,0,0,20,-109,71)"/>
<path style="fill-rule:evenodd;fill:rgb(100%,100%,100%);fill-opacity:1;stroke-width:0.1;stroke-linecap:butt;stroke-linejoin:miter;stroke:rgb(0%,0%,0%);stroke-opacity:1;stroke-miterlimit:10;" d="M 18 16 L 20.390039 16 L 20.390039 17.4 L 18 17.4 Z M 18 16 " transform="matrix(20,0,0,20,-109,71)"/>
<g style="fill:rgb(0%,0%,0%);fill-opacity:1;">
  <use xlink:href="#glyph0-5" x="256.011719" y="410.007867"/>
  <use xlink:href="#glyph0-19" x="263.660102" y="410.007867"/>
  <use xlink:href="#glyph0-2" x="271.550727" y="410.007867"/>
  <use xlink:href="#glyph0-3" x="282.941243" y="410.007867"/>
</g>
<path style="fill-rule:evenodd;fill:rgb(100%,100%,100%);fill-opacity:1;stroke-width:0.1;stroke-linecap:butt;stroke-linejoin:miter;stroke:rgb(0%,0%,0%);stroke-opacity:1;stroke-miterlimit:10;" d="M 18 17.4 L 20.390039 17.4 L 20.390039 17.8 L 18 17.8 Z M 18 17.4 " transform="matrix(20,0,0,20,-109,71)"/>
<path style="fill-rule:evenodd;fill:rgb(100%,100%,100%);fill-opacity:1;stroke-width:0.1;stroke-linecap:butt;stroke-linejoin:miter;stroke:rgb(0%,0%,0%);stroke-opacity:1;stroke-miterlimit:10;" d="M 18 17.8 L 20.390039 17.8 L 20.390039 18.2 L 18 18.2 Z M 18 17.8 " transform="matrix(20,0,0,20,-109,71)"/>
<path style="fill-rule:evenodd;fill:rgb(100%,100%,100%);fill-opacity:1;stroke-width:0.1;stroke-linecap:butt;stroke-linejoin:miter;stroke:rgb(0%,0%,0%);stroke-opacity:1;stroke-miterlimit:10;" d="M 8.5 25 L 11.7875 25 L 11.7875 26.4 L 8.5 26.4 Z M 8.5 25 " transform="matrix(20,0,0,20,-109,71)"/>
<g style="fill:rgb(0%,0%,0%);fill-opacity:1;">
  <use xlink:href="#glyph0-29" x="66.042969" y="590.007867"/>
  <use xlink:href="#glyph0-21" x="77.175781" y="590.007867"/>
  <use xlink:href="#glyph0-21" x="88.308594" y="590.007867"/>
  <use xlink:href="#glyph0-21" x="99.441406" y="590.007867"/>
  <use xlink:href="#glyph0-21" x="110.574219" y="590.007867"/>
</g>
<path style="fill-rule:evenodd;fill:rgb(100%,100%,100%);fill-opacity:1;stroke-width:0.1;stroke-linecap:butt;stroke-linejoin:miter;stroke:rgb(0%,0%,0%);stroke-opacity:1;stroke-miterlimit:10;" d="M 8.5 26.4 L 11.7875 26.4 L 11.7875 26.8 L 8.5 26.8 Z M 8.5 26.4 " transform="matrix(20,0,0,20,-109,71)"/>
<path style="fill-rule:evenodd;fill:rgb(100%,100%,100%);fill-opacity:1;stroke-width:0.1;stroke-linecap:butt;stroke-linejoin:miter;stroke:rgb(0%,0%,0%);stroke-opacity:1;stroke-miterlimit:10;" d="M 8.5 26.8 L 11.7875 26.8 L 11.7875 27.2 L 8.5 27.2 Z M 8.5 26.8 " transform="matrix(20,0,0,20,-109,71)"/>
<path style="fill:none;stroke-width:0.1;stroke-linecap:butt;stroke-linejoin:miter;stroke:rgb(0%,0%,0%);stroke-opacity:1;stroke-miterlimit:10;" d="M 8.5 23.4 C 8.011719 23.468359 7.619922 23.837695 7.522852 24.321094 C 7.425586 24.804297 7.644141 25.296289 8.067969 25.548242 " transform="matrix(20,0,0,20,-109,71)"/>
<path style="fill-rule:evenodd;fill:rgb(0%,0%,0%);fill-opacity:1;stroke-width:0.1;stroke-linecap:butt;stroke-linejoin:miter;stroke:rgb(0%,0%,0%);stroke-opacity:1;stroke-miterlimit:10;" d="M 8.389258 25.68457 L 7.859375 25.862695 L 8.017969 25.632422 L 7.928906 25.367383 Z M 8.389258 25.68457 " transform="matrix(20,0,0,20,-109,71)"/>
<path style="fill-rule:evenodd;fill:rgb(100%,100%,100%);fill-opacity:1;stroke-width:0.1;stroke-linecap:butt;stroke-linejoin:miter;stroke:rgb(0%,0%,0%);stroke-opacity:1;stroke-miterlimit:10;" d="M 15.5 25 L 18.230078 25 L 18.230078 26.4 L 15.5 26.4 Z M 15.5 25 " transform="matrix(20,0,0,20,-109,71)"/>
<g style="fill:rgb(0%,0%,0%);fill-opacity:1;">
  <use xlink:href="#glyph0-30" x="206.035156" y="590.007867"/>
  <use xlink:href="#glyph0-21" x="217.167969" y="590.007867"/>
  <use xlink:href="#glyph0-21" x="228.300781" y="590.007867"/>
  <use xlink:href="#glyph0-21" x="239.433594" y="590.007867"/>
</g>
<path style="fill-rule:evenodd;fill:rgb(100%,100%,100%);fill-opacity:1;stroke-width:0.1;stroke-linecap:butt;stroke-linejoin:miter;stroke:rgb(0%,0%,0%);stroke-opacity:1;stroke-miterlimit:10;" d="M 15.5 26.4 L 18.230078 26.4 L 18.230078 26.8 L 15.5 26.8 Z M 15.5 26.4 " transform="matrix(20,0,0,20,-109,71)"/>
<path style="fill-rule:evenodd;fill:rgb(100%,100%,100%);fill-opacity:1;stroke-width:0.1;stroke-linecap:butt;stroke-linejoin:miter;stroke:rgb(0%,0%,0%);stroke-opacity:1;stroke-miterlimit:10;" d="M 15.5 26.8 L 18.230078 26.8 L 18.230078 27.2 L 15.5 27.2 Z M 15.5 26.8 " transform="matrix(20,0,0,20,-109,71)"/>
<path style="fill-rule:evenodd;fill:rgb(100%,100%,100%);fill-opacity:1;stroke-width:0.1;stroke-linecap:butt;stroke-linejoin:miter;stroke:rgb(0%,0%,0%);stroke-opacity:1;stroke-miterlimit:10;" d="M 21.5 25 L 23.672461 25 L 23.672461 26.4 L 21.5 26.4 Z M 21.5 25 " transform="matrix(20,0,0,20,-109,71)"/>
<g style="fill:rgb(0%,0%,0%);fill-opacity:1;">
  <use xlink:href="#glyph0-26" x="326.027344" y="590.007867"/>
  <use xlink:href="#glyph0-25" x="337.160156" y="590.007867"/>
  <use xlink:href="#glyph0-21" x="348.292969" y="590.007867"/>
</g>
<path style="fill-rule:evenodd;fill:rgb(100%,100%,100%);fill-opacity:1;stroke-width:0.1;stroke-linecap:butt;stroke-linejoin:miter;stroke:rgb(0%,0%,0%);stroke-opacity:1;stroke-miterlimit:10;" d="M 21.5 26.4 L 23.672461 26.4 L 23.672461 26.8 L 21.5 26.8 Z M 21.5 26.4 " transform="matrix(20,0,0,20,-109,71)"/>
<path style="fill-rule:evenodd;fill:rgb(100%,100%,100%);fill-opacity:1;stroke-width:0.1;stroke-linecap:butt;stroke-linejoin:miter;stroke:rgb(0%,0%,0%);stroke-opacity:1;stroke-miterlimit:10;" d="M 21.5 26.8 L 23.672461 26.8 L 23.672461 27.2 L 21.5 27.2 Z M 21.5 26.8 " transform="matrix(20,0,0,20,-109,71)"/>
<path style="fill-rule:evenodd;fill:rgb(100%,100%,100%);fill-opacity:1;stroke-width:0.1;stroke-linecap:butt;stroke-linejoin:miter;stroke:rgb(0%,0%,0%);stroke-opacity:1;stroke-miterlimit:10;" d="M 27 25 L 28.615039 25 L 28.615039 26.4 L 27 26.4 Z M 27 25 " transform="matrix(20,0,0,20,-109,71)"/>
<g style="fill:rgb(0%,0%,0%);fill-opacity:1;">
  <use xlink:href="#glyph0-25" x="436.015625" y="590.007867"/>
  <use xlink:href="#glyph0-21" x="447.148438" y="590.007867"/>
</g>
<path style="fill-rule:evenodd;fill:rgb(100%,100%,100%);fill-opacity:1;stroke-width:0.1;stroke-linecap:butt;stroke-linejoin:miter;stroke:rgb(0%,0%,0%);stroke-opacity:1;stroke-miterlimit:10;" d="M 27 26.4 L 28.615039 26.4 L 28.615039 26.8 L 27 26.8 Z M 27 26.4 " transform="matrix(20,0,0,20,-109,71)"/>
<path style="fill-rule:evenodd;fill:rgb(100%,100%,100%);fill-opacity:1;stroke-width:0.1;stroke-linecap:butt;stroke-linejoin:miter;stroke:rgb(0%,0%,0%);stroke-opacity:1;stroke-miterlimit:10;" d="M 27 26.8 L 28.615039 26.8 L 28.615039 27.2 L 27 27.2 Z M 27 26.8 " transform="matrix(20,0,0,20,-109,71)"/>
<path style="fill-rule:evenodd;fill:rgb(100%,100%,100%);fill-opacity:1;stroke-width:0.1;stroke-linecap:butt;stroke-linejoin:miter;stroke:rgb(0%,0%,0%);stroke-opacity:1;stroke-miterlimit:10;" d="M 33 25 L 35.730078 25 L 35.730078 26.4 L 33 26.4 Z M 33 25 " transform="matrix(20,0,0,20,-109,71)"/>
<g style="fill:rgb(0%,0%,0%);fill-opacity:1;">
  <use xlink:href="#glyph0-22" x="556.035156" y="590.007867"/>
  <use xlink:href="#glyph0-29" x="567.167969" y="590.007867"/>
  <use xlink:href="#glyph0-21" x="578.300781" y="590.007867"/>
  <use xlink:href="#glyph0-21" x="589.433594" y="590.007867"/>
</g>
<path style="fill-rule:evenodd;fill:rgb(100%,100%,100%);fill-opacity:1;stroke-width:0.1;stroke-linecap:butt;stroke-linejoin:miter;stroke:rgb(0%,0%,0%);stroke-opacity:1;stroke-miterlimit:10;" d="M 33 26.4 L 35.730078 26.4 L 35.730078 26.8 L 33 26.8 Z M 33 26.4 " transform="matrix(20,0,0,20,-109,71)"/>
<path style="fill-rule:evenodd;fill:rgb(100%,100%,100%);fill-opacity:1;stroke-width:0.1;stroke-linecap:butt;stroke-linejoin:miter;stroke:rgb(0%,0%,0%);stroke-opacity:1;stroke-miterlimit:10;" d="M 33 26.8 L 35.730078 26.8 L 35.730078 27.2 L 33 27.2 Z M 33 26.8 " transform="matrix(20,0,0,20,-109,71)"/>
<path style="fill:none;stroke-width:0.1;stroke-linecap:butt;stroke-linejoin:miter;stroke:rgb(0%,0%,0%);stroke-opacity:1;stroke-miterlimit:10;" d="M 15.5 23.4 C 15.011719 23.468359 14.619922 23.837695 14.522852 24.321094 C 14.425586 24.804297 14.644141 25.296289 15.067969 25.548242 " transform="matrix(20,0,0,20,-109,71)"/>
<path style="fill-rule:evenodd;fill:rgb(0%,0%,0%);fill-opacity:1;stroke-width:0.1;stroke-linecap:butt;stroke-linejoin:miter;stroke:rgb(0%,0%,0%);stroke-opacity:1;stroke-miterlimit:10;" d="M 15.389258 25.68457 L 14.859375 25.862695 L 15.017969 25.632422 L 14.928906 25.367383 Z M 15.389258 25.68457 " transform="matrix(20,0,0,20,-109,71)"/>
<path style="fill:none;stroke-width:0.1;stroke-linecap:butt;stroke-linejoin:miter;stroke:rgb(0%,0%,0%);stroke-opacity:1;stroke-miterlimit:10;" d="M 21.5 23.4 C 21.011719 23.468359 20.619922 23.837695 20.522852 24.321094 C 20.425586 24.804297 20.644141 25.296289 21.067969 25.548242 " transform="matrix(20,0,0,20,-109,71)"/>
<path style="fill-rule:evenodd;fill:rgb(0%,0%,0%);fill-opacity:1;stroke-width:0.1;stroke-linecap:butt;stroke-linejoin:miter;stroke:rgb(0%,0%,0%);stroke-opacity:1;stroke-miterlimit:10;" d="M 21.389258 25.68457 L 20.859375 25.862695 L 21.017969 25.632422 L 20.928906 25.367383 Z M 21.389258 25.68457 " transform="matrix(20,0,0,20,-109,71)"/>
<path style="fill:none;stroke-width:0.1;stroke-linecap:butt;stroke-linejoin:miter;stroke:rgb(0%,0%,0%);stroke-opacity:1;stroke-miterlimit:10;" d="M 27 23.4 C 26.511719 23.468359 26.119922 23.837695 26.022852 24.321094 C 25.925586 24.804297 26.144141 25.296289 26.567969 25.548242 " transform="matrix(20,0,0,20,-109,71)"/>
<path style="fill-rule:evenodd;fill:rgb(0%,0%,0%);fill-opacity:1;stroke-width:0.1;stroke-linecap:butt;stroke-linejoin:miter;stroke:rgb(0%,0%,0%);stroke-opacity:1;stroke-miterlimit:10;" d="M 26.889258 25.68457 L 26.359375 25.862695 L 26.517969 25.632422 L 26.428906 25.367383 Z M 26.889258 25.68457 " transform="matrix(20,0,0,20,-109,71)"/>
<path style="fill:none;stroke-width:0.1;stroke-linecap:butt;stroke-linejoin:miter;stroke:rgb(0%,0%,0%);stroke-opacity:1;stroke-miterlimit:10;" d="M 33 23.4 C 32.511719 23.468359 32.119922 23.837695 32.022852 24.321094 C 31.925586 24.804297 32.144141 25.296289 32.567969 25.548242 " transform="matrix(20,0,0,20,-109,71)"/>
<path style="fill-rule:evenodd;fill:rgb(0%,0%,0%);fill-opacity:1;stroke-width:0.1;stroke-linecap:butt;stroke-linejoin:miter;stroke:rgb(0%,0%,0%);stroke-opacity:1;stroke-miterlimit:10;" d="M 32.889258 25.68457 L 32.359375 25.862695 L 32.517969 25.632422 L 32.428906 25.367383 Z M 32.889258 25.68457 " transform="matrix(20,0,0,20,-109,71)"/>
<path style="fill:none;stroke-width:0.1;stroke-linecap:butt;stroke-linejoin:miter;stroke:rgb(0%,0%,0%);stroke-opacity:1;stroke-miterlimit:10;" d="M 17.514063 10.724609 C 15.769922 10.848242 14.074023 11.351758 12.544922 12.2 " transform="matrix(20,0,0,20,-109,71)"/>
<path style="fill-rule:evenodd;fill:rgb(0%,0%,0%);fill-opacity:1;stroke-width:0.1;stroke-linecap:butt;stroke-linejoin:miter;stroke:rgb(0%,0%,0%);stroke-opacity:1;stroke-miterlimit:10;" d="M 17.888281 10.70332 L 17.396094 10.968359 L 17.513477 10.714648 L 17.380859 10.468555 Z M 17.888281 10.70332 " transform="matrix(20,0,0,20,-109,71)"/>
<path style="fill:none;stroke-width:0.1;stroke-linecap:butt;stroke-linejoin:miter;stroke:rgb(0%,0%,0%);stroke-opacity:1;stroke-miterlimit:10;" d="M 17.547461 13.521484 C 15.949219 12.93457 14.229883 12.755273 12.544922 13 " transform="matrix(20,0,0,20,-109,71)"/>
<path style="fill-rule:evenodd;fill:rgb(0%,0%,0%);fill-opacity:1;stroke-width:0.1;stroke-linecap:butt;stroke-linejoin:miter;stroke:rgb(0%,0%,0%);stroke-opacity:1;stroke-miterlimit:10;" d="M 17.89707 13.656445 L 17.339063 13.692383 L 17.551562 13.510742 L 17.533594 13.231641 Z M 17.89707 13.656445 " transform="matrix(20,0,0,20,-109,71)"/>
<path style="fill:none;stroke-width:0.1;stroke-linecap:butt;stroke-linejoin:miter;stroke:rgb(0%,0%,0%);stroke-opacity:1;stroke-miterlimit:10;" d="M 17.622656 16.392773 C 16.115039 15.206055 14.390234 14.325391 12.544922 13.8 " transform="matrix(20,0,0,20,-109,71)"/>
<path style="fill-rule:evenodd;fill:rgb(0%,0%,0%);fill-opacity:1;stroke-width:0.1;stroke-linecap:butt;stroke-linejoin:miter;stroke:rgb(0%,0%,0%);stroke-opacity:1;stroke-miterlimit:10;" d="M 17.914453 16.62793 L 17.370898 16.49707 L 17.627734 16.386523 L 17.692969 16.114648 Z M 17.914453 16.62793 " transform="matrix(20,0,0,20,-109,71)"/>
</g>
</svg>
