<?xml version="1.0" encoding="UTF-8"?>
<svg xmlns="http://www.w3.org/2000/svg" xmlns:xlink="http://www.w3.org/1999/xlink" width="707pt" height="425pt" viewBox="0 0 707 425" version="1.1">
<defs>
<g>
<symbol overflow="visible" id="glyph0-0">
<path style="stroke:none;" d="M 0.796875 2.828125 L 0.796875 -11.28125 L 8.796875 -11.28125 L 8.796875 2.828125 Z M 1.703125 1.9375 L 7.90625 1.9375 L 7.90625 -10.390625 L 1.703125 -10.390625 Z M 1.703125 1.9375 "/>
</symbol>
<symbol overflow="visible" id="glyph0-1">
<path style="stroke:none;" d=""/>
</symbol>
<symbol overflow="visible" id="glyph0-2">
<path style="stroke:none;" d="M 1.875 -2.078125 L 4.53125 -2.078125 L 4.53125 -9.625 L 1.8125 -9.0625 L 1.8125 -11.109375 L 4.515625 -11.671875 L 7.375 -11.671875 L 7.375 -2.078125 L 10.03125 -2.078125 L 10.03125 0 L 1.875 0 Z M 1.875 -2.078125 "/>
</symbol>
<symbol overflow="visible" id="glyph1-0">
<path style="stroke:none;" d="M 0.65625 2.296875 L 0.65625 -9.171875 L 7.15625 -9.171875 L 7.15625 2.296875 Z M 1.390625 1.578125 L 6.4375 1.578125 L 6.4375 -8.4375 L 1.390625 -8.4375 Z M 1.390625 1.578125 "/>
</symbol>
<symbol overflow="visible" id="glyph1-1">
<path style="stroke:none;" d="M 4.4375 -7.4375 L 4.4375 -4.609375 L 7.265625 -4.609375 L 7.265625 -3.53125 L 4.4375 -3.53125 L 4.4375 -0.71875 L 3.375 -0.71875 L 3.375 -3.53125 L 0.5625 -3.53125 L 0.5625 -4.609375 L 3.375 -4.609375 L 3.375 -7.4375 Z M 4.4375 -7.4375 "/>
</symbol>
<symbol overflow="visible" id="glyph1-2">
<path style="stroke:none;" d="M 6.75 -9.875 L 6.75 -8.90625 L 5.421875 -8.90625 C 5.003906 -8.90625 4.710938 -8.816406 4.546875 -8.640625 C 4.378906 -8.472656 4.296875 -8.167969 4.296875 -7.734375 L 4.296875 -7.109375 L 6.75 -7.109375 L 6.75 -6.203125 L 4.296875 -6.203125 L 4.296875 0 L 3.140625 0 L 3.140625 -6.203125 L 1.234375 -6.203125 L 1.234375 -7.109375 L 3.140625 -7.109375 L 3.140625 -7.609375 C 3.140625 -8.378906 3.316406 -8.945312 3.671875 -9.3125 C 4.023438 -9.683594 4.582031 -9.875 5.34375 -9.875 Z M 6.75 -9.875 "/>
</symbol>
<symbol overflow="visible" id="glyph1-3">
<path style="stroke:none;" d="M 4.453125 -3.578125 L 4.0625 -3.578125 C 3.382812 -3.578125 2.871094 -3.457031 2.53125 -3.21875 C 2.1875 -2.976562 2.015625 -2.617188 2.015625 -2.140625 C 2.015625 -1.710938 2.140625 -1.378906 2.390625 -1.140625 C 2.648438 -0.910156 3.007812 -0.796875 3.46875 -0.796875 C 4.113281 -0.796875 4.617188 -1.019531 4.984375 -1.46875 C 5.355469 -1.914062 5.546875 -2.53125 5.546875 -3.3125 L 5.546875 -3.578125 Z M 6.71875 -4.0625 L 6.71875 0 L 5.546875 0 L 5.546875 -1.046875 C 5.296875 -0.628906 4.976562 -0.316406 4.59375 -0.109375 C 4.21875 0.0859375 3.757812 0.1875 3.21875 0.1875 C 2.5 0.1875 1.917969 -0.015625 1.484375 -0.421875 C 1.054688 -0.835938 0.84375 -1.382812 0.84375 -2.0625 C 0.84375 -2.851562 1.109375 -3.453125 1.640625 -3.859375 C 2.167969 -4.273438 2.953125 -4.484375 3.984375 -4.484375 L 5.546875 -4.484375 L 5.546875 -4.671875 C 5.546875 -5.230469 5.398438 -5.644531 5.109375 -5.90625 C 4.828125 -6.164062 4.378906 -6.296875 3.765625 -6.296875 C 3.359375 -6.296875 2.949219 -6.238281 2.546875 -6.125 C 2.140625 -6.007812 1.742188 -5.839844 1.359375 -5.625 L 1.359375 -6.78125 C 1.792969 -6.945312 2.210938 -7.070312 2.609375 -7.15625 C 3.003906 -7.238281 3.390625 -7.28125 3.765625 -7.28125 C 4.347656 -7.28125 4.847656 -7.191406 5.265625 -7.015625 C 5.679688 -6.847656 6.019531 -6.585938 6.28125 -6.234375 C 6.433594 -6.023438 6.546875 -5.761719 6.609375 -5.453125 C 6.679688 -5.140625 6.71875 -4.675781 6.71875 -4.0625 Z M 6.71875 -4.0625 "/>
</symbol>
<symbol overflow="visible" id="glyph1-4">
<path style="stroke:none;" d="M 4.0625 -2.578125 C 4.0625 -2.054688 4.15625 -1.660156 4.34375 -1.390625 C 4.539062 -1.117188 4.828125 -0.984375 5.203125 -0.984375 L 6.5625 -0.984375 L 6.5625 0 L 5.078125 0 C 4.378906 0 3.835938 -0.222656 3.453125 -0.671875 C 3.078125 -1.117188 2.890625 -1.753906 2.890625 -2.578125 L 2.890625 -9.03125 L 1.015625 -9.03125 L 1.015625 -9.953125 L 4.0625 -9.953125 Z M 4.0625 -2.578125 "/>
</symbol>
<symbol overflow="visible" id="glyph1-5">
<path style="stroke:none;" d="M 3.890625 -9.125 L 3.890625 -7.109375 L 6.546875 -7.109375 L 6.546875 -6.203125 L 3.890625 -6.203125 L 3.890625 -2.34375 C 3.890625 -1.820312 3.988281 -1.457031 4.1875 -1.25 C 4.394531 -1.039062 4.742188 -0.9375 5.234375 -0.9375 L 6.546875 -0.9375 L 6.546875 0 L 5.125 0 C 4.25 0 3.628906 -0.171875 3.265625 -0.515625 C 2.910156 -0.867188 2.734375 -1.476562 2.734375 -2.34375 L 2.734375 -6.203125 L 0.828125 -6.203125 L 0.828125 -7.109375 L 2.734375 -7.109375 L 2.734375 -9.125 Z M 3.890625 -9.125 "/>
</symbol>
<symbol overflow="visible" id="glyph1-6">
<path style="stroke:none;" d="M 6.171875 -6.859375 L 6.171875 -5.71875 C 5.835938 -5.914062 5.496094 -6.0625 5.15625 -6.15625 C 4.820312 -6.246094 4.476562 -6.296875 4.125 -6.296875 C 3.601562 -6.296875 3.210938 -6.210938 2.953125 -6.046875 C 2.691406 -5.878906 2.5625 -5.617188 2.5625 -5.265625 C 2.5625 -4.941406 2.65625 -4.699219 2.84375 -4.546875 C 3.039062 -4.390625 3.523438 -4.238281 4.296875 -4.09375 L 4.78125 -4 C 5.351562 -3.894531 5.785156 -3.675781 6.078125 -3.34375 C 6.378906 -3.007812 6.53125 -2.582031 6.53125 -2.0625 C 6.53125 -1.351562 6.277344 -0.800781 5.78125 -0.40625 C 5.289062 -0.0078125 4.597656 0.1875 3.703125 0.1875 C 3.359375 0.1875 2.992188 0.148438 2.609375 0.078125 C 2.222656 0.00390625 1.804688 -0.109375 1.359375 -0.265625 L 1.359375 -1.46875 C 1.785156 -1.238281 2.195312 -1.066406 2.59375 -0.953125 C 2.996094 -0.847656 3.378906 -0.796875 3.734375 -0.796875 C 4.242188 -0.796875 4.640625 -0.898438 4.921875 -1.109375 C 5.210938 -1.316406 5.359375 -1.609375 5.359375 -1.984375 C 5.359375 -2.523438 4.835938 -2.898438 3.796875 -3.109375 L 3.75 -3.125 L 3.3125 -3.21875 C 2.632812 -3.339844 2.136719 -3.5625 1.828125 -3.875 C 1.523438 -4.183594 1.375 -4.609375 1.375 -5.140625 C 1.375 -5.824219 1.601562 -6.351562 2.0625 -6.71875 C 2.527344 -7.089844 3.191406 -7.28125 4.046875 -7.28125 C 4.417969 -7.28125 4.785156 -7.242188 5.140625 -7.171875 C 5.492188 -7.109375 5.835938 -7.003906 6.171875 -6.859375 Z M 6.171875 -6.859375 "/>
</symbol>
<symbol overflow="visible" id="glyph1-7">
<path style="stroke:none;" d="M 2.265625 -4.078125 L 5.5625 -4.078125 L 5.5625 -3.046875 L 2.265625 -3.046875 Z M 2.265625 -4.078125 "/>
</symbol>
<symbol overflow="visible" id="glyph1-8">
<path style="stroke:none;" d="M 6.734375 -0.359375 C 6.421875 -0.179688 6.097656 -0.0429688 5.765625 0.046875 C 5.429688 0.136719 5.089844 0.1875 4.75 0.1875 C 3.644531 0.1875 2.777344 -0.140625 2.15625 -0.796875 C 1.539062 -1.460938 1.234375 -2.378906 1.234375 -3.546875 C 1.234375 -4.710938 1.539062 -5.625 2.15625 -6.28125 C 2.777344 -6.945312 3.644531 -7.28125 4.75 -7.28125 C 5.089844 -7.28125 5.425781 -7.230469 5.75 -7.140625 C 6.070312 -7.054688 6.398438 -6.917969 6.734375 -6.734375 L 6.734375 -5.515625 C 6.421875 -5.785156 6.105469 -5.984375 5.796875 -6.109375 C 5.492188 -6.230469 5.144531 -6.296875 4.75 -6.296875 C 4.019531 -6.296875 3.457031 -6.054688 3.0625 -5.578125 C 2.664062 -5.109375 2.46875 -4.429688 2.46875 -3.546875 C 2.46875 -2.671875 2.664062 -1.992188 3.0625 -1.515625 C 3.457031 -1.046875 4.019531 -0.8125 4.75 -0.8125 C 5.152344 -0.8125 5.519531 -0.875 5.84375 -1 C 6.164062 -1.121094 6.460938 -1.316406 6.734375 -1.578125 Z M 6.734375 -0.359375 "/>
</symbol>
<symbol overflow="visible" id="glyph1-9">
<path style="stroke:none;" d="M 7.0625 -3.84375 L 7.0625 -3.28125 L 2 -3.28125 L 2 -3.234375 C 2 -2.460938 2.203125 -1.863281 2.609375 -1.4375 C 3.011719 -1.019531 3.582031 -0.8125 4.3125 -0.8125 C 4.683594 -0.8125 5.078125 -0.867188 5.484375 -0.984375 C 5.886719 -1.097656 6.320312 -1.28125 6.78125 -1.53125 L 6.78125 -0.359375 C 6.34375 -0.179688 5.914062 -0.0429688 5.5 0.046875 C 5.082031 0.136719 4.679688 0.1875 4.296875 0.1875 C 3.191406 0.1875 2.324219 -0.140625 1.703125 -0.796875 C 1.085938 -1.460938 0.78125 -2.378906 0.78125 -3.546875 C 0.78125 -4.679688 1.082031 -5.585938 1.6875 -6.265625 C 2.300781 -6.941406 3.113281 -7.28125 4.125 -7.28125 C 5.027344 -7.28125 5.742188 -6.972656 6.265625 -6.359375 C 6.792969 -5.742188 7.0625 -4.902344 7.0625 -3.84375 Z M 5.890625 -4.1875 C 5.867188 -4.871094 5.699219 -5.394531 5.390625 -5.75 C 5.085938 -6.113281 4.648438 -6.296875 4.078125 -6.296875 C 3.515625 -6.296875 3.050781 -6.105469 2.6875 -5.734375 C 2.320312 -5.359375 2.105469 -4.839844 2.046875 -4.1875 Z M 5.890625 -4.1875 "/>
</symbol>
<symbol overflow="visible" id="glyph1-10">
<path style="stroke:none;" d="M 5.453125 -3.609375 C 5.453125 -4.480469 5.304688 -5.148438 5.015625 -5.609375 C 4.734375 -6.066406 4.316406 -6.296875 3.765625 -6.296875 C 3.191406 -6.296875 2.753906 -6.066406 2.453125 -5.609375 C 2.160156 -5.148438 2.015625 -4.480469 2.015625 -3.609375 C 2.015625 -2.734375 2.164062 -2.066406 2.46875 -1.609375 C 2.769531 -1.148438 3.207031 -0.921875 3.78125 -0.921875 C 4.320312 -0.921875 4.734375 -1.148438 5.015625 -1.609375 C 5.304688 -2.066406 5.453125 -2.734375 5.453125 -3.609375 Z M 6.609375 -0.453125 C 6.609375 0.605469 6.355469 1.414062 5.859375 1.96875 C 5.359375 2.519531 4.617188 2.796875 3.640625 2.796875 C 3.316406 2.796875 2.976562 2.761719 2.625 2.703125 C 2.269531 2.640625 1.917969 2.550781 1.578125 2.4375 L 1.578125 1.28125 C 1.992188 1.476562 2.367188 1.625 2.703125 1.71875 C 3.042969 1.808594 3.359375 1.859375 3.640625 1.859375 C 4.261719 1.859375 4.722656 1.683594 5.015625 1.34375 C 5.304688 1 5.453125 0.457031 5.453125 -0.28125 L 5.453125 -1.125 C 5.265625 -0.726562 5.007812 -0.429688 4.6875 -0.234375 C 4.363281 -0.046875 3.972656 0.046875 3.515625 0.046875 C 2.679688 0.046875 2.011719 -0.28125 1.515625 -0.9375 C 1.023438 -1.601562 0.78125 -2.492188 0.78125 -3.609375 C 0.78125 -4.722656 1.023438 -5.613281 1.515625 -6.28125 C 2.011719 -6.945312 2.679688 -7.28125 3.515625 -7.28125 C 3.972656 -7.28125 4.359375 -7.183594 4.671875 -7 C 4.980469 -6.820312 5.242188 -6.539062 5.453125 -6.15625 L 5.453125 -7.078125 L 6.609375 -7.078125 Z M 6.609375 -0.453125 "/>
</symbol>
<symbol overflow="visible" id="glyph1-11">
<path style="stroke:none;" d="M 3.90625 -6.296875 C 3.3125 -6.296875 2.863281 -6.058594 2.5625 -5.59375 C 2.257812 -5.132812 2.109375 -4.449219 2.109375 -3.546875 C 2.109375 -2.648438 2.257812 -1.964844 2.5625 -1.5 C 2.863281 -1.039062 3.3125 -0.8125 3.90625 -0.8125 C 4.507812 -0.8125 4.960938 -1.039062 5.265625 -1.5 C 5.566406 -1.964844 5.71875 -2.648438 5.71875 -3.546875 C 5.71875 -4.449219 5.566406 -5.132812 5.265625 -5.59375 C 4.960938 -6.058594 4.507812 -6.296875 3.90625 -6.296875 Z M 3.90625 -7.28125 C 4.894531 -7.28125 5.648438 -6.957031 6.171875 -6.3125 C 6.691406 -5.675781 6.953125 -4.753906 6.953125 -3.546875 C 6.953125 -2.335938 6.691406 -1.410156 6.171875 -0.765625 C 5.648438 -0.128906 4.894531 0.1875 3.90625 0.1875 C 2.925781 0.1875 2.175781 -0.128906 1.65625 -0.765625 C 1.132812 -1.410156 0.875 -2.335938 0.875 -3.546875 C 0.875 -4.753906 1.132812 -5.675781 1.65625 -6.3125 C 2.175781 -6.957031 2.925781 -7.28125 3.90625 -7.28125 Z M 3.90625 -7.28125 "/>
</symbol>
<symbol overflow="visible" id="glyph1-12">
<path style="stroke:none;" d="M 7.328125 -5.640625 C 7.078125 -5.835938 6.820312 -5.976562 6.5625 -6.0625 C 6.3125 -6.152344 6.027344 -6.203125 5.71875 -6.203125 C 4.988281 -6.203125 4.429688 -5.972656 4.046875 -5.515625 C 3.660156 -5.054688 3.46875 -4.394531 3.46875 -3.53125 L 3.46875 0 L 2.296875 0 L 2.296875 -7.109375 L 3.46875 -7.109375 L 3.46875 -5.71875 C 3.664062 -6.214844 3.96875 -6.601562 4.375 -6.875 C 4.777344 -7.144531 5.257812 -7.28125 5.8125 -7.28125 C 6.089844 -7.28125 6.359375 -7.242188 6.609375 -7.171875 C 6.855469 -7.097656 7.097656 -6.988281 7.328125 -6.84375 Z M 7.328125 -5.640625 "/>
</symbol>
<symbol overflow="visible" id="glyph1-13">
<path style="stroke:none;" d="M 1.625 -7.109375 L 4.609375 -7.109375 L 4.609375 -0.90625 L 6.9375 -0.90625 L 6.9375 0 L 1.125 0 L 1.125 -0.90625 L 3.453125 -0.90625 L 3.453125 -6.203125 L 1.625 -6.203125 Z M 3.453125 -9.875 L 4.609375 -9.875 L 4.609375 -8.390625 L 3.453125 -8.390625 Z M 3.453125 -9.875 "/>
</symbol>
<symbol overflow="visible" id="glyph1-14">
<path style="stroke:none;" d="M 5.453125 -6.203125 L 5.453125 -9.875 L 6.609375 -9.875 L 6.609375 0 L 5.453125 0 L 5.453125 -0.890625 C 5.253906 -0.546875 4.992188 -0.277344 4.671875 -0.09375 C 4.347656 0.0898438 3.972656 0.1875 3.546875 0.1875 C 2.691406 0.1875 2.011719 -0.144531 1.515625 -0.8125 C 1.023438 -1.476562 0.78125 -2.398438 0.78125 -3.578125 C 0.78125 -4.730469 1.023438 -5.640625 1.515625 -6.296875 C 2.011719 -6.949219 2.691406 -7.28125 3.546875 -7.28125 C 3.972656 -7.28125 4.347656 -7.183594 4.671875 -7 C 5.003906 -6.820312 5.265625 -6.554688 5.453125 -6.203125 Z M 2.015625 -3.546875 C 2.015625 -2.640625 2.15625 -1.957031 2.4375 -1.5 C 2.726562 -1.039062 3.15625 -0.8125 3.71875 -0.8125 C 4.277344 -0.8125 4.707031 -1.039062 5 -1.5 C 5.300781 -1.964844 5.453125 -2.648438 5.453125 -3.546875 C 5.453125 -4.449219 5.300781 -5.132812 5 -5.59375 C 4.707031 -6.058594 4.277344 -6.296875 3.71875 -6.296875 C 3.15625 -6.296875 2.726562 -6.058594 2.4375 -5.59375 C 2.15625 -5.132812 2.015625 -4.449219 2.015625 -3.546875 Z M 2.015625 -3.546875 "/>
</symbol>
<symbol overflow="visible" id="glyph1-15">
<path style="stroke:none;" d="M 6.421875 -9.15625 L 6.421875 -7.859375 C 6.035156 -8.105469 5.644531 -8.296875 5.25 -8.421875 C 4.863281 -8.542969 4.464844 -8.609375 4.0625 -8.609375 C 3.457031 -8.609375 2.976562 -8.464844 2.625 -8.1875 C 2.28125 -7.90625 2.109375 -7.523438 2.109375 -7.046875 C 2.109375 -6.628906 2.222656 -6.304688 2.453125 -6.078125 C 2.679688 -5.859375 3.113281 -5.675781 3.75 -5.53125 L 4.421875 -5.390625 C 5.304688 -5.179688 5.953125 -4.851562 6.359375 -4.40625 C 6.761719 -3.957031 6.96875 -3.351562 6.96875 -2.59375 C 6.96875 -1.6875 6.683594 -0.992188 6.125 -0.515625 C 5.570312 -0.046875 4.757812 0.1875 3.6875 0.1875 C 3.25 0.1875 2.804688 0.132812 2.359375 0.03125 C 1.910156 -0.0585938 1.457031 -0.203125 1 -0.390625 L 1 -1.75 C 1.488281 -1.4375 1.945312 -1.207031 2.375 -1.0625 C 2.808594 -0.925781 3.25 -0.859375 3.6875 -0.859375 C 4.339844 -0.859375 4.847656 -1.003906 5.203125 -1.296875 C 5.566406 -1.585938 5.75 -1.988281 5.75 -2.5 C 5.75 -2.976562 5.621094 -3.34375 5.375 -3.59375 C 5.125 -3.839844 4.691406 -4.035156 4.078125 -4.171875 L 3.390625 -4.328125 C 2.515625 -4.523438 1.871094 -4.820312 1.46875 -5.21875 C 1.070312 -5.621094 0.875 -6.164062 0.875 -6.84375 C 0.875 -7.695312 1.160156 -8.378906 1.734375 -8.890625 C 2.304688 -9.398438 3.0625 -9.65625 4 -9.65625 C 4.363281 -9.65625 4.742188 -9.613281 5.140625 -9.53125 C 5.542969 -9.445312 5.972656 -9.320312 6.421875 -9.15625 Z M 6.421875 -9.15625 "/>
</symbol>
<symbol overflow="visible" id="glyph1-16">
<path style="stroke:none;" d="M 6.671875 -4.40625 L 6.671875 0 L 5.5 0 L 5.5 -4.40625 C 5.5 -5.039062 5.382812 -5.507812 5.15625 -5.8125 C 4.9375 -6.113281 4.585938 -6.265625 4.109375 -6.265625 C 3.554688 -6.265625 3.132812 -6.070312 2.84375 -5.6875 C 2.550781 -5.300781 2.40625 -4.742188 2.40625 -4.015625 L 2.40625 0 L 1.234375 0 L 1.234375 -7.109375 L 2.40625 -7.109375 L 2.40625 -6.046875 C 2.613281 -6.449219 2.894531 -6.757812 3.25 -6.96875 C 3.601562 -7.175781 4.023438 -7.28125 4.515625 -7.28125 C 5.230469 -7.28125 5.769531 -7.039062 6.125 -6.5625 C 6.488281 -6.09375 6.671875 -5.371094 6.671875 -4.40625 Z M 6.671875 -4.40625 "/>
</symbol>
<symbol overflow="visible" id="glyph1-17">
<path style="stroke:none;" d="M 5.828125 -3.546875 C 5.828125 -4.449219 5.679688 -5.132812 5.390625 -5.59375 C 5.109375 -6.058594 4.683594 -6.296875 4.125 -6.296875 C 3.550781 -6.296875 3.117188 -6.058594 2.828125 -5.59375 C 2.535156 -5.132812 2.390625 -4.449219 2.390625 -3.546875 C 2.390625 -2.648438 2.535156 -1.964844 2.828125 -1.5 C 3.117188 -1.039062 3.550781 -0.8125 4.125 -0.8125 C 4.683594 -0.8125 5.109375 -1.039062 5.390625 -1.5 C 5.679688 -1.957031 5.828125 -2.640625 5.828125 -3.546875 Z M 2.390625 -6.203125 C 2.574219 -6.542969 2.832031 -6.8125 3.15625 -7 C 3.488281 -7.183594 3.867188 -7.28125 4.296875 -7.28125 C 5.160156 -7.28125 5.835938 -6.949219 6.328125 -6.296875 C 6.816406 -5.640625 7.0625 -4.730469 7.0625 -3.578125 C 7.0625 -2.398438 6.808594 -1.476562 6.3125 -0.8125 C 5.820312 -0.144531 5.148438 0.1875 4.296875 0.1875 C 3.867188 0.1875 3.492188 0.0898438 3.171875 -0.09375 C 2.847656 -0.277344 2.585938 -0.546875 2.390625 -0.890625 L 2.390625 0 L 1.21875 0 L 1.21875 -9.875 L 2.390625 -9.875 Z M 2.390625 -6.203125 "/>
</symbol>
<symbol overflow="visible" id="glyph1-18">
<path style="stroke:none;" d="M 2.53125 -8.421875 L 2.53125 -4.859375 L 4.015625 -4.859375 C 4.605469 -4.859375 5.070312 -5.015625 5.40625 -5.328125 C 5.738281 -5.636719 5.90625 -6.078125 5.90625 -6.640625 C 5.90625 -7.199219 5.738281 -7.640625 5.40625 -7.953125 C 5.070312 -8.261719 4.605469 -8.421875 4.015625 -8.421875 Z M 1.25 -9.484375 L 4.015625 -9.484375 C 5.074219 -9.484375 5.878906 -9.238281 6.421875 -8.75 C 6.972656 -8.269531 7.25 -7.566406 7.25 -6.640625 C 7.25 -5.710938 6.972656 -5.007812 6.421875 -4.53125 C 5.878906 -4.050781 5.074219 -3.8125 4.015625 -3.8125 L 2.53125 -3.8125 L 2.53125 0 L 1.25 0 Z M 1.25 -9.484375 "/>
</symbol>
<symbol overflow="visible" id="glyph1-19">
<path style="stroke:none;" d="M 4.296875 -6.390625 C 4.429688 -6.691406 4.609375 -6.914062 4.828125 -7.0625 C 5.054688 -7.207031 5.328125 -7.28125 5.640625 -7.28125 C 6.210938 -7.28125 6.613281 -7.054688 6.84375 -6.609375 C 7.082031 -6.171875 7.203125 -5.339844 7.203125 -4.125 L 7.203125 0 L 6.140625 0 L 6.140625 -4.0625 C 6.140625 -5.070312 6.082031 -5.695312 5.96875 -5.9375 C 5.851562 -6.175781 5.648438 -6.296875 5.359375 -6.296875 C 5.015625 -6.296875 4.777344 -6.164062 4.65625 -5.90625 C 4.53125 -5.644531 4.46875 -5.027344 4.46875 -4.0625 L 4.46875 0 L 3.40625 0 L 3.40625 -4.0625 C 3.40625 -5.082031 3.339844 -5.707031 3.21875 -5.9375 C 3.101562 -6.175781 2.886719 -6.296875 2.578125 -6.296875 C 2.265625 -6.296875 2.042969 -6.164062 1.921875 -5.90625 C 1.804688 -5.644531 1.75 -5.027344 1.75 -4.0625 L 1.75 0 L 0.6875 0 L 0.6875 -7.109375 L 1.75 -7.109375 L 1.75 -6.5 C 1.894531 -6.746094 2.070312 -6.941406 2.28125 -7.078125 C 2.488281 -7.210938 2.722656 -7.28125 2.984375 -7.28125 C 3.304688 -7.28125 3.570312 -7.207031 3.78125 -7.0625 C 3.996094 -6.914062 4.171875 -6.691406 4.296875 -6.390625 Z M 4.296875 -6.390625 "/>
</symbol>
<symbol overflow="visible" id="glyph2-0">
<path style="stroke:none;" d="M 0.640625 2.296875 L 0.640625 -9.171875 L 7.140625 -9.171875 L 7.140625 2.296875 Z M 1.375 1.578125 L 6.421875 1.578125 L 6.421875 -8.4375 L 1.375 -8.4375 Z M 1.375 1.578125 "/>
</symbol>
<symbol overflow="visible" id="glyph2-1">
<path style="stroke:none;" d="M 2.359375 -1.0625 L 2.359375 2.703125 L 1.1875 2.703125 L 1.1875 -7.109375 L 2.359375 -7.109375 L 2.359375 -6.03125 C 2.597656 -6.457031 2.90625 -6.769531 3.28125 -6.96875 C 3.652344 -7.175781 4.101562 -7.28125 4.625 -7.28125 C 5.488281 -7.28125 6.191406 -6.933594 6.734375 -6.25 C 7.273438 -5.5625 7.546875 -4.660156 7.546875 -3.546875 C 7.546875 -2.429688 7.273438 -1.527344 6.734375 -0.84375 C 6.191406 -0.15625 5.488281 0.1875 4.625 0.1875 C 4.101562 0.1875 3.652344 0.0820312 3.28125 -0.125 C 2.90625 -0.332031 2.597656 -0.644531 2.359375 -1.0625 Z M 6.328125 -3.546875 C 6.328125 -4.410156 6.148438 -5.082031 5.796875 -5.5625 C 5.441406 -6.050781 4.957031 -6.296875 4.34375 -6.296875 C 3.726562 -6.296875 3.242188 -6.050781 2.890625 -5.5625 C 2.535156 -5.082031 2.359375 -4.410156 2.359375 -3.546875 C 2.359375 -2.691406 2.535156 -2.019531 2.890625 -1.53125 C 3.242188 -1.039062 3.726562 -0.796875 4.34375 -0.796875 C 4.957031 -0.796875 5.441406 -1.039062 5.796875 -1.53125 C 6.148438 -2.019531 6.328125 -2.691406 6.328125 -3.546875 Z M 6.328125 -3.546875 "/>
</symbol>
<symbol overflow="visible" id="glyph2-2">
<path style="stroke:none;" d="M 7.3125 -3.84375 L 7.3125 -3.28125 L 1.9375 -3.28125 C 1.988281 -2.46875 2.226562 -1.851562 2.65625 -1.4375 C 3.089844 -1.019531 3.695312 -0.8125 4.46875 -0.8125 C 4.914062 -0.8125 5.347656 -0.863281 5.765625 -0.96875 C 6.191406 -1.082031 6.613281 -1.25 7.03125 -1.46875 L 7.03125 -0.359375 C 6.613281 -0.179688 6.179688 -0.0429688 5.734375 0.046875 C 5.296875 0.136719 4.851562 0.1875 4.40625 0.1875 C 3.269531 0.1875 2.367188 -0.140625 1.703125 -0.796875 C 1.046875 -1.460938 0.71875 -2.359375 0.71875 -3.484375 C 0.71875 -4.648438 1.03125 -5.570312 1.65625 -6.25 C 2.289062 -6.933594 3.140625 -7.28125 4.203125 -7.28125 C 5.160156 -7.28125 5.914062 -6.972656 6.46875 -6.359375 C 7.027344 -5.742188 7.3125 -4.902344 7.3125 -3.84375 Z M 6.140625 -4.1875 C 6.128906 -4.820312 5.945312 -5.332031 5.59375 -5.71875 C 5.25 -6.101562 4.789062 -6.296875 4.21875 -6.296875 C 3.5625 -6.296875 3.035156 -6.105469 2.640625 -5.734375 C 2.253906 -5.367188 2.027344 -4.851562 1.96875 -4.1875 Z M 6.140625 -4.1875 "/>
</symbol>
<symbol overflow="visible" id="glyph2-3">
<path style="stroke:none;" d="M 6.34375 -6.84375 L 6.34375 -5.75 C 6.007812 -5.925781 5.675781 -6.0625 5.34375 -6.15625 C 5.007812 -6.246094 4.675781 -6.296875 4.34375 -6.296875 C 3.582031 -6.296875 2.992188 -6.050781 2.578125 -5.5625 C 2.160156 -5.082031 1.953125 -4.410156 1.953125 -3.546875 C 1.953125 -2.679688 2.160156 -2.007812 2.578125 -1.53125 C 2.992188 -1.050781 3.582031 -0.8125 4.34375 -0.8125 C 4.675781 -0.8125 5.007812 -0.851562 5.34375 -0.9375 C 5.675781 -1.027344 6.007812 -1.171875 6.34375 -1.359375 L 6.34375 -0.265625 C 6.019531 -0.117188 5.679688 -0.0078125 5.328125 0.0625 C 4.984375 0.144531 4.613281 0.1875 4.21875 0.1875 C 3.144531 0.1875 2.289062 -0.144531 1.65625 -0.8125 C 1.03125 -1.488281 0.71875 -2.398438 0.71875 -3.546875 C 0.71875 -4.699219 1.035156 -5.613281 1.671875 -6.28125 C 2.304688 -6.945312 3.179688 -7.28125 4.296875 -7.28125 C 4.648438 -7.28125 5 -7.242188 5.34375 -7.171875 C 5.683594 -7.097656 6.019531 -6.988281 6.34375 -6.84375 Z M 6.34375 -6.84375 "/>
</symbol>
<symbol overflow="visible" id="glyph2-4">
<path style="stroke:none;" d="M 4.453125 -3.578125 C 3.515625 -3.578125 2.863281 -3.464844 2.5 -3.25 C 2.132812 -3.03125 1.953125 -2.660156 1.953125 -2.140625 C 1.953125 -1.734375 2.085938 -1.402344 2.359375 -1.15625 C 2.628906 -0.914062 3 -0.796875 3.46875 -0.796875 C 4.113281 -0.796875 4.632812 -1.023438 5.03125 -1.484375 C 5.425781 -1.941406 5.625 -2.550781 5.625 -3.3125 L 5.625 -3.578125 Z M 6.78125 -4.0625 L 6.78125 0 L 5.625 0 L 5.625 -1.078125 C 5.351562 -0.648438 5.019531 -0.332031 4.625 -0.125 C 4.226562 0.0820312 3.738281 0.1875 3.15625 0.1875 C 2.425781 0.1875 1.847656 -0.015625 1.421875 -0.421875 C 0.992188 -0.835938 0.78125 -1.382812 0.78125 -2.0625 C 0.78125 -2.863281 1.046875 -3.46875 1.578125 -3.875 C 2.117188 -4.277344 2.921875 -4.484375 3.984375 -4.484375 L 5.625 -4.484375 L 5.625 -4.609375 C 5.625 -5.136719 5.445312 -5.550781 5.09375 -5.84375 C 4.738281 -6.144531 4.238281 -6.296875 3.59375 -6.296875 C 3.1875 -6.296875 2.789062 -6.242188 2.40625 -6.140625 C 2.019531 -6.046875 1.648438 -5.898438 1.296875 -5.703125 L 1.296875 -6.78125 C 1.722656 -6.945312 2.140625 -7.070312 2.546875 -7.15625 C 2.949219 -7.238281 3.34375 -7.28125 3.71875 -7.28125 C 4.746094 -7.28125 5.515625 -7.011719 6.015625 -6.484375 C 6.523438 -5.953125 6.78125 -5.144531 6.78125 -4.0625 Z M 6.78125 -4.0625 "/>
</symbol>
<symbol overflow="visible" id="glyph2-5">
<path style="stroke:none;" d="M 2.375 -9.125 L 2.375 -7.109375 L 4.78125 -7.109375 L 4.78125 -6.203125 L 2.375 -6.203125 L 2.375 -2.34375 C 2.375 -1.757812 2.453125 -1.382812 2.609375 -1.21875 C 2.773438 -1.0625 3.101562 -0.984375 3.59375 -0.984375 L 4.78125 -0.984375 L 4.78125 0 L 3.59375 0 C 2.6875 0 2.058594 -0.164062 1.71875 -0.5 C 1.375 -0.839844 1.203125 -1.457031 1.203125 -2.34375 L 1.203125 -6.203125 L 0.34375 -6.203125 L 0.34375 -7.109375 L 1.203125 -7.109375 L 1.203125 -9.125 Z M 2.375 -9.125 "/>
</symbol>
<symbol overflow="visible" id="glyph2-6">
<path style="stroke:none;" d="M 7.734375 -1.359375 L 7.734375 -3.890625 L 5.640625 -3.890625 L 5.640625 -4.953125 L 9 -4.953125 L 9 -0.875 C 8.507812 -0.53125 7.960938 -0.261719 7.359375 -0.078125 C 6.765625 0.0976562 6.128906 0.1875 5.453125 0.1875 C 3.972656 0.1875 2.816406 -0.242188 1.984375 -1.109375 C 1.148438 -1.972656 0.734375 -3.179688 0.734375 -4.734375 C 0.734375 -6.273438 1.148438 -7.476562 1.984375 -8.34375 C 2.816406 -9.214844 3.972656 -9.65625 5.453125 -9.65625 C 6.074219 -9.65625 6.664062 -9.574219 7.21875 -9.421875 C 7.777344 -9.265625 8.296875 -9.039062 8.765625 -8.75 L 8.765625 -7.375 C 8.285156 -7.777344 7.777344 -8.082031 7.25 -8.28125 C 6.71875 -8.488281 6.152344 -8.59375 5.5625 -8.59375 C 4.40625 -8.59375 3.535156 -8.269531 2.953125 -7.625 C 2.367188 -6.976562 2.078125 -6.011719 2.078125 -4.734375 C 2.078125 -3.453125 2.367188 -2.488281 2.953125 -1.84375 C 3.535156 -1.195312 4.40625 -0.875 5.5625 -0.875 C 6.019531 -0.875 6.425781 -0.910156 6.78125 -0.984375 C 7.132812 -1.066406 7.453125 -1.191406 7.734375 -1.359375 Z M 7.734375 -1.359375 "/>
</symbol>
<symbol overflow="visible" id="glyph2-7">
<path style="stroke:none;" d="M 5.34375 -6.015625 C 5.207031 -6.085938 5.058594 -6.140625 4.90625 -6.171875 C 4.757812 -6.210938 4.589844 -6.234375 4.40625 -6.234375 C 3.75 -6.234375 3.242188 -6.019531 2.890625 -5.59375 C 2.535156 -5.164062 2.359375 -4.550781 2.359375 -3.75 L 2.359375 0 L 1.1875 0 L 1.1875 -7.109375 L 2.359375 -7.109375 L 2.359375 -6 C 2.597656 -6.433594 2.914062 -6.757812 3.3125 -6.96875 C 3.707031 -7.175781 4.1875 -7.28125 4.75 -7.28125 C 4.832031 -7.28125 4.921875 -7.273438 5.015625 -7.265625 C 5.105469 -7.253906 5.21875 -7.238281 5.34375 -7.21875 Z M 5.34375 -6.015625 "/>
</symbol>
<symbol overflow="visible" id="glyph2-8">
<path style="stroke:none;" d="M 7.140625 -4.296875 L 7.140625 0 L 5.96875 0 L 5.96875 -4.25 C 5.96875 -4.925781 5.835938 -5.429688 5.578125 -5.765625 C 5.316406 -6.097656 4.917969 -6.265625 4.390625 -6.265625 C 3.765625 -6.265625 3.269531 -6.058594 2.90625 -5.65625 C 2.539062 -5.257812 2.359375 -4.710938 2.359375 -4.015625 L 2.359375 0 L 1.1875 0 L 1.1875 -7.109375 L 2.359375 -7.109375 L 2.359375 -6 C 2.636719 -6.425781 2.96875 -6.742188 3.34375 -6.953125 C 3.714844 -7.167969 4.15625 -7.28125 4.65625 -7.28125 C 5.464844 -7.28125 6.082031 -7.023438 6.5 -6.515625 C 6.925781 -6.015625 7.140625 -5.273438 7.140625 -4.296875 Z M 7.140625 -4.296875 "/>
</symbol>
<symbol overflow="visible" id="glyph2-9">
<path style="stroke:none;" d="M 8.375 -8.75 L 8.375 -7.390625 C 7.9375 -7.792969 7.472656 -8.097656 6.984375 -8.296875 C 6.503906 -8.492188 5.988281 -8.59375 5.4375 -8.59375 C 4.351562 -8.59375 3.519531 -8.257812 2.9375 -7.59375 C 2.363281 -6.9375 2.078125 -5.980469 2.078125 -4.734375 C 2.078125 -3.484375 2.363281 -2.523438 2.9375 -1.859375 C 3.519531 -1.203125 4.351562 -0.875 5.4375 -0.875 C 5.988281 -0.875 6.503906 -0.972656 6.984375 -1.171875 C 7.472656 -1.367188 7.9375 -1.664062 8.375 -2.0625 L 8.375 -0.734375 C 7.925781 -0.421875 7.449219 -0.183594 6.953125 -0.03125 C 6.453125 0.113281 5.917969 0.1875 5.359375 0.1875 C 3.921875 0.1875 2.789062 -0.25 1.96875 -1.125 C 1.144531 -2.007812 0.734375 -3.210938 0.734375 -4.734375 C 0.734375 -6.253906 1.144531 -7.453125 1.96875 -8.328125 C 2.789062 -9.210938 3.921875 -9.65625 5.359375 -9.65625 C 5.917969 -9.65625 6.453125 -9.574219 6.953125 -9.421875 C 7.460938 -9.273438 7.9375 -9.050781 8.375 -8.75 Z M 8.375 -8.75 "/>
</symbol>
<symbol overflow="visible" id="glyph2-10">
<path style="stroke:none;" d="M 5.90625 -6.03125 L 5.90625 -9.875 L 7.078125 -9.875 L 7.078125 0 L 5.90625 0 L 5.90625 -1.0625 C 5.65625 -0.644531 5.339844 -0.332031 4.96875 -0.125 C 4.59375 0.0820312 4.144531 0.1875 3.625 0.1875 C 2.769531 0.1875 2.070312 -0.15625 1.53125 -0.84375 C 0.988281 -1.527344 0.71875 -2.429688 0.71875 -3.546875 C 0.71875 -4.660156 0.988281 -5.5625 1.53125 -6.25 C 2.070312 -6.933594 2.769531 -7.28125 3.625 -7.28125 C 4.144531 -7.28125 4.59375 -7.175781 4.96875 -6.96875 C 5.339844 -6.769531 5.65625 -6.457031 5.90625 -6.03125 Z M 1.921875 -3.546875 C 1.921875 -2.691406 2.097656 -2.019531 2.453125 -1.53125 C 2.804688 -1.039062 3.289062 -0.796875 3.90625 -0.796875 C 4.527344 -0.796875 5.019531 -1.039062 5.375 -1.53125 C 5.726562 -2.019531 5.90625 -2.691406 5.90625 -3.546875 C 5.90625 -4.410156 5.726562 -5.082031 5.375 -5.5625 C 5.019531 -6.050781 4.527344 -6.296875 3.90625 -6.296875 C 3.289062 -6.296875 2.804688 -6.050781 2.453125 -5.5625 C 2.097656 -5.082031 1.921875 -4.410156 1.921875 -3.546875 Z M 1.921875 -3.546875 "/>
</symbol>
<symbol overflow="visible" id="glyph2-11">
<path style="stroke:none;" d="M 6.328125 -3.546875 C 6.328125 -4.410156 6.148438 -5.082031 5.796875 -5.5625 C 5.441406 -6.050781 4.957031 -6.296875 4.34375 -6.296875 C 3.726562 -6.296875 3.242188 -6.050781 2.890625 -5.5625 C 2.535156 -5.082031 2.359375 -4.410156 2.359375 -3.546875 C 2.359375 -2.691406 2.535156 -2.019531 2.890625 -1.53125 C 3.242188 -1.039062 3.726562 -0.796875 4.34375 -0.796875 C 4.957031 -0.796875 5.441406 -1.039062 5.796875 -1.53125 C 6.148438 -2.019531 6.328125 -2.691406 6.328125 -3.546875 Z M 2.359375 -6.03125 C 2.597656 -6.457031 2.90625 -6.769531 3.28125 -6.96875 C 3.652344 -7.175781 4.101562 -7.28125 4.625 -7.28125 C 5.488281 -7.28125 6.191406 -6.933594 6.734375 -6.25 C 7.273438 -5.5625 7.546875 -4.660156 7.546875 -3.546875 C 7.546875 -2.429688 7.273438 -1.527344 6.734375 -0.84375 C 6.191406 -0.15625 5.488281 0.1875 4.625 0.1875 C 4.101562 0.1875 3.652344 0.0820312 3.28125 -0.125 C 2.90625 -0.332031 2.597656 -0.644531 2.359375 -1.0625 L 2.359375 0 L 1.1875 0 L 1.1875 -9.875 L 2.359375 -9.875 Z M 2.359375 -6.03125 "/>
</symbol>
<symbol overflow="visible" id="glyph2-12">
<path style="stroke:none;" d="M 3.984375 -6.296875 C 3.359375 -6.296875 2.863281 -6.050781 2.5 -5.5625 C 2.132812 -5.070312 1.953125 -4.398438 1.953125 -3.546875 C 1.953125 -2.691406 2.128906 -2.019531 2.484375 -1.53125 C 2.847656 -1.050781 3.347656 -0.8125 3.984375 -0.8125 C 4.597656 -0.8125 5.085938 -1.054688 5.453125 -1.546875 C 5.816406 -2.035156 6 -2.703125 6 -3.546875 C 6 -4.386719 5.816406 -5.054688 5.453125 -5.546875 C 5.085938 -6.042969 4.597656 -6.296875 3.984375 -6.296875 Z M 3.984375 -7.28125 C 4.992188 -7.28125 5.789062 -6.945312 6.375 -6.28125 C 6.957031 -5.625 7.25 -4.710938 7.25 -3.546875 C 7.25 -2.378906 6.957031 -1.460938 6.375 -0.796875 C 5.789062 -0.140625 4.992188 0.1875 3.984375 0.1875 C 2.960938 0.1875 2.160156 -0.140625 1.578125 -0.796875 C 1.003906 -1.460938 0.71875 -2.378906 0.71875 -3.546875 C 0.71875 -4.710938 1.003906 -5.625 1.578125 -6.28125 C 2.160156 -6.945312 2.960938 -7.28125 3.984375 -7.28125 Z M 3.984375 -7.28125 "/>
</symbol>
<symbol overflow="visible" id="glyph2-13">
<path style="stroke:none;" d="M 2.5625 -8.421875 L 2.5625 -4.859375 L 4.171875 -4.859375 C 4.761719 -4.859375 5.222656 -5.015625 5.546875 -5.328125 C 5.878906 -5.636719 6.046875 -6.078125 6.046875 -6.640625 C 6.046875 -7.210938 5.878906 -7.648438 5.546875 -7.953125 C 5.222656 -8.261719 4.761719 -8.421875 4.171875 -8.421875 Z M 1.28125 -9.484375 L 4.171875 -9.484375 C 5.230469 -9.484375 6.035156 -9.238281 6.578125 -8.75 C 7.117188 -8.269531 7.390625 -7.566406 7.390625 -6.640625 C 7.390625 -5.710938 7.117188 -5.007812 6.578125 -4.53125 C 6.035156 -4.050781 5.230469 -3.8125 4.171875 -3.8125 L 2.5625 -3.8125 L 2.5625 0 L 1.28125 0 Z M 1.28125 -9.484375 "/>
</symbol>
<symbol overflow="visible" id="glyph2-14">
<path style="stroke:none;" d="M 5.75 -6.90625 L 5.75 -5.796875 C 5.425781 -5.960938 5.085938 -6.085938 4.734375 -6.171875 C 4.378906 -6.253906 4.007812 -6.296875 3.625 -6.296875 C 3.039062 -6.296875 2.601562 -6.207031 2.3125 -6.03125 C 2.03125 -5.851562 1.890625 -5.585938 1.890625 -5.234375 C 1.890625 -4.960938 1.988281 -4.746094 2.1875 -4.59375 C 2.394531 -4.445312 2.816406 -4.300781 3.453125 -4.15625 L 3.84375 -4.0625 C 4.675781 -3.882812 5.265625 -3.632812 5.609375 -3.3125 C 5.960938 -2.988281 6.140625 -2.539062 6.140625 -1.96875 C 6.140625 -1.300781 5.878906 -0.773438 5.359375 -0.390625 C 4.835938 -0.00390625 4.117188 0.1875 3.203125 0.1875 C 2.816406 0.1875 2.414062 0.148438 2 0.078125 C 1.59375 0.00390625 1.160156 -0.109375 0.703125 -0.265625 L 0.703125 -1.46875 C 1.136719 -1.238281 1.566406 -1.066406 1.984375 -0.953125 C 2.398438 -0.847656 2.8125 -0.796875 3.21875 -0.796875 C 3.769531 -0.796875 4.191406 -0.890625 4.484375 -1.078125 C 4.785156 -1.261719 4.9375 -1.53125 4.9375 -1.875 C 4.9375 -2.183594 4.824219 -2.425781 4.609375 -2.59375 C 4.398438 -2.769531 3.933594 -2.9375 3.21875 -3.09375 L 2.8125 -3.1875 C 2.082031 -3.339844 1.554688 -3.578125 1.234375 -3.890625 C 0.910156 -4.199219 0.75 -4.632812 0.75 -5.1875 C 0.75 -5.851562 0.984375 -6.367188 1.453125 -6.734375 C 1.929688 -7.097656 2.609375 -7.28125 3.484375 -7.28125 C 3.910156 -7.28125 4.316406 -7.246094 4.703125 -7.1875 C 5.085938 -7.125 5.4375 -7.027344 5.75 -6.90625 Z M 5.75 -6.90625 "/>
</symbol>
<symbol overflow="visible" id="glyph2-15">
<path style="stroke:none;" d="M 1.28125 -9.484375 L 3 -9.484375 L 7.203125 -1.546875 L 7.203125 -9.484375 L 8.453125 -9.484375 L 8.453125 0 L 6.71875 0 L 2.515625 -7.921875 L 2.515625 0 L 1.28125 0 Z M 1.28125 -9.484375 "/>
</symbol>
<symbol overflow="visible" id="glyph2-16">
<path style="stroke:none;" d="M 6.765625 -5.75 C 7.054688 -6.269531 7.40625 -6.65625 7.8125 -6.90625 C 8.214844 -7.152344 8.695312 -7.28125 9.25 -7.28125 C 9.988281 -7.28125 10.554688 -7.019531 10.953125 -6.5 C 11.355469 -5.976562 11.5625 -5.242188 11.5625 -4.296875 L 11.5625 0 L 10.390625 0 L 10.390625 -4.25 C 10.390625 -4.933594 10.261719 -5.441406 10.015625 -5.765625 C 9.773438 -6.097656 9.410156 -6.265625 8.921875 -6.265625 C 8.316406 -6.265625 7.835938 -6.058594 7.484375 -5.65625 C 7.128906 -5.257812 6.953125 -4.710938 6.953125 -4.015625 L 6.953125 0 L 5.78125 0 L 5.78125 -4.25 C 5.78125 -4.933594 5.660156 -5.441406 5.421875 -5.765625 C 5.179688 -6.097656 4.804688 -6.265625 4.296875 -6.265625 C 3.703125 -6.265625 3.226562 -6.058594 2.875 -5.65625 C 2.53125 -5.25 2.359375 -4.699219 2.359375 -4.015625 L 2.359375 0 L 1.1875 0 L 1.1875 -7.109375 L 2.359375 -7.109375 L 2.359375 -6 C 2.617188 -6.433594 2.9375 -6.757812 3.3125 -6.96875 C 3.683594 -7.175781 4.128906 -7.28125 4.640625 -7.28125 C 5.160156 -7.28125 5.597656 -7.148438 5.953125 -6.890625 C 6.316406 -6.628906 6.585938 -6.246094 6.765625 -5.75 Z M 6.765625 -5.75 "/>
</symbol>
<symbol overflow="visible" id="glyph2-17">
<path style="stroke:none;" d="M 1.21875 -9.875 L 2.390625 -9.875 L 2.390625 0 L 1.21875 0 Z M 1.21875 -9.875 "/>
</symbol>
<symbol overflow="visible" id="glyph2-18">
<path style="stroke:none;" d="M 4.4375 -8.21875 L 2.703125 -3.5 L 6.1875 -3.5 Z M 3.71875 -9.484375 L 5.171875 -9.484375 L 8.78125 0 L 7.453125 0 L 6.59375 -2.4375 L 2.3125 -2.4375 L 1.453125 0 L 0.109375 0 Z M 3.71875 -9.484375 "/>
</symbol>
<symbol overflow="visible" id="glyph2-19">
<path style="stroke:none;" d="M 1.21875 -7.109375 L 2.390625 -7.109375 L 2.390625 0.125 C 2.390625 1.027344 2.214844 1.6875 1.875 2.09375 C 1.53125 2.496094 0.972656 2.703125 0.203125 2.703125 L -0.234375 2.703125 L -0.234375 1.71875 L 0.078125 1.71875 C 0.523438 1.71875 0.828125 1.613281 0.984375 1.40625 C 1.136719 1.195312 1.21875 0.769531 1.21875 0.125 Z M 1.21875 -9.875 L 2.390625 -9.875 L 2.390625 -8.390625 L 1.21875 -8.390625 Z M 1.21875 -9.875 "/>
</symbol>
<symbol overflow="visible" id="glyph2-20">
<path style="stroke:none;" d="M 1.109375 -2.8125 L 1.109375 -7.109375 L 2.265625 -7.109375 L 2.265625 -2.84375 C 2.265625 -2.175781 2.394531 -1.667969 2.65625 -1.328125 C 2.925781 -0.992188 3.320312 -0.828125 3.84375 -0.828125 C 4.476562 -0.828125 4.976562 -1.023438 5.34375 -1.421875 C 5.707031 -1.824219 5.890625 -2.378906 5.890625 -3.078125 L 5.890625 -7.109375 L 7.0625 -7.109375 L 7.0625 0 L 5.890625 0 L 5.890625 -1.09375 C 5.609375 -0.65625 5.277344 -0.332031 4.90625 -0.125 C 4.53125 0.0820312 4.089844 0.1875 3.59375 0.1875 C 2.78125 0.1875 2.160156 -0.0664062 1.734375 -0.578125 C 1.316406 -1.085938 1.109375 -1.832031 1.109375 -2.8125 Z M 4.046875 -7.28125 Z M 4.046875 -7.28125 "/>
</symbol>
<symbol overflow="visible" id="glyph2-21">
<path style="stroke:none;" d="M 2.5625 -8.421875 L 2.5625 -1.046875 L 4.109375 -1.046875 C 5.410156 -1.046875 6.363281 -1.34375 6.96875 -1.9375 C 7.582031 -2.527344 7.890625 -3.46875 7.890625 -4.75 C 7.890625 -6.019531 7.582031 -6.945312 6.96875 -7.53125 C 6.363281 -8.121094 5.410156 -8.421875 4.109375 -8.421875 Z M 1.28125 -9.484375 L 3.90625 -9.484375 C 5.746094 -9.484375 7.097656 -9.097656 7.953125 -8.328125 C 8.816406 -7.566406 9.25 -6.371094 9.25 -4.75 C 9.25 -3.113281 8.816406 -1.910156 7.953125 -1.140625 C 7.085938 -0.378906 5.738281 0 3.90625 0 L 1.28125 0 Z M 1.28125 -9.484375 "/>
</symbol>
<symbol overflow="visible" id="glyph2-22">
<path style="stroke:none;" d="M 5.90625 -3.640625 C 5.90625 -4.480469 5.726562 -5.132812 5.375 -5.59375 C 5.03125 -6.058594 4.539062 -6.296875 3.90625 -6.296875 C 3.28125 -6.296875 2.789062 -6.058594 2.4375 -5.59375 C 2.09375 -5.132812 1.921875 -4.480469 1.921875 -3.640625 C 1.921875 -2.796875 2.09375 -2.136719 2.4375 -1.671875 C 2.789062 -1.210938 3.28125 -0.984375 3.90625 -0.984375 C 4.539062 -0.984375 5.03125 -1.210938 5.375 -1.671875 C 5.726562 -2.136719 5.90625 -2.796875 5.90625 -3.640625 Z M 7.078125 -0.875 C 7.078125 0.332031 6.804688 1.226562 6.265625 1.8125 C 5.722656 2.402344 4.898438 2.703125 3.796875 2.703125 C 3.390625 2.703125 3.003906 2.667969 2.640625 2.609375 C 2.273438 2.546875 1.917969 2.449219 1.578125 2.328125 L 1.578125 1.1875 C 1.917969 1.371094 2.257812 1.507812 2.59375 1.59375 C 2.925781 1.683594 3.265625 1.734375 3.609375 1.734375 C 4.378906 1.734375 4.953125 1.535156 5.328125 1.140625 C 5.710938 0.742188 5.90625 0.136719 5.90625 -0.671875 L 5.90625 -1.25 C 5.664062 -0.832031 5.351562 -0.519531 4.96875 -0.3125 C 4.59375 -0.101562 4.144531 0 3.625 0 C 2.75 0 2.042969 -0.332031 1.515625 -1 C 0.984375 -1.664062 0.71875 -2.546875 0.71875 -3.640625 C 0.71875 -4.730469 0.984375 -5.613281 1.515625 -6.28125 C 2.042969 -6.945312 2.75 -7.28125 3.625 -7.28125 C 4.144531 -7.28125 4.59375 -7.175781 4.96875 -6.96875 C 5.351562 -6.757812 5.664062 -6.445312 5.90625 -6.03125 L 5.90625 -7.109375 L 7.078125 -7.109375 Z M 7.078125 -0.875 "/>
</symbol>
<symbol overflow="visible" id="glyph2-23">
<path style="stroke:none;" d="M 1.21875 -7.109375 L 2.390625 -7.109375 L 2.390625 0 L 1.21875 0 Z M 1.21875 -9.875 L 2.390625 -9.875 L 2.390625 -8.390625 L 1.21875 -8.390625 Z M 1.21875 -9.875 "/>
</symbol>
<symbol overflow="visible" id="glyph2-24">
<path style="stroke:none;" d="M 6.953125 -9.171875 L 6.953125 -7.921875 C 6.472656 -8.148438 6.011719 -8.320312 5.578125 -8.4375 C 5.148438 -8.550781 4.730469 -8.609375 4.328125 -8.609375 C 3.628906 -8.609375 3.085938 -8.472656 2.703125 -8.203125 C 2.328125 -7.929688 2.140625 -7.542969 2.140625 -7.046875 C 2.140625 -6.628906 2.265625 -6.308594 2.515625 -6.09375 C 2.773438 -5.882812 3.253906 -5.710938 3.953125 -5.578125 L 4.734375 -5.421875 C 5.679688 -5.234375 6.382812 -4.910156 6.84375 -4.453125 C 7.300781 -3.992188 7.53125 -3.378906 7.53125 -2.609375 C 7.53125 -1.691406 7.222656 -0.992188 6.609375 -0.515625 C 5.992188 -0.046875 5.085938 0.1875 3.890625 0.1875 C 3.441406 0.1875 2.960938 0.132812 2.453125 0.03125 C 1.953125 -0.0703125 1.429688 -0.222656 0.890625 -0.421875 L 0.890625 -1.734375 C 1.410156 -1.441406 1.921875 -1.222656 2.421875 -1.078125 C 2.917969 -0.929688 3.410156 -0.859375 3.890625 -0.859375 C 4.628906 -0.859375 5.195312 -1 5.59375 -1.28125 C 5.988281 -1.570312 6.1875 -1.984375 6.1875 -2.515625 C 6.1875 -2.980469 6.039062 -3.347656 5.75 -3.609375 C 5.46875 -3.867188 5.003906 -4.066406 4.359375 -4.203125 L 3.578125 -4.359375 C 2.617188 -4.542969 1.925781 -4.84375 1.5 -5.25 C 1.070312 -5.652344 0.859375 -6.21875 0.859375 -6.9375 C 0.859375 -7.777344 1.148438 -8.441406 1.734375 -8.921875 C 2.324219 -9.410156 3.144531 -9.65625 4.1875 -9.65625 C 4.621094 -9.65625 5.070312 -9.613281 5.53125 -9.53125 C 5.996094 -9.445312 6.472656 -9.324219 6.953125 -9.171875 Z M 6.953125 -9.171875 "/>
</symbol>
</g>
</defs>
<g id="surface153922">
<rect x="0" y="0" width="707" height="425" style="fill:rgb(100%,100%,100%);fill-opacity:1;stroke:none;"/>
<path style="fill-rule:evenodd;fill:rgb(100%,100%,100%);fill-opacity:1;stroke-width:0.1;stroke-linecap:butt;stroke-linejoin:miter;stroke:rgb(0%,0%,0%);stroke-opacity:1;stroke-miterlimit:10;" d="M 2.499921 0.5 L 4.387421 0.5 L 4.387421 1.9 L 2.499921 1.9 Z M 2.499921 0.5 " transform="matrix(20,0,0,20,-19.982791,101)"/>
<g style="fill:rgb(0%,0%,0%);fill-opacity:1;">
  <use xlink:href="#glyph0-1" x="34.984375" y="130.007867"/>
  <use xlink:href="#glyph0-1" x="40.554579" y="130.007867"/>
  <use xlink:href="#glyph0-1" x="46.124783" y="130.007867"/>
  <use xlink:href="#glyph0-1" x="51.694987" y="130.007867"/>
  <use xlink:href="#glyph0-1" x="57.265191" y="130.007867"/>
</g>
<path style="fill-rule:evenodd;fill:rgb(100%,100%,100%);fill-opacity:1;stroke-width:0.1;stroke-linecap:butt;stroke-linejoin:miter;stroke:rgb(0%,0%,0%);stroke-opacity:1;stroke-miterlimit:10;" d="M 2.499921 1.9 L 4.387421 1.9 L 4.387421 2.3 L 2.499921 2.3 Z M 2.499921 1.9 " transform="matrix(20,0,0,20,-19.982791,101)"/>
<path style="fill-rule:evenodd;fill:rgb(100%,100%,100%);fill-opacity:1;stroke-width:0.1;stroke-linecap:butt;stroke-linejoin:miter;stroke:rgb(0%,0%,0%);stroke-opacity:1;stroke-miterlimit:10;" d="M 2.499921 2.3 L 4.387421 2.3 L 4.387421 2.7 L 2.499921 2.7 Z M 2.499921 2.3 " transform="matrix(20,0,0,20,-19.982791,101)"/>
<path style="fill-rule:evenodd;fill:rgb(100%,100%,100%);fill-opacity:1;stroke-width:0.1;stroke-linecap:butt;stroke-linejoin:miter;stroke:rgb(0%,0%,0%);stroke-opacity:1;stroke-miterlimit:10;" d="M 2.499921 5.5 L 4.387421 5.5 L 4.387421 6.9 L 2.499921 6.9 Z M 2.499921 5.5 " transform="matrix(20,0,0,20,-19.982791,101)"/>
<g style="fill:rgb(0%,0%,0%);fill-opacity:1;">
  <use xlink:href="#glyph0-1" x="34.984375" y="230.007867"/>
  <use xlink:href="#glyph0-1" x="40.554579" y="230.007867"/>
  <use xlink:href="#glyph0-1" x="46.124783" y="230.007867"/>
  <use xlink:href="#glyph0-1" x="51.694987" y="230.007867"/>
  <use xlink:href="#glyph0-1" x="57.265191" y="230.007867"/>
</g>
<path style="fill-rule:evenodd;fill:rgb(100%,100%,100%);fill-opacity:1;stroke-width:0.1;stroke-linecap:butt;stroke-linejoin:miter;stroke:rgb(0%,0%,0%);stroke-opacity:1;stroke-miterlimit:10;" d="M 2.499921 6.9 L 4.387421 6.9 L 4.387421 7.3 L 2.499921 7.3 Z M 2.499921 6.9 " transform="matrix(20,0,0,20,-19.982791,101)"/>
<path style="fill-rule:evenodd;fill:rgb(100%,100%,100%);fill-opacity:1;stroke-width:0.1;stroke-linecap:butt;stroke-linejoin:miter;stroke:rgb(0%,0%,0%);stroke-opacity:1;stroke-miterlimit:10;" d="M 2.499921 7.3 L 4.387421 7.3 L 4.387421 7.7 L 2.499921 7.7 Z M 2.499921 7.3 " transform="matrix(20,0,0,20,-19.982791,101)"/>
<path style="fill-rule:evenodd;fill:rgb(100%,100%,100%);fill-opacity:1;stroke-width:0.1;stroke-linecap:butt;stroke-linejoin:miter;stroke:rgb(0%,0%,0%);stroke-opacity:1;stroke-miterlimit:10;" d="M 29.999921 -2.5 L 31.887421 -2.5 L 31.887421 -1.1 L 29.999921 -1.1 Z M 29.999921 -2.5 " transform="matrix(20,0,0,20,-19.982791,101)"/>
<g style="fill:rgb(0%,0%,0%);fill-opacity:1;">
  <use xlink:href="#glyph0-1" x="584.984375" y="70.007867"/>
  <use xlink:href="#glyph0-1" x="590.554579" y="70.007867"/>
  <use xlink:href="#glyph0-1" x="596.124783" y="70.007867"/>
  <use xlink:href="#glyph0-1" x="601.694987" y="70.007867"/>
  <use xlink:href="#glyph0-1" x="607.265191" y="70.007867"/>
</g>
<path style="fill-rule:evenodd;fill:rgb(100%,100%,100%);fill-opacity:1;stroke-width:0.1;stroke-linecap:butt;stroke-linejoin:miter;stroke:rgb(0%,0%,0%);stroke-opacity:1;stroke-miterlimit:10;" d="M 29.999921 -1.1 L 31.887421 -1.1 L 31.887421 -0.7 L 29.999921 -0.7 Z M 29.999921 -1.1 " transform="matrix(20,0,0,20,-19.982791,101)"/>
<path style="fill-rule:evenodd;fill:rgb(100%,100%,100%);fill-opacity:1;stroke-width:0.1;stroke-linecap:butt;stroke-linejoin:miter;stroke:rgb(0%,0%,0%);stroke-opacity:1;stroke-miterlimit:10;" d="M 29.999921 -0.7 L 31.887421 -0.7 L 31.887421 -0.3 L 29.999921 -0.3 Z M 29.999921 -0.7 " transform="matrix(20,0,0,20,-19.982791,101)"/>
<path style="fill-rule:evenodd;fill:rgb(100%,100%,100%);fill-opacity:1;stroke-width:0.1;stroke-linecap:butt;stroke-linejoin:miter;stroke:rgb(0%,0%,0%);stroke-opacity:1;stroke-miterlimit:10;" d="M 29.999921 2.5 L 31.887421 2.5 L 31.887421 3.9 L 29.999921 3.9 Z M 29.999921 2.5 " transform="matrix(20,0,0,20,-19.982791,101)"/>
<g style="fill:rgb(0%,0%,0%);fill-opacity:1;">
  <use xlink:href="#glyph0-1" x="584.984375" y="170.007867"/>
  <use xlink:href="#glyph0-1" x="590.554579" y="170.007867"/>
  <use xlink:href="#glyph0-1" x="596.124783" y="170.007867"/>
  <use xlink:href="#glyph0-1" x="601.694987" y="170.007867"/>
  <use xlink:href="#glyph0-1" x="607.265191" y="170.007867"/>
</g>
<path style="fill-rule:evenodd;fill:rgb(100%,100%,100%);fill-opacity:1;stroke-width:0.1;stroke-linecap:butt;stroke-linejoin:miter;stroke:rgb(0%,0%,0%);stroke-opacity:1;stroke-miterlimit:10;" d="M 29.999921 3.9 L 31.887421 3.9 L 31.887421 4.3 L 29.999921 4.3 Z M 29.999921 3.9 " transform="matrix(20,0,0,20,-19.982791,101)"/>
<path style="fill-rule:evenodd;fill:rgb(100%,100%,100%);fill-opacity:1;stroke-width:0.1;stroke-linecap:butt;stroke-linejoin:miter;stroke:rgb(0%,0%,0%);stroke-opacity:1;stroke-miterlimit:10;" d="M 29.999921 4.3 L 31.887421 4.3 L 31.887421 4.7 L 29.999921 4.7 Z M 29.999921 4.3 " transform="matrix(20,0,0,20,-19.982791,101)"/>
<path style="fill-rule:evenodd;fill:rgb(100%,100%,100%);fill-opacity:1;stroke-width:0.1;stroke-linecap:butt;stroke-linejoin:miter;stroke:rgb(0%,0%,0%);stroke-opacity:1;stroke-miterlimit:10;" d="M 29.999921 7.5 L 31.887421 7.5 L 31.887421 8.9 L 29.999921 8.9 Z M 29.999921 7.5 " transform="matrix(20,0,0,20,-19.982791,101)"/>
<g style="fill:rgb(0%,0%,0%);fill-opacity:1;">
  <use xlink:href="#glyph0-1" x="584.984375" y="270.007867"/>
  <use xlink:href="#glyph0-1" x="590.554579" y="270.007867"/>
  <use xlink:href="#glyph0-1" x="596.124783" y="270.007867"/>
  <use xlink:href="#glyph0-1" x="601.694987" y="270.007867"/>
  <use xlink:href="#glyph0-1" x="607.265191" y="270.007867"/>
</g>
<path style="fill-rule:evenodd;fill:rgb(100%,100%,100%);fill-opacity:1;stroke-width:0.1;stroke-linecap:butt;stroke-linejoin:miter;stroke:rgb(0%,0%,0%);stroke-opacity:1;stroke-miterlimit:10;" d="M 29.999921 8.9 L 31.887421 8.9 L 31.887421 9.3 L 29.999921 9.3 Z M 29.999921 8.9 " transform="matrix(20,0,0,20,-19.982791,101)"/>
<path style="fill-rule:evenodd;fill:rgb(100%,100%,100%);fill-opacity:1;stroke-width:0.1;stroke-linecap:butt;stroke-linejoin:miter;stroke:rgb(0%,0%,0%);stroke-opacity:1;stroke-miterlimit:10;" d="M 29.999921 9.3 L 31.887421 9.3 L 31.887421 9.7 L 29.999921 9.7 Z M 29.999921 9.3 " transform="matrix(20,0,0,20,-19.982791,101)"/>
<path style="fill-rule:evenodd;fill:rgb(100%,100%,100%);fill-opacity:1;stroke-width:0.1;stroke-linecap:butt;stroke-linejoin:miter;stroke:rgb(0%,0%,0%);stroke-opacity:1;stroke-miterlimit:10;" d="M 2.499921 12.5 L 4.387421 12.5 L 4.387421 13.9 L 2.499921 13.9 Z M 2.499921 12.5 " transform="matrix(20,0,0,20,-19.982791,101)"/>
<g style="fill:rgb(0%,0%,0%);fill-opacity:1;">
  <use xlink:href="#glyph0-1" x="34.984375" y="370.007867"/>
  <use xlink:href="#glyph0-1" x="40.554579" y="370.007867"/>
  <use xlink:href="#glyph0-1" x="46.124783" y="370.007867"/>
  <use xlink:href="#glyph0-1" x="51.694987" y="370.007867"/>
  <use xlink:href="#glyph0-1" x="57.265191" y="370.007867"/>
</g>
<path style="fill-rule:evenodd;fill:rgb(100%,100%,100%);fill-opacity:1;stroke-width:0.1;stroke-linecap:butt;stroke-linejoin:miter;stroke:rgb(0%,0%,0%);stroke-opacity:1;stroke-miterlimit:10;" d="M 2.499921 13.9 L 4.387421 13.9 L 4.387421 14.3 L 2.499921 14.3 Z M 2.499921 13.9 " transform="matrix(20,0,0,20,-19.982791,101)"/>
<path style="fill-rule:evenodd;fill:rgb(100%,100%,100%);fill-opacity:1;stroke-width:0.1;stroke-linecap:butt;stroke-linejoin:miter;stroke:rgb(0%,0%,0%);stroke-opacity:1;stroke-miterlimit:10;" d="M 2.499921 14.3 L 4.387421 14.3 L 4.387421 14.7 L 2.499921 14.7 Z M 2.499921 14.3 " transform="matrix(20,0,0,20,-19.982791,101)"/>
<path style="fill-rule:evenodd;fill:rgb(100%,100%,100%);fill-opacity:1;stroke-width:0.1;stroke-linecap:butt;stroke-linejoin:miter;stroke:rgb(0%,0%,0%);stroke-opacity:1;stroke-miterlimit:10;" d="M 12.999921 12.5 L 14.887421 12.5 L 14.887421 13.9 L 12.999921 13.9 Z M 12.999921 12.5 " transform="matrix(20,0,0,20,-19.982791,101)"/>
<g style="fill:rgb(0%,0%,0%);fill-opacity:1;">
  <use xlink:href="#glyph0-1" x="244.984375" y="370.007867"/>
  <use xlink:href="#glyph0-1" x="250.554579" y="370.007867"/>
  <use xlink:href="#glyph0-1" x="256.124783" y="370.007867"/>
  <use xlink:href="#glyph0-1" x="261.694987" y="370.007867"/>
  <use xlink:href="#glyph0-1" x="267.265191" y="370.007867"/>
</g>
<path style="fill-rule:evenodd;fill:rgb(100%,100%,100%);fill-opacity:1;stroke-width:0.1;stroke-linecap:butt;stroke-linejoin:miter;stroke:rgb(0%,0%,0%);stroke-opacity:1;stroke-miterlimit:10;" d="M 12.999921 13.9 L 14.887421 13.9 L 14.887421 14.3 L 12.999921 14.3 Z M 12.999921 13.9 " transform="matrix(20,0,0,20,-19.982791,101)"/>
<path style="fill-rule:evenodd;fill:rgb(100%,100%,100%);fill-opacity:1;stroke-width:0.1;stroke-linecap:butt;stroke-linejoin:miter;stroke:rgb(0%,0%,0%);stroke-opacity:1;stroke-miterlimit:10;" d="M 12.999921 14.3 L 14.887421 14.3 L 14.887421 14.7 L 12.999921 14.7 Z M 12.999921 14.3 " transform="matrix(20,0,0,20,-19.982791,101)"/>
<path style="fill-rule:evenodd;fill:rgb(100%,100%,100%);fill-opacity:1;stroke-width:0.1;stroke-linecap:butt;stroke-linejoin:miter;stroke:rgb(0%,0%,0%);stroke-opacity:1;stroke-miterlimit:10;" d="M 22.999921 12.5 L 24.887421 12.5 L 24.887421 13.9 L 22.999921 13.9 Z M 22.999921 12.5 " transform="matrix(20,0,0,20,-19.982791,101)"/>
<g style="fill:rgb(0%,0%,0%);fill-opacity:1;">
  <use xlink:href="#glyph0-1" x="444.984375" y="370.007867"/>
  <use xlink:href="#glyph0-1" x="450.554579" y="370.007867"/>
  <use xlink:href="#glyph0-1" x="456.124783" y="370.007867"/>
  <use xlink:href="#glyph0-1" x="461.694987" y="370.007867"/>
  <use xlink:href="#glyph0-1" x="467.265191" y="370.007867"/>
</g>
<path style="fill-rule:evenodd;fill:rgb(100%,100%,100%);fill-opacity:1;stroke-width:0.1;stroke-linecap:butt;stroke-linejoin:miter;stroke:rgb(0%,0%,0%);stroke-opacity:1;stroke-miterlimit:10;" d="M 22.999921 13.9 L 24.887421 13.9 L 24.887421 14.3 L 22.999921 14.3 Z M 22.999921 13.9 " transform="matrix(20,0,0,20,-19.982791,101)"/>
<path style="fill-rule:evenodd;fill:rgb(100%,100%,100%);fill-opacity:1;stroke-width:0.1;stroke-linecap:butt;stroke-linejoin:miter;stroke:rgb(0%,0%,0%);stroke-opacity:1;stroke-miterlimit:10;" d="M 22.999921 14.3 L 24.887421 14.3 L 24.887421 14.7 L 22.999921 14.7 Z M 22.999921 14.3 " transform="matrix(20,0,0,20,-19.982791,101)"/>
<path style="fill-rule:evenodd;fill:rgb(100%,100%,100%);fill-opacity:1;stroke-width:0.1;stroke-linecap:butt;stroke-linejoin:miter;stroke:rgb(0%,0%,0%);stroke-opacity:1;stroke-miterlimit:10;" d="M 15.999921 0.5 L 22.659882 0.5 L 22.659882 1.9 L 15.999921 1.9 Z M 15.999921 0.5 " transform="matrix(20,0,0,20,-19.982791,101)"/>
<path style="fill-rule:evenodd;fill:rgb(100%,100%,100%);fill-opacity:1;stroke-width:0.1;stroke-linecap:butt;stroke-linejoin:miter;stroke:rgb(0%,0%,0%);stroke-opacity:1;stroke-miterlimit:10;" d="M 15.999921 1.9 L 22.659882 1.9 L 22.659882 5.3 L 15.999921 5.3 Z M 15.999921 1.9 " transform="matrix(20,0,0,20,-19.982791,101)"/>
<g style="fill:rgb(0%,0%,0%);fill-opacity:1;">
  <use xlink:href="#glyph1-1" x="303.015625" y="153.005968"/>
  <use xlink:href="#glyph1-2" x="310.842231" y="153.005968"/>
  <use xlink:href="#glyph1-3" x="318.668837" y="153.005968"/>
  <use xlink:href="#glyph1-4" x="326.495443" y="153.005968"/>
  <use xlink:href="#glyph1-5" x="334.322049" y="153.005968"/>
  <use xlink:href="#glyph1-3" x="342.148655" y="153.005968"/>
  <use xlink:href="#glyph1-6" x="349.97526" y="153.005968"/>
  <use xlink:href="#glyph1-7" x="357.801866" y="153.005968"/>
  <use xlink:href="#glyph1-7" x="365.628472" y="153.005968"/>
  <use xlink:href="#glyph1-7" x="373.455078" y="153.005968"/>
  <use xlink:href="#glyph1-7" x="381.281684" y="153.005968"/>
  <use xlink:href="#glyph1-7" x="389.10829" y="153.005968"/>
  <use xlink:href="#glyph1-7" x="396.934896" y="153.005968"/>
  <use xlink:href="#glyph1-7" x="404.761502" y="153.005968"/>
  <use xlink:href="#glyph1-7" x="412.588108" y="153.005968"/>
  <use xlink:href="#glyph1-7" x="420.414714" y="153.005968"/>
</g>
<g style="fill:rgb(0%,0%,0%);fill-opacity:1;">
  <use xlink:href="#glyph1-1" x="303.015625" y="169.005968"/>
  <use xlink:href="#glyph1-8" x="310.842231" y="169.005968"/>
  <use xlink:href="#glyph1-3" x="318.668837" y="169.005968"/>
  <use xlink:href="#glyph1-5" x="326.495443" y="169.005968"/>
  <use xlink:href="#glyph1-9" x="334.322049" y="169.005968"/>
  <use xlink:href="#glyph1-10" x="342.148655" y="169.005968"/>
  <use xlink:href="#glyph1-11" x="349.97526" y="169.005968"/>
  <use xlink:href="#glyph1-12" x="357.801866" y="169.005968"/>
  <use xlink:href="#glyph1-13" x="365.628472" y="169.005968"/>
  <use xlink:href="#glyph1-3" x="373.455078" y="169.005968"/>
  <use xlink:href="#glyph1-7" x="381.281684" y="169.005968"/>
  <use xlink:href="#glyph1-7" x="389.10829" y="169.005968"/>
  <use xlink:href="#glyph1-7" x="396.934896" y="169.005968"/>
  <use xlink:href="#glyph1-7" x="404.761502" y="169.005968"/>
  <use xlink:href="#glyph1-7" x="412.588108" y="169.005968"/>
  <use xlink:href="#glyph1-7" x="420.414714" y="169.005968"/>
</g>
<g style="fill:rgb(0%,0%,0%);fill-opacity:1;">
  <use xlink:href="#glyph1-1" x="303.015625" y="185.005968"/>
  <use xlink:href="#glyph1-14" x="310.842231" y="185.005968"/>
  <use xlink:href="#glyph1-9" x="318.668837" y="185.005968"/>
  <use xlink:href="#glyph1-6" x="326.495443" y="185.005968"/>
  <use xlink:href="#glyph1-8" x="334.322049" y="185.005968"/>
  <use xlink:href="#glyph1-15" x="342.148655" y="185.005968"/>
  <use xlink:href="#glyph1-13" x="349.97526" y="185.005968"/>
  <use xlink:href="#glyph1-16" x="357.801866" y="185.005968"/>
  <use xlink:href="#glyph1-14" x="365.628472" y="185.005968"/>
  <use xlink:href="#glyph1-13" x="373.455078" y="185.005968"/>
  <use xlink:href="#glyph1-8" x="381.281684" y="185.005968"/>
  <use xlink:href="#glyph1-3" x="389.10829" y="185.005968"/>
  <use xlink:href="#glyph1-4" x="396.934896" y="185.005968"/>
  <use xlink:href="#glyph1-7" x="404.761502" y="185.005968"/>
  <use xlink:href="#glyph1-7" x="412.588108" y="185.005968"/>
  <use xlink:href="#glyph1-7" x="420.414714" y="185.005968"/>
</g>
<g style="fill:rgb(0%,0%,0%);fill-opacity:1;">
  <use xlink:href="#glyph1-1" x="303.015625" y="201.005968"/>
  <use xlink:href="#glyph1-17" x="310.842231" y="201.005968"/>
  <use xlink:href="#glyph1-11" x="318.668837" y="201.005968"/>
  <use xlink:href="#glyph1-16" x="326.495443" y="201.005968"/>
  <use xlink:href="#glyph1-11" x="334.322049" y="201.005968"/>
  <use xlink:href="#glyph1-18" x="342.148655" y="201.005968"/>
  <use xlink:href="#glyph1-12" x="349.97526" y="201.005968"/>
  <use xlink:href="#glyph1-9" x="357.801866" y="201.005968"/>
  <use xlink:href="#glyph1-6" x="365.628472" y="201.005968"/>
  <use xlink:href="#glyph1-9" x="373.455078" y="201.005968"/>
  <use xlink:href="#glyph1-16" x="381.281684" y="201.005968"/>
  <use xlink:href="#glyph1-5" x="389.10829" y="201.005968"/>
  <use xlink:href="#glyph1-13" x="396.934896" y="201.005968"/>
  <use xlink:href="#glyph1-6" x="404.761502" y="201.005968"/>
  <use xlink:href="#glyph1-19" x="412.588108" y="201.005968"/>
  <use xlink:href="#glyph1-11" x="420.414714" y="201.005968"/>
</g>
<path style="fill-rule:evenodd;fill:rgb(100%,100%,100%);fill-opacity:1;stroke-width:0.1;stroke-linecap:butt;stroke-linejoin:miter;stroke:rgb(0%,0%,0%);stroke-opacity:1;stroke-miterlimit:10;" d="M 15.999921 5.3 L 22.659882 5.3 L 22.659882 5.7 L 15.999921 5.7 Z M 15.999921 5.3 " transform="matrix(20,0,0,20,-19.982791,101)"/>
<path style="fill:none;stroke-width:0.1;stroke-linecap:butt;stroke-linejoin:miter;stroke:rgb(0%,0%,0%);stroke-opacity:1;stroke-miterlimit:10;" d="M 15.999921 3.2 C 12.434686 1.895898 8.670429 1.218945 4.874335 1.199023 " transform="matrix(20,0,0,20,-19.982791,101)"/>
<path style="fill:none;stroke-width:0.1;stroke-linecap:butt;stroke-linejoin:miter;stroke:rgb(0%,0%,0%);stroke-opacity:1;stroke-miterlimit:10;" d="M 4.499335 1.199023 L 4.996991 0.944141 L 4.874335 1.195313 L 5.001679 1.444141 Z M 4.499335 1.199023 " transform="matrix(20,0,0,20,-19.982791,101)"/>
<path style="fill:none;stroke-width:0.1;stroke-linecap:butt;stroke-linejoin:miter;stroke:rgb(0%,0%,0%);stroke-opacity:1;stroke-miterlimit:10;" d="M 29.514765 3.163672 C 27.197772 3.020117 24.874335 3.303711 22.660077 4 " transform="matrix(20,0,0,20,-19.982791,101)"/>
<path style="fill:none;stroke-width:0.1;stroke-linecap:butt;stroke-linejoin:miter;stroke:rgb(0%,0%,0%);stroke-opacity:1;stroke-miterlimit:10;" d="M 29.888593 3.190234 L 29.368671 3.395508 L 29.515155 3.157422 L 29.412421 2.897461 Z M 29.888593 3.190234 " transform="matrix(20,0,0,20,-19.982791,101)"/>
<path style="fill:none;stroke-width:0.1;stroke-linecap:butt;stroke-linejoin:miter;stroke:rgb(0%,0%,0%);stroke-opacity:1;stroke-miterlimit:10;" d="M 15.999921 4.8 C 11.630194 6.153516 7.720624 8.691016 4.704804 12.130859 " transform="matrix(20,0,0,20,-19.982791,101)"/>
<path style="fill:none;stroke-width:0.1;stroke-linecap:butt;stroke-linejoin:miter;stroke:rgb(0%,0%,0%);stroke-opacity:1;stroke-miterlimit:10;" d="M 4.459491 12.414453 L 4.590546 11.871094 L 4.701093 12.127734 L 4.972968 12.193164 Z M 4.459491 12.414453 " transform="matrix(20,0,0,20,-19.982791,101)"/>
<path style="fill-rule:evenodd;fill:rgb(100%,100%,100%);fill-opacity:1;stroke-width:0.1;stroke-linecap:butt;stroke-linejoin:miter;stroke:rgb(0%,0%,0%);stroke-opacity:1;stroke-miterlimit:10;" d="M 21.499921 -5 L 22.557343 -5 L 22.557343 -3.6 L 21.499921 -3.6 Z M 21.499921 -5 " transform="matrix(20,0,0,20,-19.982791,101)"/>
<g style="fill:rgb(0%,0%,0%);fill-opacity:1;">
  <use xlink:href="#glyph0-2" x="415.027344" y="20.007867"/>
</g>
<path style="fill-rule:evenodd;fill:rgb(100%,100%,100%);fill-opacity:1;stroke-width:0.1;stroke-linecap:butt;stroke-linejoin:miter;stroke:rgb(0%,0%,0%);stroke-opacity:1;stroke-miterlimit:10;" d="M 21.499921 -3.6 L 22.557343 -3.6 L 22.557343 -3.2 L 21.499921 -3.2 Z M 21.499921 -3.6 " transform="matrix(20,0,0,20,-19.982791,101)"/>
<path style="fill-rule:evenodd;fill:rgb(100%,100%,100%);fill-opacity:1;stroke-width:0.1;stroke-linecap:butt;stroke-linejoin:miter;stroke:rgb(0%,0%,0%);stroke-opacity:1;stroke-miterlimit:10;" d="M 21.499921 -3.2 L 22.557343 -3.2 L 22.557343 -2.8 L 21.499921 -2.8 Z M 21.499921 -3.2 " transform="matrix(20,0,0,20,-19.982791,101)"/>
<path style="fill:none;stroke-width:0.1;stroke-linecap:butt;stroke-linejoin:miter;stroke:rgb(0%,0%,0%);stroke-opacity:1;stroke-miterlimit:10;" d="M 22.660077 2.4 C 23.949921 0.516992 24.01535 -1.947461 22.827265 -3.896289 " transform="matrix(20,0,0,20,-19.982791,101)"/>
<path style="fill:none;stroke-width:0.1;stroke-linecap:butt;stroke-linejoin:miter;stroke:rgb(0%,0%,0%);stroke-opacity:1;stroke-miterlimit:10;" d="M 22.623554 -4.209766 L 23.120429 -3.953516 L 22.844843 -3.907031 L 22.716718 -3.658594 Z M 22.623554 -4.209766 " transform="matrix(20,0,0,20,-19.982791,101)"/>
<path style="fill:none;stroke-width:0.1;stroke-linecap:butt;stroke-linejoin:miter;stroke:rgb(0%,0%,0%);stroke-opacity:1;stroke-miterlimit:10;" d="M 15.499921 -0.421094 C 15.060468 -0.361133 14.738593 0.0232422 14.756952 0.466602 C 14.775507 0.909766 15.128046 1.266211 15.57121 1.289453 " transform="matrix(20,0,0,20,-19.982791,101)"/>
<path style="fill:none;stroke-width:0.1;stroke-linecap:butt;stroke-linejoin:miter;stroke:rgb(0%,0%,0%);stroke-opacity:1;stroke-miterlimit:10;" d="M 15.899921 1.25 L 15.564374 1.696875 L 15.564374 1.417383 L 15.340936 1.249609 Z M 15.899921 1.25 " transform="matrix(20,0,0,20,-19.982791,101)"/>
<path style="fill:none;stroke-width:0.1;stroke-linecap:butt;stroke-linejoin:miter;stroke:rgb(0%,0%,0%);stroke-opacity:1;stroke-miterlimit:10;" d="M 1.999921 -0.421094 C 1.560468 -0.361133 1.238593 0.0232422 1.256952 0.466602 C 1.275507 0.909766 1.628046 1.266211 2.07121 1.289453 " transform="matrix(20,0,0,20,-19.982791,101)"/>
<path style="fill:none;stroke-width:0.1;stroke-linecap:butt;stroke-linejoin:miter;stroke:rgb(0%,0%,0%);stroke-opacity:1;stroke-miterlimit:10;" d="M 2.399921 1.25 L 2.064374 1.696875 L 2.064374 1.417383 L 1.840936 1.249609 Z M 2.399921 1.25 " transform="matrix(20,0,0,20,-19.982791,101)"/>
<path style="fill:none;stroke-width:0.1;stroke-linecap:butt;stroke-linejoin:miter;stroke:rgb(100%,100%,100%);stroke-opacity:1;stroke-miterlimit:10;" d="M 15.499921 -1 L 15.499921 0.157813 " transform="matrix(20,0,0,20,-19.982791,101)"/>
<path style="fill:none;stroke-width:0.1;stroke-linecap:butt;stroke-linejoin:miter;stroke:rgb(100%,100%,100%);stroke-opacity:1;stroke-miterlimit:10;" d="M 15.499921 -1 L 17.505194 -1 " transform="matrix(20,0,0,20,-19.982791,101)"/>
<path style="fill:none;stroke-width:0.1;stroke-linecap:butt;stroke-linejoin:miter;stroke:rgb(100%,100%,100%);stroke-opacity:1;stroke-miterlimit:10;" d="M 15.499921 0.157813 L 17.505194 0.157813 " transform="matrix(20,0,0,20,-19.982791,101)"/>
<g style="fill:rgb(0%,0%,0%);fill-opacity:1;">
  <use xlink:href="#glyph2-1" x="294.023438" y="97.162218"/>
  <use xlink:href="#glyph2-2" x="302.275391" y="97.162218"/>
  <use xlink:href="#glyph2-1" x="310.273438" y="97.162218"/>
  <use xlink:href="#glyph2-2" x="318.525391" y="97.162218"/>
</g>
<path style="fill:none;stroke-width:0.1;stroke-linecap:butt;stroke-linejoin:miter;stroke:rgb(100%,100%,100%);stroke-opacity:1;stroke-miterlimit:10;" d="M 1.999921 -1 L 1.999921 0.157813 " transform="matrix(20,0,0,20,-19.982791,101)"/>
<path style="fill:none;stroke-width:0.1;stroke-linecap:butt;stroke-linejoin:miter;stroke:rgb(100%,100%,100%);stroke-opacity:1;stroke-miterlimit:10;" d="M 1.999921 -1 L 6.081561 -1 " transform="matrix(20,0,0,20,-19.982791,101)"/>
<path style="fill:none;stroke-width:0.1;stroke-linecap:butt;stroke-linejoin:miter;stroke:rgb(100%,100%,100%);stroke-opacity:1;stroke-miterlimit:10;" d="M 1.999921 0.157813 L 6.081561 0.157813 " transform="matrix(20,0,0,20,-19.982791,101)"/>
<g style="fill:rgb(0%,0%,0%);fill-opacity:1;">
  <use xlink:href="#glyph2-3" x="26.097656" y="97.162218"/>
  <use xlink:href="#glyph2-4" x="33.245009" y="97.162218"/>
  <use xlink:href="#glyph2-5" x="41.211317" y="97.162218"/>
  <use xlink:href="#glyph2-6" x="46.308431" y="97.162218"/>
  <use xlink:href="#glyph2-2" x="56.382216" y="97.162218"/>
  <use xlink:href="#glyph2-7" x="64.380263" y="97.162218"/>
  <use xlink:href="#glyph2-2" x="69.439399" y="97.162218"/>
  <use xlink:href="#glyph2-8" x="77.437446" y="97.162218"/>
  <use xlink:href="#glyph2-5" x="85.676649" y="97.162218"/>
  <use xlink:href="#glyph2-2" x="90.773763" y="97.162218"/>
</g>
<path style="fill:none;stroke-width:0.1;stroke-linecap:butt;stroke-linejoin:miter;stroke:rgb(100%,100%,100%);stroke-opacity:1;stroke-miterlimit:10;" d="M 1.999921 4 L 1.999921 5.157813 " transform="matrix(20,0,0,20,-19.982791,101)"/>
<path style="fill:none;stroke-width:0.1;stroke-linecap:butt;stroke-linejoin:miter;stroke:rgb(100%,100%,100%);stroke-opacity:1;stroke-miterlimit:10;" d="M 1.999921 4 L 5.771015 4 " transform="matrix(20,0,0,20,-19.982791,101)"/>
<path style="fill:none;stroke-width:0.1;stroke-linecap:butt;stroke-linejoin:miter;stroke:rgb(100%,100%,100%);stroke-opacity:1;stroke-miterlimit:10;" d="M 1.999921 5.157813 L 5.771015 5.157813 " transform="matrix(20,0,0,20,-19.982791,101)"/>
<g style="fill:rgb(0%,0%,0%);fill-opacity:1;">
  <use xlink:href="#glyph2-3" x="25.789063" y="197.162218"/>
  <use xlink:href="#glyph2-4" x="32.936415" y="197.162218"/>
  <use xlink:href="#glyph2-5" x="40.902724" y="197.162218"/>
  <use xlink:href="#glyph2-9" x="45.999837" y="197.162218"/>
  <use xlink:href="#glyph2-4" x="55.076986" y="197.162218"/>
  <use xlink:href="#glyph2-10" x="63.043294" y="197.162218"/>
  <use xlink:href="#glyph2-2" x="71.295247" y="197.162218"/>
  <use xlink:href="#glyph2-5" x="79.293294" y="197.162218"/>
  <use xlink:href="#glyph2-2" x="84.390408" y="197.162218"/>
</g>
<path style="fill:none;stroke-width:0.1;stroke-linecap:butt;stroke-linejoin:miter;stroke:rgb(0%,0%,0%);stroke-opacity:1;stroke-miterlimit:10;" d="M 1.999921 4.578906 C 1.560468 4.638867 1.238593 5.023242 1.256952 5.466602 C 1.275507 5.909766 1.628046 6.266211 2.07121 6.289453 " transform="matrix(20,0,0,20,-19.982791,101)"/>
<path style="fill:none;stroke-width:0.1;stroke-linecap:butt;stroke-linejoin:miter;stroke:rgb(0%,0%,0%);stroke-opacity:1;stroke-miterlimit:10;" d="M 2.399921 6.25 L 2.064374 6.696875 L 2.064374 6.417383 L 1.840936 6.249609 Z M 2.399921 6.25 " transform="matrix(20,0,0,20,-19.982791,101)"/>
<path style="fill:none;stroke-width:0.1;stroke-linecap:butt;stroke-linejoin:miter;stroke:rgb(100%,100%,100%);stroke-opacity:1;stroke-miterlimit:10;" d="M 1.999921 15 L 1.999921 16.157813 " transform="matrix(20,0,0,20,-19.982791,101)"/>
<path style="fill:none;stroke-width:0.1;stroke-linecap:butt;stroke-linejoin:miter;stroke:rgb(100%,100%,100%);stroke-opacity:1;stroke-miterlimit:10;" d="M 1.999921 15 L 7.857929 15 " transform="matrix(20,0,0,20,-19.982791,101)"/>
<path style="fill:none;stroke-width:0.1;stroke-linecap:butt;stroke-linejoin:miter;stroke:rgb(100%,100%,100%);stroke-opacity:1;stroke-miterlimit:10;" d="M 1.999921 16.157813 L 7.857929 16.157813 " transform="matrix(20,0,0,20,-19.982791,101)"/>
<g style="fill:rgb(0%,0%,0%);fill-opacity:1;">
  <use xlink:href="#glyph2-11" x="27.875" y="417.162218"/>
  <use xlink:href="#glyph2-12" x="36.126953" y="417.162218"/>
  <use xlink:href="#glyph2-8" x="44.080512" y="417.162218"/>
  <use xlink:href="#glyph2-12" x="52.319716" y="417.162218"/>
  <use xlink:href="#glyph2-13" x="60.273275" y="417.162218"/>
  <use xlink:href="#glyph2-7" x="67.884223" y="417.162218"/>
  <use xlink:href="#glyph2-2" x="72.943359" y="417.162218"/>
  <use xlink:href="#glyph2-14" x="80.941406" y="417.162218"/>
  <use xlink:href="#glyph2-15" x="87.71441" y="417.162218"/>
  <use xlink:href="#glyph2-12" x="97.439073" y="417.162218"/>
  <use xlink:href="#glyph2-7" x="105.392632" y="417.162218"/>
  <use xlink:href="#glyph2-16" x="110.509006" y="417.162218"/>
  <use xlink:href="#glyph2-4" x="123.17258" y="417.162218"/>
  <use xlink:href="#glyph2-17" x="131.138889" y="417.162218"/>
</g>
<path style="fill:none;stroke-width:0.1;stroke-linecap:butt;stroke-linejoin:miter;stroke:rgb(0%,0%,0%);stroke-opacity:1;stroke-miterlimit:10;" d="M 2.039765 13.198047 C 1.472772 13.304688 1.058905 13.795313 1.049335 14.372266 C 1.039765 14.949023 1.436835 15.45332 1.999921 15.578906 " transform="matrix(20,0,0,20,-19.982791,101)"/>
<path style="fill:none;stroke-width:0.1;stroke-linecap:butt;stroke-linejoin:miter;stroke:rgb(0%,0%,0%);stroke-opacity:1;stroke-miterlimit:10;" d="M 2.39035 13.17832 L 1.851288 13.326758 L 2.022382 13.105664 L 1.948163 12.836328 Z M 2.39035 13.17832 " transform="matrix(20,0,0,20,-19.982791,101)"/>
<path style="fill:none;stroke-width:0.1;stroke-linecap:butt;stroke-linejoin:miter;stroke:rgb(100%,100%,100%);stroke-opacity:1;stroke-miterlimit:10;" d="M 12.499921 15 L 12.499921 16.157813 " transform="matrix(20,0,0,20,-19.982791,101)"/>
<path style="fill:none;stroke-width:0.1;stroke-linecap:butt;stroke-linejoin:miter;stroke:rgb(100%,100%,100%);stroke-opacity:1;stroke-miterlimit:10;" d="M 12.499921 15 L 18.021015 15 " transform="matrix(20,0,0,20,-19.982791,101)"/>
<path style="fill:none;stroke-width:0.1;stroke-linecap:butt;stroke-linejoin:miter;stroke:rgb(100%,100%,100%);stroke-opacity:1;stroke-miterlimit:10;" d="M 12.499921 16.157813 L 18.021015 16.157813 " transform="matrix(20,0,0,20,-19.982791,101)"/>
<g style="fill:rgb(0%,0%,0%);fill-opacity:1;">
  <use xlink:href="#glyph2-11" x="237.539062" y="417.162218"/>
  <use xlink:href="#glyph2-12" x="245.791016" y="417.162218"/>
  <use xlink:href="#glyph2-8" x="253.744575" y="417.162218"/>
  <use xlink:href="#glyph2-12" x="261.983778" y="417.162218"/>
  <use xlink:href="#glyph2-13" x="269.937337" y="417.162218"/>
  <use xlink:href="#glyph2-7" x="277.548286" y="417.162218"/>
  <use xlink:href="#glyph2-2" x="282.607422" y="417.162218"/>
  <use xlink:href="#glyph2-14" x="290.605469" y="417.162218"/>
  <use xlink:href="#glyph2-18" x="297.378472" y="417.162218"/>
  <use xlink:href="#glyph2-19" x="306.27143" y="417.162218"/>
  <use xlink:href="#glyph2-20" x="309.883355" y="417.162218"/>
  <use xlink:href="#glyph2-14" x="318.122559" y="417.162218"/>
  <use xlink:href="#glyph2-5" x="324.895562" y="417.162218"/>
  <use xlink:href="#glyph2-2" x="329.992676" y="417.162218"/>
</g>
<path style="fill:none;stroke-width:0.1;stroke-linecap:butt;stroke-linejoin:miter;stroke:rgb(0%,0%,0%);stroke-opacity:1;stroke-miterlimit:10;" d="M 12.539765 13.198047 C 11.972772 13.304688 11.558905 13.795313 11.549335 14.372266 C 11.539765 14.949023 11.936835 15.45332 12.499921 15.578906 " transform="matrix(20,0,0,20,-19.982791,101)"/>
<path style="fill:none;stroke-width:0.1;stroke-linecap:butt;stroke-linejoin:miter;stroke:rgb(0%,0%,0%);stroke-opacity:1;stroke-miterlimit:10;" d="M 12.89035 13.17832 L 12.351288 13.326758 L 12.522382 13.105664 L 12.448163 12.836328 Z M 12.89035 13.17832 " transform="matrix(20,0,0,20,-19.982791,101)"/>
<path style="fill:none;stroke-width:0.1;stroke-linecap:butt;stroke-linejoin:miter;stroke:rgb(100%,100%,100%);stroke-opacity:1;stroke-miterlimit:10;" d="M 22.499921 15 L 22.499921 16.157813 " transform="matrix(20,0,0,20,-19.982791,101)"/>
<path style="fill:none;stroke-width:0.1;stroke-linecap:butt;stroke-linejoin:miter;stroke:rgb(100%,100%,100%);stroke-opacity:1;stroke-miterlimit:10;" d="M 22.499921 15 L 30.163202 15 " transform="matrix(20,0,0,20,-19.982791,101)"/>
<path style="fill:none;stroke-width:0.1;stroke-linecap:butt;stroke-linejoin:miter;stroke:rgb(100%,100%,100%);stroke-opacity:1;stroke-miterlimit:10;" d="M 22.499921 16.157813 L 30.163202 16.157813 " transform="matrix(20,0,0,20,-19.982791,101)"/>
<g style="fill:rgb(0%,0%,0%);fill-opacity:1;">
  <use xlink:href="#glyph2-11" x="439.679688" y="417.162218"/>
  <use xlink:href="#glyph2-12" x="447.931641" y="417.162218"/>
  <use xlink:href="#glyph2-8" x="455.8852" y="417.162218"/>
  <use xlink:href="#glyph2-12" x="464.124403" y="417.162218"/>
  <use xlink:href="#glyph2-13" x="472.077962" y="417.162218"/>
  <use xlink:href="#glyph2-7" x="479.688911" y="417.162218"/>
  <use xlink:href="#glyph2-2" x="484.748047" y="417.162218"/>
  <use xlink:href="#glyph2-14" x="492.746094" y="417.162218"/>
  <use xlink:href="#glyph2-21" x="499.519097" y="417.162218"/>
  <use xlink:href="#glyph2-2" x="509.529405" y="417.162218"/>
  <use xlink:href="#glyph2-16" x="517.527452" y="417.162218"/>
  <use xlink:href="#glyph2-4" x="530.191026" y="417.162218"/>
  <use xlink:href="#glyph2-22" x="538.157335" y="417.162218"/>
  <use xlink:href="#glyph2-12" x="546.409288" y="417.162218"/>
  <use xlink:href="#glyph2-22" x="554.362847" y="417.162218"/>
  <use xlink:href="#glyph2-23" x="562.6148" y="417.162218"/>
  <use xlink:href="#glyph2-3" x="566.226725" y="417.162218"/>
  <use xlink:href="#glyph2-12" x="573.374078" y="417.162218"/>
</g>
<path style="fill:none;stroke-width:0.1;stroke-linecap:butt;stroke-linejoin:miter;stroke:rgb(0%,0%,0%);stroke-opacity:1;stroke-miterlimit:10;" d="M 22.541327 13.159961 C 21.928241 13.223437 21.4591 13.734766 21.448554 14.351172 C 21.438007 14.967383 21.889374 15.494531 22.499921 15.578906 " transform="matrix(20,0,0,20,-19.982791,101)"/>
<path style="fill:none;stroke-width:0.1;stroke-linecap:butt;stroke-linejoin:miter;stroke:rgb(0%,0%,0%);stroke-opacity:1;stroke-miterlimit:10;" d="M 22.892499 13.169336 L 22.343085 13.273242 L 22.531757 13.066797 L 22.479804 12.792188 Z M 22.892499 13.169336 " transform="matrix(20,0,0,20,-19.982791,101)"/>
<path style="fill:none;stroke-width:0.1;stroke-linecap:butt;stroke-linejoin:miter;stroke:rgb(100%,100%,100%);stroke-opacity:1;stroke-miterlimit:10;" d="M 29.499921 -4 L 29.499921 -2.842187 " transform="matrix(20,0,0,20,-19.982791,101)"/>
<path style="fill:none;stroke-width:0.1;stroke-linecap:butt;stroke-linejoin:miter;stroke:rgb(100%,100%,100%);stroke-opacity:1;stroke-miterlimit:10;" d="M 29.499921 -4 L 34.939569 -4 " transform="matrix(20,0,0,20,-19.982791,101)"/>
<path style="fill:none;stroke-width:0.1;stroke-linecap:butt;stroke-linejoin:miter;stroke:rgb(100%,100%,100%);stroke-opacity:1;stroke-miterlimit:10;" d="M 29.499921 -2.842187 L 34.939569 -2.842187 " transform="matrix(20,0,0,20,-19.982791,101)"/>
<g style="fill:rgb(0%,0%,0%);fill-opacity:1;">
  <use xlink:href="#glyph2-10" x="577.457031" y="37.162218"/>
  <use xlink:href="#glyph2-2" x="585.708984" y="37.162218"/>
  <use xlink:href="#glyph2-14" x="593.707031" y="37.162218"/>
  <use xlink:href="#glyph2-3" x="600.480035" y="37.162218"/>
  <use xlink:href="#glyph2-13" x="607.627387" y="37.162218"/>
  <use xlink:href="#glyph2-12" x="615.003418" y="37.162218"/>
  <use xlink:href="#glyph2-7" x="622.956977" y="37.162218"/>
  <use xlink:href="#glyph2-3" x="628.016113" y="37.162218"/>
  <use xlink:href="#glyph2-2" x="635.163466" y="37.162218"/>
  <use xlink:href="#glyph2-8" x="643.161513" y="37.162218"/>
  <use xlink:href="#glyph2-5" x="651.400716" y="37.162218"/>
  <use xlink:href="#glyph2-20" x="656.49783" y="37.162218"/>
  <use xlink:href="#glyph2-4" x="664.737033" y="37.162218"/>
  <use xlink:href="#glyph2-17" x="672.703342" y="37.162218"/>
</g>
<path style="fill:none;stroke-width:0.1;stroke-linecap:butt;stroke-linejoin:miter;stroke:rgb(0%,0%,0%);stroke-opacity:1;stroke-miterlimit:10;" d="M 29.499921 -3.421094 C 29.060468 -3.361133 28.738593 -2.976758 28.756952 -2.533398 C 28.775507 -2.090234 29.128046 -1.733789 29.57121 -1.710547 " transform="matrix(20,0,0,20,-19.982791,101)"/>
<path style="fill:none;stroke-width:0.1;stroke-linecap:butt;stroke-linejoin:miter;stroke:rgb(0%,0%,0%);stroke-opacity:1;stroke-miterlimit:10;" d="M 29.899921 -1.75 L 29.564374 -1.303125 L 29.564374 -1.582617 L 29.340936 -1.750391 Z M 29.899921 -1.75 " transform="matrix(20,0,0,20,-19.982791,101)"/>
<path style="fill:none;stroke-width:0.1;stroke-linecap:butt;stroke-linejoin:miter;stroke:rgb(100%,100%,100%);stroke-opacity:1;stroke-miterlimit:10;" d="M 29.499921 1 L 29.499921 2.157813 " transform="matrix(20,0,0,20,-19.982791,101)"/>
<path style="fill:none;stroke-width:0.1;stroke-linecap:butt;stroke-linejoin:miter;stroke:rgb(100%,100%,100%);stroke-opacity:1;stroke-miterlimit:10;" d="M 29.499921 1 L 36.386835 1 " transform="matrix(20,0,0,20,-19.982791,101)"/>
<path style="fill:none;stroke-width:0.1;stroke-linecap:butt;stroke-linejoin:miter;stroke:rgb(100%,100%,100%);stroke-opacity:1;stroke-miterlimit:10;" d="M 29.499921 2.157813 L 36.386835 2.157813 " transform="matrix(20,0,0,20,-19.982791,101)"/>
<g style="fill:rgb(0%,0%,0%);fill-opacity:1;">
  <use xlink:href="#glyph2-10" x="578.902344" y="137.162218"/>
  <use xlink:href="#glyph2-2" x="587.154297" y="137.162218"/>
  <use xlink:href="#glyph2-14" x="595.152344" y="137.162218"/>
  <use xlink:href="#glyph2-3" x="601.925347" y="137.162218"/>
  <use xlink:href="#glyph2-9" x="609.0727" y="137.162218"/>
  <use xlink:href="#glyph2-12" x="618.149848" y="137.162218"/>
  <use xlink:href="#glyph2-16" x="626.103407" y="137.162218"/>
  <use xlink:href="#glyph2-1" x="638.766981" y="137.162218"/>
  <use xlink:href="#glyph2-7" x="647.018934" y="137.162218"/>
  <use xlink:href="#glyph2-12" x="652.078071" y="137.162218"/>
  <use xlink:href="#glyph2-16" x="660.03163" y="137.162218"/>
  <use xlink:href="#glyph2-2" x="672.695204" y="137.162218"/>
  <use xlink:href="#glyph2-5" x="680.693251" y="137.162218"/>
  <use xlink:href="#glyph2-23" x="685.790365" y="137.162218"/>
  <use xlink:href="#glyph2-10" x="689.402289" y="137.162218"/>
  <use xlink:href="#glyph2-12" x="697.654243" y="137.162218"/>
</g>
<path style="fill:none;stroke-width:0.1;stroke-linecap:butt;stroke-linejoin:miter;stroke:rgb(0%,0%,0%);stroke-opacity:1;stroke-miterlimit:10;" d="M 29.499921 1.578906 C 29.060468 1.638867 28.738593 2.023242 28.756952 2.466602 C 28.775507 2.909766 29.128046 3.266211 29.57121 3.289453 " transform="matrix(20,0,0,20,-19.982791,101)"/>
<path style="fill:none;stroke-width:0.1;stroke-linecap:butt;stroke-linejoin:miter;stroke:rgb(0%,0%,0%);stroke-opacity:1;stroke-miterlimit:10;" d="M 29.899921 3.25 L 29.564374 3.696875 L 29.564374 3.417383 L 29.340936 3.249609 Z M 29.899921 3.25 " transform="matrix(20,0,0,20,-19.982791,101)"/>
<path style="fill:none;stroke-width:0.1;stroke-linecap:butt;stroke-linejoin:miter;stroke:rgb(100%,100%,100%);stroke-opacity:1;stroke-miterlimit:10;" d="M 29.499921 6 L 29.499921 7.157813 " transform="matrix(20,0,0,20,-19.982791,101)"/>
<path style="fill:none;stroke-width:0.1;stroke-linecap:butt;stroke-linejoin:miter;stroke:rgb(100%,100%,100%);stroke-opacity:1;stroke-miterlimit:10;" d="M 29.499921 6 L 35.542108 6 " transform="matrix(20,0,0,20,-19.982791,101)"/>
<path style="fill:none;stroke-width:0.1;stroke-linecap:butt;stroke-linejoin:miter;stroke:rgb(100%,100%,100%);stroke-opacity:1;stroke-miterlimit:10;" d="M 29.499921 7.157813 L 35.542108 7.157813 " transform="matrix(20,0,0,20,-19.982791,101)"/>
<g style="fill:rgb(0%,0%,0%);fill-opacity:1;">
  <use xlink:href="#glyph2-10" x="578.058594" y="237.162218"/>
  <use xlink:href="#glyph2-2" x="586.310547" y="237.162218"/>
  <use xlink:href="#glyph2-14" x="594.308594" y="237.162218"/>
  <use xlink:href="#glyph2-3" x="601.081597" y="237.162218"/>
  <use xlink:href="#glyph2-24" x="608.22895" y="237.162218"/>
  <use xlink:href="#glyph2-23" x="616.480903" y="237.162218"/>
  <use xlink:href="#glyph2-8" x="620.092828" y="237.162218"/>
  <use xlink:href="#glyph2-24" x="628.332031" y="237.162218"/>
  <use xlink:href="#glyph2-23" x="636.583984" y="237.162218"/>
  <use xlink:href="#glyph2-8" x="640.195909" y="237.162218"/>
  <use xlink:href="#glyph2-10" x="648.435113" y="237.162218"/>
  <use xlink:href="#glyph2-23" x="656.687066" y="237.162218"/>
  <use xlink:href="#glyph2-3" x="660.298991" y="237.162218"/>
  <use xlink:href="#glyph2-4" x="667.446343" y="237.162218"/>
  <use xlink:href="#glyph2-5" x="675.412652" y="237.162218"/>
  <use xlink:href="#glyph2-12" x="680.509766" y="237.162218"/>
</g>
<path style="fill:none;stroke-width:0.1;stroke-linecap:butt;stroke-linejoin:miter;stroke:rgb(0%,0%,0%);stroke-opacity:1;stroke-miterlimit:10;" d="M 29.499921 6.578906 C 29.060468 6.638867 28.738593 7.023242 28.756952 7.466602 C 28.775507 7.909766 29.128046 8.266211 29.57121 8.289453 " transform="matrix(20,0,0,20,-19.982791,101)"/>
<path style="fill:none;stroke-width:0.1;stroke-linecap:butt;stroke-linejoin:miter;stroke:rgb(0%,0%,0%);stroke-opacity:1;stroke-miterlimit:10;" d="M 29.899921 8.25 L 29.564374 8.696875 L 29.564374 8.417383 L 29.340936 8.249609 Z M 29.899921 8.25 " transform="matrix(20,0,0,20,-19.982791,101)"/>
</g>
</svg>
