<?xml version="1.0" encoding="UTF-8"?>
<svg xmlns="http://www.w3.org/2000/svg" xmlns:xlink="http://www.w3.org/1999/xlink" width="1006pt" height="335pt" viewBox="0 0 1006 335" version="1.1">
<defs>
<g>
<symbol overflow="visible" id="glyph0-0">
<path style="stroke:none;" d="M 0.796875 2.828125 L 0.796875 -11.28125 L 8.796875 -11.28125 L 8.796875 2.828125 Z M 1.703125 1.9375 L 7.90625 1.9375 L 7.90625 -10.390625 L 1.703125 -10.390625 Z M 1.703125 1.9375 "/>
</symbol>
<symbol overflow="visible" id="glyph0-1">
<path style="stroke:none;" d="M 4.40625 -11.234375 L 4.40625 -8.75 L 7.28125 -8.75 L 7.28125 -6.75 L 4.40625 -6.75 L 4.40625 -3.046875 C 4.40625 -2.640625 4.484375 -2.363281 4.640625 -2.21875 C 4.804688 -2.070312 5.128906 -2 5.609375 -2 L 7.046875 -2 L 7.046875 0 L 4.640625 0 C 3.535156 0 2.753906 -0.226562 2.296875 -0.6875 C 1.835938 -1.152344 1.609375 -1.941406 1.609375 -3.046875 L 1.609375 -6.75 L 0.21875 -6.75 L 0.21875 -8.75 L 1.609375 -8.75 L 1.609375 -11.234375 Z M 4.40625 -11.234375 "/>
</symbol>
<symbol overflow="visible" id="glyph0-2">
<path style="stroke:none;" d="M 7.84375 -6.375 C 7.601562 -6.488281 7.355469 -6.570312 7.109375 -6.625 C 6.867188 -6.675781 6.628906 -6.703125 6.390625 -6.703125 C 5.671875 -6.703125 5.113281 -6.472656 4.71875 -6.015625 C 4.332031 -5.554688 4.140625 -4.894531 4.140625 -4.03125 L 4.140625 0 L 1.34375 0 L 1.34375 -8.75 L 4.140625 -8.75 L 4.140625 -7.3125 C 4.503906 -7.882812 4.914062 -8.300781 5.375 -8.5625 C 5.839844 -8.832031 6.40625 -8.96875 7.0625 -8.96875 C 7.152344 -8.96875 7.253906 -8.960938 7.359375 -8.953125 C 7.472656 -8.941406 7.632812 -8.925781 7.84375 -8.90625 Z M 7.84375 -6.375 "/>
</symbol>
<symbol overflow="visible" id="glyph0-3">
<path style="stroke:none;" d="M 5.265625 -3.9375 C 4.679688 -3.9375 4.242188 -3.835938 3.953125 -3.640625 C 3.660156 -3.441406 3.515625 -3.148438 3.515625 -2.765625 C 3.515625 -2.410156 3.628906 -2.132812 3.859375 -1.9375 C 4.097656 -1.738281 4.429688 -1.640625 4.859375 -1.640625 C 5.378906 -1.640625 5.816406 -1.828125 6.171875 -2.203125 C 6.535156 -2.574219 6.71875 -3.050781 6.71875 -3.625 L 6.71875 -3.9375 Z M 9.546875 -5 L 9.546875 0 L 6.71875 0 L 6.71875 -1.296875 C 6.34375 -0.765625 5.917969 -0.371094 5.453125 -0.125 C 4.984375 0.113281 4.414062 0.234375 3.75 0.234375 C 2.84375 0.234375 2.101562 -0.03125 1.53125 -0.5625 C 0.96875 -1.089844 0.6875 -1.78125 0.6875 -2.625 C 0.6875 -3.652344 1.039062 -4.410156 1.75 -4.890625 C 2.457031 -5.367188 3.566406 -5.609375 5.078125 -5.609375 L 6.71875 -5.609375 L 6.71875 -5.828125 C 6.71875 -6.261719 6.539062 -6.585938 6.1875 -6.796875 C 5.84375 -7.003906 5.300781 -7.109375 4.5625 -7.109375 C 3.96875 -7.109375 3.410156 -7.042969 2.890625 -6.921875 C 2.378906 -6.804688 1.898438 -6.628906 1.453125 -6.390625 L 1.453125 -8.515625 C 2.054688 -8.660156 2.660156 -8.769531 3.265625 -8.84375 C 3.867188 -8.925781 4.472656 -8.96875 5.078125 -8.96875 C 6.648438 -8.96875 7.785156 -8.652344 8.484375 -8.03125 C 9.191406 -7.40625 9.546875 -6.394531 9.546875 -5 Z M 9.546875 -5 "/>
</symbol>
<symbol overflow="visible" id="glyph0-4">
<path style="stroke:none;" d="M 9.453125 -7.296875 C 9.804688 -7.835938 10.226562 -8.25 10.71875 -8.53125 C 11.207031 -8.820312 11.742188 -8.96875 12.328125 -8.96875 C 13.324219 -8.96875 14.085938 -8.652344 14.609375 -8.03125 C 15.136719 -7.414062 15.40625 -6.511719 15.40625 -5.328125 L 15.40625 0 L 12.59375 0 L 12.59375 -4.5625 C 12.601562 -4.632812 12.609375 -4.707031 12.609375 -4.78125 C 12.609375 -4.851562 12.609375 -4.957031 12.609375 -5.09375 C 12.609375 -5.707031 12.511719 -6.15625 12.328125 -6.4375 C 12.148438 -6.714844 11.855469 -6.859375 11.453125 -6.859375 C 10.921875 -6.859375 10.507812 -6.636719 10.21875 -6.203125 C 9.9375 -5.765625 9.789062 -5.128906 9.78125 -4.296875 L 9.78125 0 L 6.96875 0 L 6.96875 -4.5625 C 6.96875 -5.527344 6.882812 -6.15625 6.71875 -6.4375 C 6.550781 -6.714844 6.253906 -6.859375 5.828125 -6.859375 C 5.285156 -6.859375 4.867188 -6.632812 4.578125 -6.1875 C 4.285156 -5.75 4.140625 -5.121094 4.140625 -4.3125 L 4.140625 0 L 1.328125 0 L 1.328125 -8.75 L 4.140625 -8.75 L 4.140625 -7.46875 C 4.480469 -7.964844 4.878906 -8.34375 5.328125 -8.59375 C 5.773438 -8.839844 6.265625 -8.96875 6.796875 -8.96875 C 7.398438 -8.96875 7.929688 -8.820312 8.390625 -8.53125 C 8.855469 -8.238281 9.210938 -7.824219 9.453125 -7.296875 Z M 9.453125 -7.296875 "/>
</symbol>
<symbol overflow="visible" id="glyph0-5">
<path style="stroke:none;" d="M 5.515625 -6.96875 C 4.890625 -6.96875 4.414062 -6.742188 4.09375 -6.296875 C 3.769531 -5.847656 3.609375 -5.207031 3.609375 -4.375 C 3.609375 -3.53125 3.769531 -2.882812 4.09375 -2.4375 C 4.414062 -2 4.890625 -1.78125 5.515625 -1.78125 C 6.117188 -1.78125 6.582031 -2 6.90625 -2.4375 C 7.226562 -2.882812 7.390625 -3.53125 7.390625 -4.375 C 7.390625 -5.207031 7.226562 -5.847656 6.90625 -6.296875 C 6.582031 -6.742188 6.117188 -6.96875 5.515625 -6.96875 Z M 5.515625 -8.96875 C 7.011719 -8.96875 8.1875 -8.558594 9.03125 -7.75 C 9.882812 -6.9375 10.3125 -5.808594 10.3125 -4.375 C 10.3125 -2.9375 9.882812 -1.804688 9.03125 -0.984375 C 8.1875 -0.171875 7.011719 0.234375 5.515625 0.234375 C 4.003906 0.234375 2.820312 -0.171875 1.96875 -0.984375 C 1.113281 -1.804688 0.6875 -2.9375 0.6875 -4.375 C 0.6875 -5.808594 1.113281 -6.9375 1.96875 -7.75 C 2.820312 -8.558594 4.003906 -8.96875 5.515625 -8.96875 Z M 5.515625 -8.96875 "/>
</symbol>
<symbol overflow="visible" id="glyph0-6">
<path style="stroke:none;" d="M 5.75 -6.5 C 6.371094 -6.5 6.820312 -6.613281 7.09375 -6.84375 C 7.371094 -7.082031 7.515625 -7.46875 7.515625 -8 C 7.515625 -8.527344 7.371094 -8.910156 7.09375 -9.140625 C 6.820312 -9.367188 6.371094 -9.484375 5.75 -9.484375 L 4.484375 -9.484375 L 4.484375 -6.5 Z M 4.484375 -4.421875 L 4.484375 0 L 1.46875 0 L 1.46875 -11.671875 L 6.0625 -11.671875 C 7.601562 -11.671875 8.726562 -11.410156 9.4375 -10.890625 C 10.152344 -10.378906 10.515625 -9.566406 10.515625 -8.453125 C 10.515625 -7.679688 10.324219 -7.042969 9.953125 -6.546875 C 9.585938 -6.054688 9.027344 -5.691406 8.28125 -5.453125 C 8.683594 -5.359375 9.050781 -5.144531 9.375 -4.8125 C 9.707031 -4.488281 10.039062 -3.988281 10.375 -3.3125 L 12 0 L 8.796875 0 L 7.375 -2.90625 C 7.09375 -3.488281 6.800781 -3.882812 6.5 -4.09375 C 6.207031 -4.308594 5.816406 -4.421875 5.328125 -4.421875 Z M 4.484375 -4.421875 "/>
</symbol>
<symbol overflow="visible" id="glyph0-7">
<path style="stroke:none;" d="M 10.078125 -4.40625 L 10.078125 -3.609375 L 3.546875 -3.609375 C 3.605469 -2.953125 3.84375 -2.457031 4.25 -2.125 C 4.652344 -1.800781 5.222656 -1.640625 5.953125 -1.640625 C 6.542969 -1.640625 7.148438 -1.722656 7.765625 -1.890625 C 8.378906 -2.066406 9.015625 -2.332031 9.671875 -2.6875 L 9.671875 -0.53125 C 9.003906 -0.28125 8.335938 -0.0898438 7.671875 0.03125 C 7.015625 0.164062 6.355469 0.234375 5.703125 0.234375 C 4.117188 0.234375 2.882812 -0.164062 2 -0.96875 C 1.125 -1.777344 0.6875 -2.914062 0.6875 -4.375 C 0.6875 -5.800781 1.117188 -6.921875 1.984375 -7.734375 C 2.847656 -8.554688 4.035156 -8.96875 5.546875 -8.96875 C 6.917969 -8.96875 8.019531 -8.550781 8.84375 -7.71875 C 9.664062 -6.894531 10.078125 -5.789062 10.078125 -4.40625 Z M 7.203125 -5.328125 C 7.203125 -5.855469 7.042969 -6.285156 6.734375 -6.609375 C 6.429688 -6.941406 6.027344 -7.109375 5.53125 -7.109375 C 4.988281 -7.109375 4.542969 -6.949219 4.203125 -6.640625 C 3.867188 -6.335938 3.660156 -5.898438 3.578125 -5.328125 Z M 7.203125 -5.328125 "/>
</symbol>
<symbol overflow="visible" id="glyph0-8">
<path style="stroke:none;" d="M 8.421875 -8.484375 L 8.421875 -6.203125 C 8.035156 -6.460938 7.648438 -6.65625 7.265625 -6.78125 C 6.890625 -6.902344 6.492188 -6.96875 6.078125 -6.96875 C 5.296875 -6.96875 4.683594 -6.738281 4.25 -6.28125 C 3.820312 -5.820312 3.609375 -5.183594 3.609375 -4.375 C 3.609375 -3.550781 3.820312 -2.910156 4.25 -2.453125 C 4.683594 -2.003906 5.296875 -1.78125 6.078125 -1.78125 C 6.511719 -1.78125 6.929688 -1.84375 7.328125 -1.96875 C 7.722656 -2.101562 8.085938 -2.296875 8.421875 -2.546875 L 8.421875 -0.265625 C 7.984375 -0.0976562 7.535156 0.0234375 7.078125 0.109375 C 6.628906 0.191406 6.179688 0.234375 5.734375 0.234375 C 4.148438 0.234375 2.910156 -0.171875 2.015625 -0.984375 C 1.128906 -1.792969 0.6875 -2.925781 0.6875 -4.375 C 0.6875 -5.808594 1.128906 -6.9375 2.015625 -7.75 C 2.910156 -8.558594 4.148438 -8.96875 5.734375 -8.96875 C 6.191406 -8.96875 6.640625 -8.925781 7.078125 -8.84375 C 7.523438 -8.757812 7.972656 -8.636719 8.421875 -8.484375 Z M 8.421875 -8.484375 "/>
</symbol>
<symbol overflow="visible" id="glyph0-9">
<path style="stroke:none;" d="M 1.46875 -11.671875 L 4.484375 -11.671875 L 4.484375 -2.28125 L 9.765625 -2.28125 L 9.765625 0 L 1.46875 0 Z M 1.46875 -11.671875 "/>
</symbol>
<symbol overflow="visible" id="glyph0-10">
<path style="stroke:none;" d="M 7.296875 -1.484375 C 6.910156 -0.972656 6.480469 -0.597656 6.015625 -0.359375 C 5.554688 -0.117188 5.023438 0 4.421875 0 C 3.347656 0 2.460938 -0.421875 1.765625 -1.265625 C 1.066406 -2.105469 0.71875 -3.179688 0.71875 -4.484375 C 0.71875 -5.785156 1.066406 -6.851562 1.765625 -7.6875 C 2.460938 -8.527344 3.347656 -8.953125 4.421875 -8.953125 C 5.023438 -8.953125 5.554688 -8.832031 6.015625 -8.59375 C 6.480469 -8.351562 6.910156 -7.972656 7.296875 -7.453125 L 7.296875 -8.75 L 10.109375 -8.75 L 10.109375 -0.890625 C 10.109375 0.523438 9.664062 1.601562 8.78125 2.34375 C 7.894531 3.082031 6.605469 3.453125 4.921875 3.453125 C 4.367188 3.453125 3.835938 3.410156 3.328125 3.328125 C 2.816406 3.242188 2.304688 3.117188 1.796875 2.953125 L 1.796875 0.765625 C 2.285156 1.042969 2.765625 1.253906 3.234375 1.390625 C 3.699219 1.535156 4.171875 1.609375 4.640625 1.609375 C 5.554688 1.609375 6.226562 1.402344 6.65625 1 C 7.082031 0.601562 7.296875 -0.0234375 7.296875 -0.890625 Z M 5.453125 -6.9375 C 4.878906 -6.9375 4.429688 -6.722656 4.109375 -6.296875 C 3.785156 -5.867188 3.625 -5.261719 3.625 -4.484375 C 3.625 -3.679688 3.78125 -3.070312 4.09375 -2.65625 C 4.402344 -2.238281 4.859375 -2.03125 5.453125 -2.03125 C 6.035156 -2.03125 6.488281 -2.242188 6.8125 -2.671875 C 7.132812 -3.097656 7.296875 -3.703125 7.296875 -4.484375 C 7.296875 -5.261719 7.132812 -5.867188 6.8125 -6.296875 C 6.488281 -6.722656 6.035156 -6.9375 5.453125 -6.9375 Z M 5.453125 -6.9375 "/>
</symbol>
<symbol overflow="visible" id="glyph0-11">
<path style="stroke:none;" d="M 10.71875 -0.640625 C 10.164062 -0.359375 9.585938 -0.144531 8.984375 0 C 8.390625 0.152344 7.769531 0.234375 7.125 0.234375 C 5.175781 0.234375 3.632812 -0.304688 2.5 -1.390625 C 1.363281 -2.480469 0.796875 -3.960938 0.796875 -5.828125 C 0.796875 -7.691406 1.363281 -9.164062 2.5 -10.25 C 3.632812 -11.332031 5.175781 -11.875 7.125 -11.875 C 7.769531 -11.875 8.390625 -11.800781 8.984375 -11.65625 C 9.585938 -11.507812 10.164062 -11.292969 10.71875 -11.015625 L 10.71875 -8.59375 C 10.164062 -8.976562 9.617188 -9.257812 9.078125 -9.4375 C 8.535156 -9.613281 7.960938 -9.703125 7.359375 -9.703125 C 6.285156 -9.703125 5.441406 -9.355469 4.828125 -8.671875 C 4.210938 -7.984375 3.90625 -7.035156 3.90625 -5.828125 C 3.90625 -4.617188 4.210938 -3.667969 4.828125 -2.984375 C 5.441406 -2.296875 6.285156 -1.953125 7.359375 -1.953125 C 7.960938 -1.953125 8.535156 -2.039062 9.078125 -2.21875 C 9.617188 -2.394531 10.164062 -2.675781 10.71875 -3.0625 Z M 10.71875 -0.640625 "/>
</symbol>
<symbol overflow="visible" id="glyph0-12">
<path style="stroke:none;" d="M 7.296875 -7.46875 L 7.296875 -12.15625 L 10.109375 -12.15625 L 10.109375 0 L 7.296875 0 L 7.296875 -1.265625 C 6.910156 -0.753906 6.480469 -0.371094 6.015625 -0.125 C 5.554688 0.113281 5.023438 0.234375 4.421875 0.234375 C 3.335938 0.234375 2.445312 -0.191406 1.75 -1.046875 C 1.0625 -1.910156 0.71875 -3.019531 0.71875 -4.375 C 0.71875 -5.714844 1.0625 -6.816406 1.75 -7.671875 C 2.445312 -8.535156 3.335938 -8.96875 4.421875 -8.96875 C 5.023438 -8.96875 5.554688 -8.839844 6.015625 -8.59375 C 6.480469 -8.351562 6.910156 -7.976562 7.296875 -7.46875 Z M 5.453125 -1.8125 C 6.054688 -1.8125 6.515625 -2.03125 6.828125 -2.46875 C 7.136719 -2.902344 7.296875 -3.539062 7.296875 -4.375 C 7.296875 -5.207031 7.136719 -5.84375 6.828125 -6.28125 C 6.515625 -6.714844 6.054688 -6.9375 5.453125 -6.9375 C 4.859375 -6.9375 4.402344 -6.714844 4.09375 -6.28125 C 3.78125 -5.84375 3.625 -5.207031 3.625 -4.375 C 3.625 -3.539062 3.78125 -2.902344 4.09375 -2.46875 C 4.402344 -2.03125 4.859375 -1.8125 5.453125 -1.8125 Z M 5.453125 -1.8125 "/>
</symbol>
<symbol overflow="visible" id="glyph0-13">
<path style="stroke:none;" d="M 1.46875 -11.671875 L 9.59375 -11.671875 L 9.59375 -9.390625 L 4.484375 -9.390625 L 4.484375 -7.21875 L 9.28125 -7.21875 L 9.28125 -4.953125 L 4.484375 -4.953125 L 4.484375 -2.28125 L 9.765625 -2.28125 L 9.765625 0 L 1.46875 0 Z M 1.46875 -11.671875 "/>
</symbol>
<symbol overflow="visible" id="glyph0-14">
<path style="stroke:none;" d="M 10.140625 -5.328125 L 10.140625 0 L 7.328125 0 L 7.328125 -4.078125 C 7.328125 -4.835938 7.308594 -5.359375 7.28125 -5.640625 C 7.25 -5.929688 7.191406 -6.144531 7.109375 -6.28125 C 6.992188 -6.457031 6.839844 -6.597656 6.65625 -6.703125 C 6.46875 -6.804688 6.253906 -6.859375 6.015625 -6.859375 C 5.429688 -6.859375 4.972656 -6.628906 4.640625 -6.171875 C 4.304688 -5.722656 4.140625 -5.101562 4.140625 -4.3125 L 4.140625 0 L 1.34375 0 L 1.34375 -8.75 L 4.140625 -8.75 L 4.140625 -7.46875 C 4.566406 -7.976562 5.015625 -8.351562 5.484375 -8.59375 C 5.960938 -8.839844 6.488281 -8.96875 7.0625 -8.96875 C 8.070312 -8.96875 8.835938 -8.652344 9.359375 -8.03125 C 9.878906 -7.414062 10.140625 -6.511719 10.140625 -5.328125 Z M 10.140625 -5.328125 "/>
</symbol>
<symbol overflow="visible" id="glyph0-15">
<path style="stroke:none;" d="M 9.59375 -11.296875 L 9.59375 -8.828125 C 8.945312 -9.117188 8.316406 -9.335938 7.703125 -9.484375 C 7.097656 -9.628906 6.523438 -9.703125 5.984375 -9.703125 C 5.265625 -9.703125 4.730469 -9.601562 4.390625 -9.40625 C 4.046875 -9.207031 3.875 -8.898438 3.875 -8.484375 C 3.875 -8.171875 3.988281 -7.925781 4.21875 -7.75 C 4.457031 -7.570312 4.878906 -7.417969 5.484375 -7.296875 L 6.765625 -7.046875 C 8.066406 -6.785156 8.988281 -6.386719 9.53125 -5.859375 C 10.082031 -5.328125 10.359375 -4.570312 10.359375 -3.59375 C 10.359375 -2.300781 9.972656 -1.335938 9.203125 -0.703125 C 8.441406 -0.078125 7.277344 0.234375 5.71875 0.234375 C 4.976562 0.234375 4.230469 0.160156 3.484375 0.015625 C 2.742188 -0.128906 1.996094 -0.335938 1.25 -0.609375 L 1.25 -3.15625 C 1.996094 -2.757812 2.71875 -2.457031 3.40625 -2.25 C 4.101562 -2.050781 4.773438 -1.953125 5.421875 -1.953125 C 6.074219 -1.953125 6.578125 -2.0625 6.921875 -2.28125 C 7.273438 -2.496094 7.453125 -2.8125 7.453125 -3.21875 C 7.453125 -3.582031 7.332031 -3.863281 7.09375 -4.0625 C 6.863281 -4.257812 6.394531 -4.4375 5.6875 -4.59375 L 4.515625 -4.859375 C 3.347656 -5.105469 2.492188 -5.503906 1.953125 -6.046875 C 1.421875 -6.597656 1.15625 -7.335938 1.15625 -8.265625 C 1.15625 -9.417969 1.53125 -10.3125 2.28125 -10.9375 C 3.027344 -11.558594 4.109375 -11.875 5.515625 -11.875 C 6.148438 -11.875 6.804688 -11.824219 7.484375 -11.734375 C 8.160156 -11.640625 8.863281 -11.492188 9.59375 -11.296875 Z M 9.59375 -11.296875 "/>
</symbol>
<symbol overflow="visible" id="glyph0-16">
<path style="stroke:none;" d="M 1.25 -3.40625 L 1.25 -8.75 L 4.0625 -8.75 L 4.0625 -7.875 C 4.0625 -7.40625 4.054688 -6.808594 4.046875 -6.09375 C 4.046875 -5.375 4.046875 -4.894531 4.046875 -4.65625 C 4.046875 -3.957031 4.0625 -3.449219 4.09375 -3.140625 C 4.132812 -2.828125 4.203125 -2.601562 4.296875 -2.46875 C 4.410156 -2.28125 4.554688 -2.132812 4.734375 -2.03125 C 4.917969 -1.9375 5.132812 -1.890625 5.375 -1.890625 C 5.957031 -1.890625 6.414062 -2.113281 6.75 -2.5625 C 7.082031 -3.007812 7.25 -3.632812 7.25 -4.4375 L 7.25 -8.75 L 10.046875 -8.75 L 10.046875 0 L 7.25 0 L 7.25 -1.265625 C 6.832031 -0.753906 6.382812 -0.371094 5.90625 -0.125 C 5.4375 0.113281 4.917969 0.234375 4.359375 0.234375 C 3.347656 0.234375 2.574219 -0.078125 2.046875 -0.703125 C 1.515625 -1.324219 1.25 -2.226562 1.25 -3.40625 Z M 1.25 -3.40625 "/>
</symbol>
<symbol overflow="visible" id="glyph0-17">
<path style="stroke:none;" d="M 6 -1.8125 C 6.601562 -1.8125 7.0625 -2.03125 7.375 -2.46875 C 7.683594 -2.902344 7.84375 -3.539062 7.84375 -4.375 C 7.84375 -5.207031 7.683594 -5.84375 7.375 -6.28125 C 7.0625 -6.714844 6.601562 -6.9375 6 -6.9375 C 5.40625 -6.9375 4.945312 -6.710938 4.625 -6.265625 C 4.300781 -5.828125 4.140625 -5.195312 4.140625 -4.375 C 4.140625 -3.539062 4.300781 -2.902344 4.625 -2.46875 C 4.945312 -2.03125 5.40625 -1.8125 6 -1.8125 Z M 4.140625 -7.46875 C 4.523438 -7.976562 4.953125 -8.351562 5.421875 -8.59375 C 5.886719 -8.839844 6.429688 -8.96875 7.046875 -8.96875 C 8.117188 -8.96875 9 -8.535156 9.6875 -7.671875 C 10.382812 -6.816406 10.734375 -5.714844 10.734375 -4.375 C 10.734375 -3.019531 10.382812 -1.910156 9.6875 -1.046875 C 9 -0.191406 8.117188 0.234375 7.046875 0.234375 C 6.429688 0.234375 5.886719 0.113281 5.421875 -0.125 C 4.953125 -0.371094 4.523438 -0.753906 4.140625 -1.265625 L 4.140625 0 L 1.34375 0 L 1.34375 -12.15625 L 4.140625 -12.15625 Z M 4.140625 -7.46875 "/>
</symbol>
<symbol overflow="visible" id="glyph0-18">
<path style="stroke:none;" d="M 1.34375 -8.75 L 4.140625 -8.75 L 4.140625 0 L 1.34375 0 Z M 1.34375 -12.15625 L 4.140625 -12.15625 L 4.140625 -9.875 L 1.34375 -9.875 Z M 1.34375 -12.15625 "/>
</symbol>
<symbol overflow="visible" id="glyph0-19">
<path style="stroke:none;" d="M 6.140625 -7.15625 C 6.617188 -7.15625 6.976562 -7.257812 7.21875 -7.46875 C 7.464844 -7.675781 7.59375 -7.984375 7.59375 -8.390625 C 7.59375 -8.785156 7.464844 -9.085938 7.21875 -9.296875 C 6.976562 -9.511719 6.617188 -9.625 6.140625 -9.625 L 4.484375 -9.625 L 4.484375 -7.15625 Z M 6.25 -2.046875 C 6.851562 -2.046875 7.304688 -2.171875 7.609375 -2.421875 C 7.910156 -2.679688 8.0625 -3.070312 8.0625 -3.59375 C 8.0625 -4.089844 7.910156 -4.46875 7.609375 -4.71875 C 7.304688 -4.976562 6.851562 -5.109375 6.25 -5.109375 L 4.484375 -5.109375 L 4.484375 -2.046875 Z M 9.046875 -6.25 C 9.691406 -6.0625 10.191406 -5.710938 10.546875 -5.203125 C 10.898438 -4.703125 11.078125 -4.082031 11.078125 -3.34375 C 11.078125 -2.21875 10.695312 -1.378906 9.9375 -0.828125 C 9.175781 -0.273438 8.019531 0 6.46875 0 L 1.46875 0 L 1.46875 -11.671875 L 5.984375 -11.671875 C 7.605469 -11.671875 8.78125 -11.425781 9.5 -10.9375 C 10.226562 -10.445312 10.59375 -9.660156 10.59375 -8.578125 C 10.59375 -8.015625 10.457031 -7.527344 10.1875 -7.125 C 9.925781 -6.726562 9.542969 -6.433594 9.046875 -6.25 Z M 9.046875 -6.25 "/>
</symbol>
<symbol overflow="visible" id="glyph0-20">
<path style="stroke:none;" d="M 1.34375 -8.75 L 4.140625 -8.75 L 4.140625 -0.15625 C 4.140625 1.019531 3.855469 1.914062 3.296875 2.53125 C 2.734375 3.144531 1.917969 3.453125 0.859375 3.453125 L -0.53125 3.453125 L -0.53125 1.625 L -0.046875 1.625 C 0.480469 1.625 0.847656 1.503906 1.046875 1.265625 C 1.242188 1.023438 1.34375 0.550781 1.34375 -0.15625 Z M 1.34375 -12.15625 L 4.140625 -12.15625 L 4.140625 -9.875 L 1.34375 -9.875 Z M 1.34375 -12.15625 "/>
</symbol>
<symbol overflow="visible" id="glyph0-21">
<path style="stroke:none;" d="M 7.109375 -12.15625 L 7.109375 -10.328125 L 5.5625 -10.328125 C 5.164062 -10.328125 4.886719 -10.253906 4.734375 -10.109375 C 4.578125 -9.960938 4.5 -9.710938 4.5 -9.359375 L 4.5 -8.75 L 6.890625 -8.75 L 6.890625 -6.75 L 4.5 -6.75 L 4.5 0 L 1.703125 0 L 1.703125 -6.75 L 0.3125 -6.75 L 0.3125 -8.75 L 1.703125 -8.75 L 1.703125 -9.359375 C 1.703125 -10.316406 1.96875 -11.019531 2.5 -11.46875 C 3.027344 -11.925781 3.851562 -12.15625 4.96875 -12.15625 Z M 7.109375 -12.15625 "/>
</symbol>
<symbol overflow="visible" id="glyph0-22">
<path style="stroke:none;" d="M -0.15625 -11.671875 L 3.140625 -11.671875 L 5.796875 -7.515625 L 8.453125 -11.671875 L 11.75 -11.671875 L 7.296875 -4.921875 L 7.296875 0 L 4.296875 0 L 4.296875 -4.921875 Z M -0.15625 -11.671875 "/>
</symbol>
<symbol overflow="visible" id="glyph0-23">
<path style="stroke:none;" d="M 4.140625 -1.265625 L 4.140625 3.328125 L 1.34375 3.328125 L 1.34375 -8.75 L 4.140625 -8.75 L 4.140625 -7.46875 C 4.523438 -7.976562 4.953125 -8.351562 5.421875 -8.59375 C 5.886719 -8.839844 6.429688 -8.96875 7.046875 -8.96875 C 8.117188 -8.96875 9 -8.535156 9.6875 -7.671875 C 10.382812 -6.816406 10.734375 -5.714844 10.734375 -4.375 C 10.734375 -3.019531 10.382812 -1.910156 9.6875 -1.046875 C 9 -0.191406 8.117188 0.234375 7.046875 0.234375 C 6.429688 0.234375 5.886719 0.113281 5.421875 -0.125 C 4.953125 -0.371094 4.523438 -0.753906 4.140625 -1.265625 Z M 6 -6.9375 C 5.40625 -6.9375 4.945312 -6.710938 4.625 -6.265625 C 4.300781 -5.828125 4.140625 -5.195312 4.140625 -4.375 C 4.140625 -3.539062 4.300781 -2.902344 4.625 -2.46875 C 4.945312 -2.03125 5.40625 -1.8125 6 -1.8125 C 6.601562 -1.8125 7.0625 -2.03125 7.375 -2.46875 C 7.683594 -2.902344 7.84375 -3.539062 7.84375 -4.375 C 7.84375 -5.207031 7.683594 -5.84375 7.375 -6.28125 C 7.0625 -6.714844 6.601562 -6.9375 6 -6.9375 Z M 6 -6.9375 "/>
</symbol>
<symbol overflow="visible" id="glyph0-24">
<path style="stroke:none;" d="M 4.609375 -2.21875 L 9.75 -2.21875 L 9.75 0 L 1.265625 0 L 1.265625 -2.21875 L 5.53125 -5.96875 C 5.902344 -6.308594 6.179688 -6.644531 6.359375 -6.96875 C 6.542969 -7.300781 6.640625 -7.644531 6.640625 -8 C 6.640625 -8.550781 6.457031 -8.992188 6.09375 -9.328125 C 5.726562 -9.660156 5.238281 -9.828125 4.625 -9.828125 C 4.15625 -9.828125 3.636719 -9.722656 3.078125 -9.515625 C 2.523438 -9.316406 1.929688 -9.019531 1.296875 -8.625 L 1.296875 -11.1875 C 1.972656 -11.414062 2.640625 -11.585938 3.296875 -11.703125 C 3.960938 -11.816406 4.613281 -11.875 5.25 -11.875 C 6.644531 -11.875 7.726562 -11.566406 8.5 -10.953125 C 9.277344 -10.335938 9.671875 -9.480469 9.671875 -8.390625 C 9.671875 -7.753906 9.503906 -7.160156 9.171875 -6.609375 C 8.847656 -6.054688 8.160156 -5.320312 7.109375 -4.40625 Z M 4.609375 -2.21875 "/>
</symbol>
<symbol overflow="visible" id="glyph0-25">
<path style="stroke:none;" d="M 7.359375 -5.84375 C 7.359375 -7.300781 7.222656 -8.328125 6.953125 -8.921875 C 6.679688 -9.523438 6.222656 -9.828125 5.578125 -9.828125 C 4.929688 -9.828125 4.464844 -9.523438 4.1875 -8.921875 C 3.914062 -8.328125 3.78125 -7.300781 3.78125 -5.84375 C 3.78125 -4.375 3.914062 -3.335938 4.1875 -2.734375 C 4.464844 -2.128906 4.929688 -1.828125 5.578125 -1.828125 C 6.210938 -1.828125 6.664062 -2.128906 6.9375 -2.734375 C 7.214844 -3.335938 7.359375 -4.375 7.359375 -5.84375 Z M 10.375 -5.828125 C 10.375 -3.890625 9.957031 -2.394531 9.125 -1.34375 C 8.289062 -0.289062 7.105469 0.234375 5.578125 0.234375 C 4.035156 0.234375 2.847656 -0.289062 2.015625 -1.34375 C 1.179688 -2.394531 0.765625 -3.890625 0.765625 -5.828125 C 0.765625 -7.761719 1.179688 -9.253906 2.015625 -10.296875 C 2.847656 -11.347656 4.035156 -11.875 5.578125 -11.875 C 7.105469 -11.875 8.289062 -11.347656 9.125 -10.296875 C 9.957031 -9.253906 10.375 -7.761719 10.375 -5.828125 Z M 10.375 -5.828125 "/>
</symbol>
<symbol overflow="visible" id="glyph0-26">
<path style="stroke:none;" d="M 1.078125 -11.671875 L 9.859375 -11.671875 L 9.859375 -9.96875 L 5.3125 0 L 2.390625 0 L 6.6875 -9.453125 L 1.078125 -9.453125 Z M 1.078125 -11.671875 "/>
</symbol>
<symbol overflow="visible" id="glyph0-27">
<path style="stroke:none;" d="M 1.875 -2.078125 L 4.53125 -2.078125 L 4.53125 -9.625 L 1.8125 -9.0625 L 1.8125 -11.109375 L 4.515625 -11.671875 L 7.375 -11.671875 L 7.375 -2.078125 L 10.03125 -2.078125 L 10.03125 0 L 1.875 0 Z M 1.875 -2.078125 "/>
</symbol>
<symbol overflow="visible" id="glyph0-28">
<path style="stroke:none;" d="M 5.890625 -9.1875 L 2.59375 -4.3125 L 5.890625 -4.3125 Z M 5.390625 -11.671875 L 8.734375 -11.671875 L 8.734375 -4.3125 L 10.40625 -4.3125 L 10.40625 -2.125 L 8.734375 -2.125 L 8.734375 0 L 5.890625 0 L 5.890625 -2.125 L 0.71875 -2.125 L 0.71875 -4.703125 Z M 5.390625 -11.671875 "/>
</symbol>
<symbol overflow="visible" id="glyph0-29">
<path style="stroke:none;" d="M 1.703125 -11.671875 L 9.171875 -11.671875 L 9.171875 -9.453125 L 4.09375 -9.453125 L 4.09375 -7.65625 C 4.320312 -7.714844 4.550781 -7.765625 4.78125 -7.796875 C 5.019531 -7.824219 5.265625 -7.84375 5.515625 -7.84375 C 6.929688 -7.84375 8.035156 -7.488281 8.828125 -6.78125 C 9.617188 -6.070312 10.015625 -5.082031 10.015625 -3.8125 C 10.015625 -2.550781 9.582031 -1.558594 8.71875 -0.84375 C 7.863281 -0.125 6.667969 0.234375 5.140625 0.234375 C 4.472656 0.234375 3.816406 0.164062 3.171875 0.03125 C 2.523438 -0.0898438 1.878906 -0.285156 1.234375 -0.546875 L 1.234375 -2.921875 C 1.867188 -2.554688 2.472656 -2.277344 3.046875 -2.09375 C 3.617188 -1.914062 4.15625 -1.828125 4.65625 -1.828125 C 5.382812 -1.828125 5.957031 -2.003906 6.375 -2.359375 C 6.800781 -2.710938 7.015625 -3.195312 7.015625 -3.8125 C 7.015625 -4.425781 6.800781 -4.910156 6.375 -5.265625 C 5.957031 -5.617188 5.382812 -5.796875 4.65625 -5.796875 C 4.226562 -5.796875 3.769531 -5.738281 3.28125 -5.625 C 2.789062 -5.507812 2.261719 -5.335938 1.703125 -5.109375 Z M 1.703125 -11.671875 "/>
</symbol>
<symbol overflow="visible" id="glyph1-0">
<path style="stroke:none;" d="M 0.65625 2.296875 L 0.65625 -9.171875 L 7.15625 -9.171875 L 7.15625 2.296875 Z M 1.390625 1.578125 L 6.4375 1.578125 L 6.4375 -8.4375 L 1.390625 -8.4375 Z M 1.390625 1.578125 "/>
</symbol>
<symbol overflow="visible" id="glyph1-1">
<path style="stroke:none;" d="M 4.4375 -7.4375 L 4.4375 -4.609375 L 7.265625 -4.609375 L 7.265625 -3.53125 L 4.4375 -3.53125 L 4.4375 -0.71875 L 3.375 -0.71875 L 3.375 -3.53125 L 0.5625 -3.53125 L 0.5625 -4.609375 L 3.375 -4.609375 L 3.375 -7.4375 Z M 4.4375 -7.4375 "/>
</symbol>
<symbol overflow="visible" id="glyph1-2">
<path style="stroke:none;" d="M 4.0625 -2.578125 C 4.0625 -2.054688 4.15625 -1.660156 4.34375 -1.390625 C 4.539062 -1.117188 4.828125 -0.984375 5.203125 -0.984375 L 6.5625 -0.984375 L 6.5625 0 L 5.078125 0 C 4.378906 0 3.835938 -0.222656 3.453125 -0.671875 C 3.078125 -1.117188 2.890625 -1.753906 2.890625 -2.578125 L 2.890625 -9.03125 L 1.015625 -9.03125 L 1.015625 -9.953125 L 4.0625 -9.953125 Z M 4.0625 -2.578125 "/>
</symbol>
<symbol overflow="visible" id="glyph1-3">
<path style="stroke:none;" d="M 3.90625 -6.296875 C 3.3125 -6.296875 2.863281 -6.058594 2.5625 -5.59375 C 2.257812 -5.132812 2.109375 -4.449219 2.109375 -3.546875 C 2.109375 -2.648438 2.257812 -1.964844 2.5625 -1.5 C 2.863281 -1.039062 3.3125 -0.8125 3.90625 -0.8125 C 4.507812 -0.8125 4.960938 -1.039062 5.265625 -1.5 C 5.566406 -1.964844 5.71875 -2.648438 5.71875 -3.546875 C 5.71875 -4.449219 5.566406 -5.132812 5.265625 -5.59375 C 4.960938 -6.058594 4.507812 -6.296875 3.90625 -6.296875 Z M 3.90625 -7.28125 C 4.894531 -7.28125 5.648438 -6.957031 6.171875 -6.3125 C 6.691406 -5.675781 6.953125 -4.753906 6.953125 -3.546875 C 6.953125 -2.335938 6.691406 -1.410156 6.171875 -0.765625 C 5.648438 -0.128906 4.894531 0.1875 3.90625 0.1875 C 2.925781 0.1875 2.175781 -0.128906 1.65625 -0.765625 C 1.132812 -1.410156 0.875 -2.335938 0.875 -3.546875 C 0.875 -4.753906 1.132812 -5.675781 1.65625 -6.3125 C 2.175781 -6.957031 2.925781 -7.28125 3.90625 -7.28125 Z M 3.90625 -7.28125 "/>
</symbol>
<symbol overflow="visible" id="glyph1-4">
<path style="stroke:none;" d="M 6.671875 -4.40625 L 6.671875 0 L 5.5 0 L 5.5 -4.40625 C 5.5 -5.039062 5.382812 -5.507812 5.15625 -5.8125 C 4.9375 -6.113281 4.585938 -6.265625 4.109375 -6.265625 C 3.554688 -6.265625 3.132812 -6.070312 2.84375 -5.6875 C 2.550781 -5.300781 2.40625 -4.742188 2.40625 -4.015625 L 2.40625 0 L 1.234375 0 L 1.234375 -7.109375 L 2.40625 -7.109375 L 2.40625 -6.046875 C 2.613281 -6.449219 2.894531 -6.757812 3.25 -6.96875 C 3.601562 -7.175781 4.023438 -7.28125 4.515625 -7.28125 C 5.230469 -7.28125 5.769531 -7.039062 6.125 -6.5625 C 6.488281 -6.09375 6.671875 -5.371094 6.671875 -4.40625 Z M 6.671875 -4.40625 "/>
</symbol>
<symbol overflow="visible" id="glyph1-5">
<path style="stroke:none;" d="M 5.453125 -3.609375 C 5.453125 -4.480469 5.304688 -5.148438 5.015625 -5.609375 C 4.734375 -6.066406 4.316406 -6.296875 3.765625 -6.296875 C 3.191406 -6.296875 2.753906 -6.066406 2.453125 -5.609375 C 2.160156 -5.148438 2.015625 -4.480469 2.015625 -3.609375 C 2.015625 -2.734375 2.164062 -2.066406 2.46875 -1.609375 C 2.769531 -1.148438 3.207031 -0.921875 3.78125 -0.921875 C 4.320312 -0.921875 4.734375 -1.148438 5.015625 -1.609375 C 5.304688 -2.066406 5.453125 -2.734375 5.453125 -3.609375 Z M 6.609375 -0.453125 C 6.609375 0.605469 6.355469 1.414062 5.859375 1.96875 C 5.359375 2.519531 4.617188 2.796875 3.640625 2.796875 C 3.316406 2.796875 2.976562 2.761719 2.625 2.703125 C 2.269531 2.640625 1.917969 2.550781 1.578125 2.4375 L 1.578125 1.28125 C 1.992188 1.476562 2.367188 1.625 2.703125 1.71875 C 3.042969 1.808594 3.359375 1.859375 3.640625 1.859375 C 4.261719 1.859375 4.722656 1.683594 5.015625 1.34375 C 5.304688 1 5.453125 0.457031 5.453125 -0.28125 L 5.453125 -1.125 C 5.265625 -0.726562 5.007812 -0.429688 4.6875 -0.234375 C 4.363281 -0.046875 3.972656 0.046875 3.515625 0.046875 C 2.679688 0.046875 2.011719 -0.28125 1.515625 -0.9375 C 1.023438 -1.601562 0.78125 -2.492188 0.78125 -3.609375 C 0.78125 -4.722656 1.023438 -5.613281 1.515625 -6.28125 C 2.011719 -6.945312 2.679688 -7.28125 3.515625 -7.28125 C 3.972656 -7.28125 4.359375 -7.183594 4.671875 -7 C 4.980469 -6.820312 5.242188 -6.539062 5.453125 -6.15625 L 5.453125 -7.078125 L 6.609375 -7.078125 Z M 6.609375 -0.453125 "/>
</symbol>
<symbol overflow="visible" id="glyph1-6">
<path style="stroke:none;" d="M 1.625 -7.109375 L 4.609375 -7.109375 L 4.609375 -0.90625 L 6.9375 -0.90625 L 6.9375 0 L 1.125 0 L 1.125 -0.90625 L 3.453125 -0.90625 L 3.453125 -6.203125 L 1.625 -6.203125 Z M 3.453125 -9.875 L 4.609375 -9.875 L 4.609375 -8.390625 L 3.453125 -8.390625 Z M 3.453125 -9.875 "/>
</symbol>
<symbol overflow="visible" id="glyph1-7">
<path style="stroke:none;" d="M 3.890625 -9.125 L 3.890625 -7.109375 L 6.546875 -7.109375 L 6.546875 -6.203125 L 3.890625 -6.203125 L 3.890625 -2.34375 C 3.890625 -1.820312 3.988281 -1.457031 4.1875 -1.25 C 4.394531 -1.039062 4.742188 -0.9375 5.234375 -0.9375 L 6.546875 -0.9375 L 6.546875 0 L 5.125 0 C 4.25 0 3.628906 -0.171875 3.265625 -0.515625 C 2.910156 -0.867188 2.734375 -1.476562 2.734375 -2.34375 L 2.734375 -6.203125 L 0.828125 -6.203125 L 0.828125 -7.109375 L 2.734375 -7.109375 L 2.734375 -9.125 Z M 3.890625 -9.125 "/>
</symbol>
<symbol overflow="visible" id="glyph1-8">
<path style="stroke:none;" d="M 1.234375 -2.6875 L 1.234375 -7.09375 L 2.40625 -7.09375 L 2.40625 -2.6875 C 2.40625 -2.050781 2.515625 -1.582031 2.734375 -1.28125 C 2.960938 -0.976562 3.316406 -0.828125 3.796875 -0.828125 C 4.347656 -0.828125 4.769531 -1.019531 5.0625 -1.40625 C 5.351562 -1.800781 5.5 -2.359375 5.5 -3.078125 L 5.5 -7.09375 L 6.671875 -7.09375 L 6.671875 0 L 5.5 0 L 5.5 -1.0625 C 5.289062 -0.65625 5.003906 -0.339844 4.640625 -0.125 C 4.285156 0.0820312 3.867188 0.1875 3.390625 0.1875 C 2.660156 0.1875 2.117188 -0.0507812 1.765625 -0.53125 C 1.410156 -1.007812 1.234375 -1.726562 1.234375 -2.6875 Z M 1.234375 -2.6875 "/>
</symbol>
<symbol overflow="visible" id="glyph1-9">
<path style="stroke:none;" d="M 5.453125 -6.203125 L 5.453125 -9.875 L 6.609375 -9.875 L 6.609375 0 L 5.453125 0 L 5.453125 -0.890625 C 5.253906 -0.546875 4.992188 -0.277344 4.671875 -0.09375 C 4.347656 0.0898438 3.972656 0.1875 3.546875 0.1875 C 2.691406 0.1875 2.011719 -0.144531 1.515625 -0.8125 C 1.023438 -1.476562 0.78125 -2.398438 0.78125 -3.578125 C 0.78125 -4.730469 1.023438 -5.640625 1.515625 -6.296875 C 2.011719 -6.949219 2.691406 -7.28125 3.546875 -7.28125 C 3.972656 -7.28125 4.347656 -7.183594 4.671875 -7 C 5.003906 -6.820312 5.265625 -6.554688 5.453125 -6.203125 Z M 2.015625 -3.546875 C 2.015625 -2.640625 2.15625 -1.957031 2.4375 -1.5 C 2.726562 -1.039062 3.15625 -0.8125 3.71875 -0.8125 C 4.277344 -0.8125 4.707031 -1.039062 5 -1.5 C 5.300781 -1.964844 5.453125 -2.648438 5.453125 -3.546875 C 5.453125 -4.449219 5.300781 -5.132812 5 -5.59375 C 4.707031 -6.058594 4.277344 -6.296875 3.71875 -6.296875 C 3.15625 -6.296875 2.726562 -6.058594 2.4375 -5.59375 C 2.15625 -5.132812 2.015625 -4.449219 2.015625 -3.546875 Z M 2.015625 -3.546875 "/>
</symbol>
<symbol overflow="visible" id="glyph1-10">
<path style="stroke:none;" d="M 6.171875 -6.859375 L 6.171875 -5.71875 C 5.835938 -5.914062 5.496094 -6.0625 5.15625 -6.15625 C 4.820312 -6.246094 4.476562 -6.296875 4.125 -6.296875 C 3.601562 -6.296875 3.210938 -6.210938 2.953125 -6.046875 C 2.691406 -5.878906 2.5625 -5.617188 2.5625 -5.265625 C 2.5625 -4.941406 2.65625 -4.699219 2.84375 -4.546875 C 3.039062 -4.390625 3.523438 -4.238281 4.296875 -4.09375 L 4.78125 -4 C 5.351562 -3.894531 5.785156 -3.675781 6.078125 -3.34375 C 6.378906 -3.007812 6.53125 -2.582031 6.53125 -2.0625 C 6.53125 -1.351562 6.277344 -0.800781 5.78125 -0.40625 C 5.289062 -0.0078125 4.597656 0.1875 3.703125 0.1875 C 3.359375 0.1875 2.992188 0.148438 2.609375 0.078125 C 2.222656 0.00390625 1.804688 -0.109375 1.359375 -0.265625 L 1.359375 -1.46875 C 1.785156 -1.238281 2.195312 -1.066406 2.59375 -0.953125 C 2.996094 -0.847656 3.378906 -0.796875 3.734375 -0.796875 C 4.242188 -0.796875 4.640625 -0.898438 4.921875 -1.109375 C 5.210938 -1.316406 5.359375 -1.609375 5.359375 -1.984375 C 5.359375 -2.523438 4.835938 -2.898438 3.796875 -3.109375 L 3.75 -3.125 L 3.3125 -3.21875 C 2.632812 -3.339844 2.136719 -3.5625 1.828125 -3.875 C 1.523438 -4.183594 1.375 -4.609375 1.375 -5.140625 C 1.375 -5.824219 1.601562 -6.351562 2.0625 -6.71875 C 2.527344 -7.089844 3.191406 -7.28125 4.046875 -7.28125 C 4.417969 -7.28125 4.785156 -7.242188 5.140625 -7.171875 C 5.492188 -7.109375 5.835938 -7.003906 6.171875 -6.859375 Z M 6.171875 -6.859375 "/>
</symbol>
<symbol overflow="visible" id="glyph1-11">
<path style="stroke:none;" d="M 7.0625 -3.84375 L 7.0625 -3.28125 L 2 -3.28125 L 2 -3.234375 C 2 -2.460938 2.203125 -1.863281 2.609375 -1.4375 C 3.011719 -1.019531 3.582031 -0.8125 4.3125 -0.8125 C 4.683594 -0.8125 5.078125 -0.867188 5.484375 -0.984375 C 5.886719 -1.097656 6.320312 -1.28125 6.78125 -1.53125 L 6.78125 -0.359375 C 6.34375 -0.179688 5.914062 -0.0429688 5.5 0.046875 C 5.082031 0.136719 4.679688 0.1875 4.296875 0.1875 C 3.191406 0.1875 2.324219 -0.140625 1.703125 -0.796875 C 1.085938 -1.460938 0.78125 -2.378906 0.78125 -3.546875 C 0.78125 -4.679688 1.082031 -5.585938 1.6875 -6.265625 C 2.300781 -6.941406 3.113281 -7.28125 4.125 -7.28125 C 5.027344 -7.28125 5.742188 -6.972656 6.265625 -6.359375 C 6.792969 -5.742188 7.0625 -4.902344 7.0625 -3.84375 Z M 5.890625 -4.1875 C 5.867188 -4.871094 5.699219 -5.394531 5.390625 -5.75 C 5.085938 -6.113281 4.648438 -6.296875 4.078125 -6.296875 C 3.515625 -6.296875 3.050781 -6.105469 2.6875 -5.734375 C 2.320312 -5.359375 2.105469 -4.839844 2.046875 -4.1875 Z M 5.890625 -4.1875 "/>
</symbol>
<symbol overflow="visible" id="glyph1-12">
<path style="stroke:none;" d="M 1.28125 -9.484375 L 6.53125 -9.484375 L 6.53125 -8.390625 L 4.546875 -8.390625 L 4.546875 -1.078125 L 6.53125 -1.078125 L 6.53125 0 L 1.28125 0 L 1.28125 -1.078125 L 3.265625 -1.078125 L 3.265625 -8.390625 L 1.28125 -8.390625 Z M 1.28125 -9.484375 "/>
</symbol>
<symbol overflow="visible" id="glyph1-13">
<path style="stroke:none;" d="M 1.4375 -7.125 L 6.609375 -7.125 L 6.609375 -6.0625 L 2.515625 -0.953125 L 6.609375 -0.953125 L 6.609375 0 L 1.28125 0 L 1.28125 -1.078125 L 5.375 -6.1875 L 1.4375 -6.1875 Z M 1.4375 -7.125 "/>
</symbol>
<symbol overflow="visible" id="glyph1-14">
<path style="stroke:none;" d="M 2.109375 -3.515625 C 2.109375 -2.617188 2.25 -1.933594 2.53125 -1.46875 C 2.820312 -1.007812 3.25 -0.78125 3.8125 -0.78125 C 4.371094 -0.78125 4.796875 -1.007812 5.078125 -1.46875 C 5.367188 -1.933594 5.515625 -2.617188 5.515625 -3.515625 C 5.515625 -4.417969 5.367188 -5.101562 5.078125 -5.5625 C 4.796875 -6.027344 4.371094 -6.265625 3.8125 -6.265625 C 3.25 -6.265625 2.820312 -6.027344 2.53125 -5.5625 C 2.25 -5.101562 2.109375 -4.417969 2.109375 -3.515625 Z M 5.515625 -0.875 C 5.328125 -0.53125 5.070312 -0.261719 4.75 -0.078125 C 4.425781 0.105469 4.050781 0.203125 3.625 0.203125 C 2.769531 0.203125 2.097656 -0.125 1.609375 -0.78125 C 1.117188 -1.433594 0.875 -2.34375 0.875 -3.5 C 0.875 -4.675781 1.117188 -5.59375 1.609375 -6.25 C 2.097656 -6.914062 2.769531 -7.25 3.625 -7.25 C 4.050781 -7.25 4.425781 -7.152344 4.75 -6.96875 C 5.070312 -6.789062 5.328125 -6.523438 5.515625 -6.171875 L 5.515625 -7.078125 L 6.703125 -7.078125 L 6.703125 2.734375 L 5.515625 2.734375 Z M 5.515625 -0.875 "/>
</symbol>
<symbol overflow="visible" id="glyph1-15">
<path style="stroke:none;" d="M 2.765625 -1.046875 C 3.847656 -1.046875 4.601562 -1.3125 5.03125 -1.84375 C 5.457031 -2.371094 5.671875 -3.335938 5.671875 -4.734375 C 5.671875 -6.128906 5.457031 -7.09375 5.03125 -7.625 C 4.601562 -8.152344 3.847656 -8.421875 2.765625 -8.421875 L 2.15625 -8.421875 L 2.15625 -1.046875 Z M 2.796875 -9.484375 C 4.242188 -9.484375 5.304688 -9.097656 5.984375 -8.328125 C 6.667969 -7.554688 7.015625 -6.355469 7.015625 -4.734375 C 7.015625 -3.109375 6.667969 -1.910156 5.984375 -1.140625 C 5.304688 -0.378906 4.242188 0 2.796875 0 L 0.875 0 L 0.875 -9.484375 Z M 2.796875 -9.484375 "/>
</symbol>
<symbol overflow="visible" id="glyph1-16">
<path style="stroke:none;" d="M 7.328125 -5.640625 C 7.078125 -5.835938 6.820312 -5.976562 6.5625 -6.0625 C 6.3125 -6.152344 6.027344 -6.203125 5.71875 -6.203125 C 4.988281 -6.203125 4.429688 -5.972656 4.046875 -5.515625 C 3.660156 -5.054688 3.46875 -4.394531 3.46875 -3.53125 L 3.46875 0 L 2.296875 0 L 2.296875 -7.109375 L 3.46875 -7.109375 L 3.46875 -5.71875 C 3.664062 -6.214844 3.96875 -6.601562 4.375 -6.875 C 4.777344 -7.144531 5.257812 -7.28125 5.8125 -7.28125 C 6.089844 -7.28125 6.359375 -7.242188 6.609375 -7.171875 C 6.855469 -7.097656 7.097656 -6.988281 7.328125 -6.84375 Z M 7.328125 -5.640625 "/>
</symbol>
</g>
</defs>
<g id="surface103063">
<rect x="0" y="0" width="1006" height="335" style="fill:rgb(100%,100%,100%);fill-opacity:1;stroke:none;"/>
<path style="fill-rule:evenodd;fill:rgb(100%,100%,100%);fill-opacity:1;stroke-width:0.1;stroke-linecap:butt;stroke-linejoin:miter;stroke:rgb(0%,0%,0%);stroke-opacity:1;stroke-miterlimit:10;" d="M 27.5 2.5 L 35.832422 2.5 L 35.832422 3.9 L 27.5 3.9 Z M 27.5 2.5 " transform="matrix(20,0,0,20,-79,-49)"/>
<g style="fill:rgb(0%,0%,0%);fill-opacity:1;">
  <use xlink:href="#glyph0-1" x="476.023438" y="20.007867"/>
  <use xlink:href="#glyph0-2" x="483.671821" y="20.007867"/>
  <use xlink:href="#glyph0-3" x="491.562446" y="20.007867"/>
  <use xlink:href="#glyph0-4" x="502.359429" y="20.007867"/>
  <use xlink:href="#glyph0-5" x="519.03125" y="20.007867"/>
  <use xlink:href="#glyph0-6" x="530.023546" y="20.007867"/>
  <use xlink:href="#glyph0-7" x="542.343967" y="20.007867"/>
  <use xlink:href="#glyph0-8" x="553.195475" y="20.007867"/>
  <use xlink:href="#glyph0-1" x="562.679796" y="20.007867"/>
  <use xlink:href="#glyph0-5" x="570.328179" y="20.007867"/>
  <use xlink:href="#glyph0-9" x="581.320475" y="20.007867"/>
  <use xlink:href="#glyph0-3" x="591.515788" y="20.007867"/>
  <use xlink:href="#glyph0-2" x="602.312771" y="20.007867"/>
  <use xlink:href="#glyph0-10" x="610.203396" y="20.007867"/>
  <use xlink:href="#glyph0-5" x="621.656576" y="20.007867"/>
</g>
<path style="fill-rule:evenodd;fill:rgb(100%,100%,100%);fill-opacity:1;stroke-width:0.1;stroke-linecap:butt;stroke-linejoin:miter;stroke:rgb(0%,0%,0%);stroke-opacity:1;stroke-miterlimit:10;" d="M 27.5 3.9 L 35.832422 3.9 L 35.832422 5.7 L 27.5 5.7 Z M 27.5 3.9 " transform="matrix(20,0,0,20,-79,-49)"/>
<g style="fill:rgb(0%,0%,0%);fill-opacity:1;">
  <use xlink:href="#glyph1-1" x="474" y="43.005968"/>
  <use xlink:href="#glyph1-2" x="481.826606" y="43.005968"/>
  <use xlink:href="#glyph1-3" x="489.653212" y="43.005968"/>
  <use xlink:href="#glyph1-4" x="497.479818" y="43.005968"/>
  <use xlink:href="#glyph1-5" x="505.306424" y="43.005968"/>
  <use xlink:href="#glyph1-6" x="513.13303" y="43.005968"/>
  <use xlink:href="#glyph1-7" x="520.959635" y="43.005968"/>
  <use xlink:href="#glyph1-8" x="528.786241" y="43.005968"/>
  <use xlink:href="#glyph1-9" x="536.612847" y="43.005968"/>
</g>
<g style="fill:rgb(0%,0%,0%);fill-opacity:1;">
  <use xlink:href="#glyph1-1" x="474" y="59.005968"/>
  <use xlink:href="#glyph1-10" x="481.826606" y="59.005968"/>
  <use xlink:href="#glyph1-6" x="489.653212" y="59.005968"/>
  <use xlink:href="#glyph1-5" x="497.479818" y="59.005968"/>
  <use xlink:href="#glyph1-8" x="505.306424" y="59.005968"/>
  <use xlink:href="#glyph1-6" x="513.13303" y="59.005968"/>
  <use xlink:href="#glyph1-11" x="520.959635" y="59.005968"/>
  <use xlink:href="#glyph1-4" x="528.786241" y="59.005968"/>
  <use xlink:href="#glyph1-7" x="536.612847" y="59.005968"/>
  <use xlink:href="#glyph1-11" x="544.439453" y="59.005968"/>
</g>
<path style="fill-rule:evenodd;fill:rgb(100%,100%,100%);fill-opacity:1;stroke-width:0.1;stroke-linecap:butt;stroke-linejoin:miter;stroke:rgb(0%,0%,0%);stroke-opacity:1;stroke-miterlimit:10;" d="M 27.5 5.7 L 35.832422 5.7 L 35.832422 6.1 L 27.5 6.1 Z M 27.5 5.7 " transform="matrix(20,0,0,20,-79,-49)"/>
<path style="fill-rule:evenodd;fill:rgb(100%,100%,100%);fill-opacity:1;stroke-width:0.1;stroke-linecap:butt;stroke-linejoin:miter;stroke:rgb(0%,0%,0%);stroke-opacity:1;stroke-miterlimit:10;" d="M 40 12.5 L 48.230078 12.5 L 48.230078 13.9 L 40 13.9 Z M 40 12.5 " transform="matrix(20,0,0,20,-79,-49)"/>
<g style="fill:rgb(0%,0%,0%);fill-opacity:1;">
  <use xlink:href="#glyph0-1" x="726.035156" y="220.007867"/>
  <use xlink:href="#glyph0-2" x="733.683539" y="220.007867"/>
  <use xlink:href="#glyph0-3" x="741.574164" y="220.007867"/>
  <use xlink:href="#glyph0-4" x="752.371148" y="220.007867"/>
  <use xlink:href="#glyph0-5" x="769.042969" y="220.007867"/>
  <use xlink:href="#glyph0-6" x="780.035265" y="220.007867"/>
  <use xlink:href="#glyph0-7" x="792.355686" y="220.007867"/>
  <use xlink:href="#glyph0-8" x="803.207194" y="220.007867"/>
  <use xlink:href="#glyph0-1" x="812.691515" y="220.007867"/>
  <use xlink:href="#glyph0-5" x="820.339898" y="220.007867"/>
  <use xlink:href="#glyph0-11" x="831.332194" y="220.007867"/>
  <use xlink:href="#glyph0-5" x="843.074273" y="220.007867"/>
  <use xlink:href="#glyph0-2" x="854.066569" y="220.007867"/>
  <use xlink:href="#glyph0-1" x="861.957194" y="220.007867"/>
  <use xlink:href="#glyph0-5" x="869.605577" y="220.007867"/>
</g>
<path style="fill-rule:evenodd;fill:rgb(100%,100%,100%);fill-opacity:1;stroke-width:0.1;stroke-linecap:butt;stroke-linejoin:miter;stroke:rgb(0%,0%,0%);stroke-opacity:1;stroke-miterlimit:10;" d="M 40 13.9 L 48.230078 13.9 L 48.230078 15.7 L 40 15.7 Z M 40 13.9 " transform="matrix(20,0,0,20,-79,-49)"/>
<g style="fill:rgb(0%,0%,0%);fill-opacity:1;">
  <use xlink:href="#glyph1-1" x="724" y="243.005968"/>
  <use xlink:href="#glyph1-2" x="731.826606" y="243.005968"/>
  <use xlink:href="#glyph1-3" x="739.653212" y="243.005968"/>
  <use xlink:href="#glyph1-4" x="747.479818" y="243.005968"/>
  <use xlink:href="#glyph1-5" x="755.306424" y="243.005968"/>
  <use xlink:href="#glyph1-6" x="763.13303" y="243.005968"/>
  <use xlink:href="#glyph1-7" x="770.959635" y="243.005968"/>
  <use xlink:href="#glyph1-8" x="778.786241" y="243.005968"/>
  <use xlink:href="#glyph1-9" x="786.612847" y="243.005968"/>
</g>
<g style="fill:rgb(0%,0%,0%);fill-opacity:1;">
  <use xlink:href="#glyph1-1" x="724" y="259.005968"/>
  <use xlink:href="#glyph1-10" x="731.826606" y="259.005968"/>
  <use xlink:href="#glyph1-6" x="739.653212" y="259.005968"/>
  <use xlink:href="#glyph1-5" x="747.479818" y="259.005968"/>
  <use xlink:href="#glyph1-8" x="755.306424" y="259.005968"/>
  <use xlink:href="#glyph1-6" x="763.13303" y="259.005968"/>
  <use xlink:href="#glyph1-11" x="770.959635" y="259.005968"/>
  <use xlink:href="#glyph1-4" x="778.786241" y="259.005968"/>
  <use xlink:href="#glyph1-7" x="786.612847" y="259.005968"/>
  <use xlink:href="#glyph1-11" x="794.439453" y="259.005968"/>
</g>
<path style="fill-rule:evenodd;fill:rgb(100%,100%,100%);fill-opacity:1;stroke-width:0.1;stroke-linecap:butt;stroke-linejoin:miter;stroke:rgb(0%,0%,0%);stroke-opacity:1;stroke-miterlimit:10;" d="M 40 15.7 L 48.230078 15.7 L 48.230078 16.1 L 40 16.1 Z M 40 15.7 " transform="matrix(20,0,0,20,-79,-49)"/>
<path style="fill-rule:evenodd;fill:rgb(100%,100%,100%);fill-opacity:1;stroke-width:0.1;stroke-linecap:butt;stroke-linejoin:miter;stroke:rgb(0%,0%,0%);stroke-opacity:1;stroke-miterlimit:10;" d="M 40 2.5 L 44.35 2.5 L 44.35 3.9 L 40 3.9 Z M 40 2.5 " transform="matrix(20,0,0,20,-79,-49)"/>
<g style="fill:rgb(0%,0%,0%);fill-opacity:1;">
  <use xlink:href="#glyph0-8" x="743.054688" y="20.007867"/>
  <use xlink:href="#glyph0-5" x="752.539008" y="20.007867"/>
  <use xlink:href="#glyph0-12" x="763.531304" y="20.007867"/>
  <use xlink:href="#glyph0-5" x="774.984484" y="20.007867"/>
</g>
<path style="fill-rule:evenodd;fill:rgb(100%,100%,100%);fill-opacity:1;stroke-width:0.1;stroke-linecap:butt;stroke-linejoin:miter;stroke:rgb(0%,0%,0%);stroke-opacity:1;stroke-miterlimit:10;" d="M 40 3.9 L 44.35 3.9 L 44.35 5.7 L 40 5.7 Z M 40 3.9 " transform="matrix(20,0,0,20,-79,-49)"/>
<g style="fill:rgb(0%,0%,0%);fill-opacity:1;">
  <use xlink:href="#glyph1-1" x="724" y="43.005968"/>
  <use xlink:href="#glyph1-2" x="731.826606" y="43.005968"/>
  <use xlink:href="#glyph1-3" x="739.653212" y="43.005968"/>
  <use xlink:href="#glyph1-4" x="747.479818" y="43.005968"/>
  <use xlink:href="#glyph1-5" x="755.306424" y="43.005968"/>
  <use xlink:href="#glyph1-6" x="763.13303" y="43.005968"/>
  <use xlink:href="#glyph1-7" x="770.959635" y="43.005968"/>
  <use xlink:href="#glyph1-8" x="778.786241" y="43.005968"/>
  <use xlink:href="#glyph1-9" x="786.612847" y="43.005968"/>
</g>
<g style="fill:rgb(0%,0%,0%);fill-opacity:1;">
  <use xlink:href="#glyph1-1" x="724" y="59.005968"/>
  <use xlink:href="#glyph1-10" x="731.826606" y="59.005968"/>
  <use xlink:href="#glyph1-6" x="739.653212" y="59.005968"/>
  <use xlink:href="#glyph1-5" x="747.479818" y="59.005968"/>
  <use xlink:href="#glyph1-8" x="755.306424" y="59.005968"/>
  <use xlink:href="#glyph1-6" x="763.13303" y="59.005968"/>
  <use xlink:href="#glyph1-11" x="770.959635" y="59.005968"/>
  <use xlink:href="#glyph1-4" x="778.786241" y="59.005968"/>
  <use xlink:href="#glyph1-7" x="786.612847" y="59.005968"/>
  <use xlink:href="#glyph1-11" x="794.439453" y="59.005968"/>
</g>
<path style="fill-rule:evenodd;fill:rgb(100%,100%,100%);fill-opacity:1;stroke-width:0.1;stroke-linecap:butt;stroke-linejoin:miter;stroke:rgb(0%,0%,0%);stroke-opacity:1;stroke-miterlimit:10;" d="M 40 5.7 L 44.35 5.7 L 44.35 6.1 L 40 6.1 Z M 40 5.7 " transform="matrix(20,0,0,20,-79,-49)"/>
<path style="fill-rule:evenodd;fill:rgb(100%,100%,100%);fill-opacity:1;stroke-width:0.1;stroke-linecap:butt;stroke-linejoin:miter;stroke:rgb(0%,0%,0%);stroke-opacity:1;stroke-miterlimit:10;" d="M 5 7.5 L 12.422461 7.5 L 12.422461 8.9 L 5 8.9 Z M 5 7.5 " transform="matrix(20,0,0,20,-79,-49)"/>
<g style="fill:rgb(0%,0%,0%);fill-opacity:1;">
  <use xlink:href="#glyph0-1" x="26.027344" y="120.007867"/>
  <use xlink:href="#glyph0-2" x="33.675727" y="120.007867"/>
  <use xlink:href="#glyph0-3" x="41.566352" y="120.007867"/>
  <use xlink:href="#glyph0-4" x="52.363336" y="120.007867"/>
  <use xlink:href="#glyph0-5" x="69.035156" y="120.007867"/>
  <use xlink:href="#glyph0-13" x="80.027452" y="120.007867"/>
  <use xlink:href="#glyph0-14" x="90.957086" y="120.007867"/>
  <use xlink:href="#glyph0-15" x="102.347602" y="120.007867"/>
  <use xlink:href="#glyph0-16" x="113.871039" y="120.007867"/>
  <use xlink:href="#glyph0-17" x="125.261556" y="120.007867"/>
  <use xlink:href="#glyph0-18" x="136.714735" y="120.007867"/>
  <use xlink:href="#glyph0-12" x="142.199219" y="120.007867"/>
  <use xlink:href="#glyph0-3" x="153.652398" y="120.007867"/>
</g>
<path style="fill-rule:evenodd;fill:rgb(100%,100%,100%);fill-opacity:1;stroke-width:0.1;stroke-linecap:butt;stroke-linejoin:miter;stroke:rgb(0%,0%,0%);stroke-opacity:1;stroke-miterlimit:10;" d="M 5 8.9 L 12.422461 8.9 L 12.422461 10.7 L 5 10.7 Z M 5 8.9 " transform="matrix(20,0,0,20,-79,-49)"/>
<g style="fill:rgb(0%,0%,0%);fill-opacity:1;">
  <use xlink:href="#glyph1-1" x="24" y="143.005968"/>
  <use xlink:href="#glyph1-2" x="31.826606" y="143.005968"/>
  <use xlink:href="#glyph1-3" x="39.653212" y="143.005968"/>
  <use xlink:href="#glyph1-4" x="47.479818" y="143.005968"/>
  <use xlink:href="#glyph1-5" x="55.306424" y="143.005968"/>
  <use xlink:href="#glyph1-6" x="63.13303" y="143.005968"/>
  <use xlink:href="#glyph1-7" x="70.959635" y="143.005968"/>
  <use xlink:href="#glyph1-8" x="78.786241" y="143.005968"/>
  <use xlink:href="#glyph1-9" x="86.612847" y="143.005968"/>
</g>
<g style="fill:rgb(0%,0%,0%);fill-opacity:1;">
  <use xlink:href="#glyph1-1" x="24" y="159.005968"/>
  <use xlink:href="#glyph1-10" x="31.826606" y="159.005968"/>
  <use xlink:href="#glyph1-6" x="39.653212" y="159.005968"/>
  <use xlink:href="#glyph1-5" x="47.479818" y="159.005968"/>
  <use xlink:href="#glyph1-8" x="55.306424" y="159.005968"/>
  <use xlink:href="#glyph1-6" x="63.13303" y="159.005968"/>
  <use xlink:href="#glyph1-11" x="70.959635" y="159.005968"/>
  <use xlink:href="#glyph1-4" x="78.786241" y="159.005968"/>
  <use xlink:href="#glyph1-7" x="86.612847" y="159.005968"/>
  <use xlink:href="#glyph1-11" x="94.439453" y="159.005968"/>
</g>
<path style="fill-rule:evenodd;fill:rgb(100%,100%,100%);fill-opacity:1;stroke-width:0.1;stroke-linecap:butt;stroke-linejoin:miter;stroke:rgb(0%,0%,0%);stroke-opacity:1;stroke-miterlimit:10;" d="M 5 10.7 L 12.422461 10.7 L 12.422461 11.1 L 5 11.1 Z M 5 10.7 " transform="matrix(20,0,0,20,-79,-49)"/>
<path style="fill-rule:evenodd;fill:rgb(100%,100%,100%);fill-opacity:1;stroke-width:0.1;stroke-linecap:butt;stroke-linejoin:miter;stroke:rgb(0%,0%,0%);stroke-opacity:1;stroke-miterlimit:10;" d="M 27.5 12.5 L 34.894922 12.5 L 34.894922 13.9 L 27.5 13.9 Z M 27.5 12.5 " transform="matrix(20,0,0,20,-79,-49)"/>
<g style="fill:rgb(0%,0%,0%);fill-opacity:1;">
  <use xlink:href="#glyph0-1" x="476.042969" y="220.007867"/>
  <use xlink:href="#glyph0-2" x="483.691352" y="220.007867"/>
  <use xlink:href="#glyph0-3" x="491.581977" y="220.007867"/>
  <use xlink:href="#glyph0-4" x="502.378961" y="220.007867"/>
  <use xlink:href="#glyph0-5" x="519.050781" y="220.007867"/>
  <use xlink:href="#glyph0-13" x="530.043077" y="220.007867"/>
  <use xlink:href="#glyph0-14" x="540.972711" y="220.007867"/>
  <use xlink:href="#glyph0-19" x="552.363227" y="220.007867"/>
  <use xlink:href="#glyph0-3" x="564.558594" y="220.007867"/>
  <use xlink:href="#glyph0-20" x="575.355577" y="220.007867"/>
  <use xlink:href="#glyph0-3" x="580.840061" y="220.007867"/>
  <use xlink:href="#glyph0-12" x="591.637044" y="220.007867"/>
  <use xlink:href="#glyph0-3" x="603.090224" y="220.007867"/>
</g>
<path style="fill-rule:evenodd;fill:rgb(100%,100%,100%);fill-opacity:1;stroke-width:0.1;stroke-linecap:butt;stroke-linejoin:miter;stroke:rgb(0%,0%,0%);stroke-opacity:1;stroke-miterlimit:10;" d="M 27.5 13.9 L 34.894922 13.9 L 34.894922 15.7 L 27.5 15.7 Z M 27.5 13.9 " transform="matrix(20,0,0,20,-79,-49)"/>
<g style="fill:rgb(0%,0%,0%);fill-opacity:1;">
  <use xlink:href="#glyph1-1" x="474" y="243.005968"/>
  <use xlink:href="#glyph1-2" x="481.826606" y="243.005968"/>
  <use xlink:href="#glyph1-3" x="489.653212" y="243.005968"/>
  <use xlink:href="#glyph1-4" x="497.479818" y="243.005968"/>
  <use xlink:href="#glyph1-5" x="505.306424" y="243.005968"/>
  <use xlink:href="#glyph1-6" x="513.13303" y="243.005968"/>
  <use xlink:href="#glyph1-7" x="520.959635" y="243.005968"/>
  <use xlink:href="#glyph1-8" x="528.786241" y="243.005968"/>
  <use xlink:href="#glyph1-9" x="536.612847" y="243.005968"/>
</g>
<g style="fill:rgb(0%,0%,0%);fill-opacity:1;">
  <use xlink:href="#glyph1-1" x="474" y="259.005968"/>
  <use xlink:href="#glyph1-10" x="481.826606" y="259.005968"/>
  <use xlink:href="#glyph1-6" x="489.653212" y="259.005968"/>
  <use xlink:href="#glyph1-5" x="497.479818" y="259.005968"/>
  <use xlink:href="#glyph1-8" x="505.306424" y="259.005968"/>
  <use xlink:href="#glyph1-6" x="513.13303" y="259.005968"/>
  <use xlink:href="#glyph1-11" x="520.959635" y="259.005968"/>
  <use xlink:href="#glyph1-4" x="528.786241" y="259.005968"/>
  <use xlink:href="#glyph1-7" x="536.612847" y="259.005968"/>
  <use xlink:href="#glyph1-11" x="544.439453" y="259.005968"/>
</g>
<path style="fill-rule:evenodd;fill:rgb(100%,100%,100%);fill-opacity:1;stroke-width:0.1;stroke-linecap:butt;stroke-linejoin:miter;stroke:rgb(0%,0%,0%);stroke-opacity:1;stroke-miterlimit:10;" d="M 27.5 15.7 L 34.894922 15.7 L 34.894922 16.1 L 27.5 16.1 Z M 27.5 15.7 " transform="matrix(20,0,0,20,-79,-49)"/>
<path style="fill-rule:evenodd;fill:rgb(100%,100%,100%);fill-opacity:1;stroke-width:0.1;stroke-linecap:butt;stroke-linejoin:miter;stroke:rgb(0%,0%,0%);stroke-opacity:1;stroke-miterlimit:10;" d="M 16.5 7.5 L 22.625 7.5 L 22.625 8.9 L 16.5 8.9 Z M 16.5 7.5 " transform="matrix(20,0,0,20,-79,-49)"/>
<g style="fill:rgb(0%,0%,0%);fill-opacity:1;">
  <use xlink:href="#glyph0-17" x="256.058594" y="120.007867"/>
  <use xlink:href="#glyph0-18" x="267.511773" y="120.007867"/>
  <use xlink:href="#glyph0-21" x="272.996257" y="120.007867"/>
  <use xlink:href="#glyph0-16" x="279.957248" y="120.007867"/>
  <use xlink:href="#glyph0-2" x="291.347765" y="120.007867"/>
  <use xlink:href="#glyph0-8" x="299.23839" y="120.007867"/>
  <use xlink:href="#glyph0-3" x="308.722711" y="120.007867"/>
  <use xlink:href="#glyph0-8" x="319.519694" y="120.007867"/>
  <use xlink:href="#glyph0-18" x="329.004015" y="120.007867"/>
  <use xlink:href="#glyph0-5" x="334.488498" y="120.007867"/>
  <use xlink:href="#glyph0-14" x="345.480794" y="120.007867"/>
  <use xlink:href="#glyph0-22" x="356.871311" y="120.007867"/>
</g>
<path style="fill-rule:evenodd;fill:rgb(100%,100%,100%);fill-opacity:1;stroke-width:0.1;stroke-linecap:butt;stroke-linejoin:miter;stroke:rgb(0%,0%,0%);stroke-opacity:1;stroke-miterlimit:10;" d="M 16.5 8.9 L 22.625 8.9 L 22.625 11.5 L 16.5 11.5 Z M 16.5 8.9 " transform="matrix(20,0,0,20,-79,-49)"/>
<g style="fill:rgb(0%,0%,0%);fill-opacity:1;">
  <use xlink:href="#glyph1-1" x="254" y="143.005968"/>
  <use xlink:href="#glyph1-2" x="261.826606" y="143.005968"/>
  <use xlink:href="#glyph1-3" x="269.653212" y="143.005968"/>
  <use xlink:href="#glyph1-4" x="277.479818" y="143.005968"/>
  <use xlink:href="#glyph1-5" x="285.306424" y="143.005968"/>
  <use xlink:href="#glyph1-6" x="293.13303" y="143.005968"/>
  <use xlink:href="#glyph1-7" x="300.959635" y="143.005968"/>
  <use xlink:href="#glyph1-8" x="308.786241" y="143.005968"/>
  <use xlink:href="#glyph1-9" x="316.612847" y="143.005968"/>
</g>
<g style="fill:rgb(0%,0%,0%);fill-opacity:1;">
  <use xlink:href="#glyph1-1" x="254" y="159.005968"/>
  <use xlink:href="#glyph1-10" x="261.826606" y="159.005968"/>
  <use xlink:href="#glyph1-6" x="269.653212" y="159.005968"/>
  <use xlink:href="#glyph1-5" x="277.479818" y="159.005968"/>
  <use xlink:href="#glyph1-8" x="285.306424" y="159.005968"/>
  <use xlink:href="#glyph1-6" x="293.13303" y="159.005968"/>
  <use xlink:href="#glyph1-11" x="300.959635" y="159.005968"/>
  <use xlink:href="#glyph1-4" x="308.786241" y="159.005968"/>
  <use xlink:href="#glyph1-7" x="316.612847" y="159.005968"/>
  <use xlink:href="#glyph1-11" x="324.439453" y="159.005968"/>
  <use xlink:href="#glyph1-12" x="332.266059" y="159.005968"/>
  <use xlink:href="#glyph1-13" x="340.092665" y="159.005968"/>
  <use xlink:href="#glyph1-14" x="347.919271" y="159.005968"/>
</g>
<g style="fill:rgb(0%,0%,0%);fill-opacity:1;">
  <use xlink:href="#glyph1-1" x="254" y="175.005968"/>
  <use xlink:href="#glyph1-10" x="261.826606" y="175.005968"/>
  <use xlink:href="#glyph1-6" x="269.653212" y="175.005968"/>
  <use xlink:href="#glyph1-5" x="277.479818" y="175.005968"/>
  <use xlink:href="#glyph1-8" x="285.306424" y="175.005968"/>
  <use xlink:href="#glyph1-6" x="293.13303" y="175.005968"/>
  <use xlink:href="#glyph1-11" x="300.959635" y="175.005968"/>
  <use xlink:href="#glyph1-4" x="308.786241" y="175.005968"/>
  <use xlink:href="#glyph1-7" x="316.612847" y="175.005968"/>
  <use xlink:href="#glyph1-11" x="324.439453" y="175.005968"/>
  <use xlink:href="#glyph1-15" x="332.266059" y="175.005968"/>
  <use xlink:href="#glyph1-11" x="340.092665" y="175.005968"/>
  <use xlink:href="#glyph1-16" x="347.919271" y="175.005968"/>
</g>
<path style="fill-rule:evenodd;fill:rgb(100%,100%,100%);fill-opacity:1;stroke-width:0.1;stroke-linecap:butt;stroke-linejoin:miter;stroke:rgb(0%,0%,0%);stroke-opacity:1;stroke-miterlimit:10;" d="M 16.5 11.5 L 22.625 11.5 L 22.625 11.9 L 16.5 11.9 Z M 16.5 11.5 " transform="matrix(20,0,0,20,-79,-49)"/>
<path style="fill-rule:evenodd;fill:rgb(100%,100%,100%);fill-opacity:1;stroke-width:0.1;stroke-linecap:butt;stroke-linejoin:miter;stroke:rgb(0%,0%,0%);stroke-opacity:1;stroke-miterlimit:10;" d="M 49 2.5 L 52.965039 2.5 L 52.965039 3.9 L 49 3.9 Z M 49 2.5 " transform="matrix(20,0,0,20,-79,-49)"/>
<g style="fill:rgb(0%,0%,0%);fill-opacity:1;">
  <use xlink:href="#glyph0-1" x="920.179688" y="20.007867"/>
  <use xlink:href="#glyph0-5" x="927.828071" y="20.007867"/>
  <use xlink:href="#glyph0-23" x="938.820367" y="20.007867"/>
  <use xlink:href="#glyph0-7" x="950.273546" y="20.007867"/>
</g>
<path style="fill-rule:evenodd;fill:rgb(100%,100%,100%);fill-opacity:1;stroke-width:0.1;stroke-linecap:butt;stroke-linejoin:miter;stroke:rgb(0%,0%,0%);stroke-opacity:1;stroke-miterlimit:10;" d="M 49 3.9 L 52.965039 3.9 L 52.965039 4.9 L 49 4.9 Z M 49 3.9 " transform="matrix(20,0,0,20,-79,-49)"/>
<g style="fill:rgb(0%,0%,0%);fill-opacity:1;">
  <use xlink:href="#glyph1-1" x="904" y="43.005968"/>
  <use xlink:href="#glyph1-2" x="911.826606" y="43.005968"/>
  <use xlink:href="#glyph1-3" x="919.653212" y="43.005968"/>
  <use xlink:href="#glyph1-4" x="927.479818" y="43.005968"/>
  <use xlink:href="#glyph1-5" x="935.306424" y="43.005968"/>
  <use xlink:href="#glyph1-6" x="943.13303" y="43.005968"/>
  <use xlink:href="#glyph1-7" x="950.959635" y="43.005968"/>
  <use xlink:href="#glyph1-8" x="958.786241" y="43.005968"/>
  <use xlink:href="#glyph1-9" x="966.612847" y="43.005968"/>
</g>
<path style="fill-rule:evenodd;fill:rgb(100%,100%,100%);fill-opacity:1;stroke-width:0.1;stroke-linecap:butt;stroke-linejoin:miter;stroke:rgb(0%,0%,0%);stroke-opacity:1;stroke-miterlimit:10;" d="M 49 4.9 L 52.965039 4.9 L 52.965039 5.3 L 49 5.3 Z M 49 4.9 " transform="matrix(20,0,0,20,-79,-49)"/>
<path style="fill-rule:evenodd;fill:rgb(100%,100%,100%);fill-opacity:1;stroke-width:0.1;stroke-linecap:butt;stroke-linejoin:miter;stroke:rgb(0%,0%,0%);stroke-opacity:1;stroke-miterlimit:10;" d="M 51.5 12.5 L 54.222461 12.5 L 54.222461 13.9 L 51.5 13.9 Z M 51.5 12.5 " transform="matrix(20,0,0,20,-79,-49)"/>
<g style="fill:rgb(0%,0%,0%);fill-opacity:1;">
  <use xlink:href="#glyph0-14" x="956.019531" y="220.007867"/>
  <use xlink:href="#glyph0-3" x="967.410048" y="220.007867"/>
  <use xlink:href="#glyph0-12" x="978.207031" y="220.007867"/>
  <use xlink:href="#glyph0-3" x="989.660211" y="220.007867"/>
</g>
<path style="fill-rule:evenodd;fill:rgb(100%,100%,100%);fill-opacity:1;stroke-width:0.1;stroke-linecap:butt;stroke-linejoin:miter;stroke:rgb(0%,0%,0%);stroke-opacity:1;stroke-miterlimit:10;" d="M 51.5 13.9 L 54.222461 13.9 L 54.222461 14.3 L 51.5 14.3 Z M 51.5 13.9 " transform="matrix(20,0,0,20,-79,-49)"/>
<path style="fill-rule:evenodd;fill:rgb(100%,100%,100%);fill-opacity:1;stroke-width:0.1;stroke-linecap:butt;stroke-linejoin:miter;stroke:rgb(0%,0%,0%);stroke-opacity:1;stroke-miterlimit:10;" d="M 51.5 14.3 L 54.222461 14.3 L 54.222461 14.7 L 51.5 14.7 Z M 51.5 14.3 " transform="matrix(20,0,0,20,-79,-49)"/>
<path style="fill-rule:evenodd;fill:rgb(100%,100%,100%);fill-opacity:1;stroke-width:0.1;stroke-linecap:butt;stroke-linejoin:miter;stroke:rgb(0%,0%,0%);stroke-opacity:1;stroke-miterlimit:10;" d="M 27.5 7 L 29.672461 7 L 29.672461 8.4 L 27.5 8.4 Z M 27.5 7 " transform="matrix(20,0,0,20,-79,-49)"/>
<g style="fill:rgb(0%,0%,0%);fill-opacity:1;">
  <use xlink:href="#glyph0-24" x="476.027344" y="110.007867"/>
  <use xlink:href="#glyph0-25" x="487.160156" y="110.007867"/>
  <use xlink:href="#glyph0-25" x="498.292969" y="110.007867"/>
</g>
<path style="fill-rule:evenodd;fill:rgb(100%,100%,100%);fill-opacity:1;stroke-width:0.1;stroke-linecap:butt;stroke-linejoin:miter;stroke:rgb(0%,0%,0%);stroke-opacity:1;stroke-miterlimit:10;" d="M 27.5 8.4 L 29.672461 8.4 L 29.672461 8.8 L 27.5 8.8 Z M 27.5 8.4 " transform="matrix(20,0,0,20,-79,-49)"/>
<path style="fill-rule:evenodd;fill:rgb(100%,100%,100%);fill-opacity:1;stroke-width:0.1;stroke-linecap:butt;stroke-linejoin:miter;stroke:rgb(0%,0%,0%);stroke-opacity:1;stroke-miterlimit:10;" d="M 27.5 8.8 L 29.672461 8.8 L 29.672461 9.2 L 27.5 9.2 Z M 27.5 8.8 " transform="matrix(20,0,0,20,-79,-49)"/>
<path style="fill-rule:evenodd;fill:rgb(100%,100%,100%);fill-opacity:1;stroke-width:0.1;stroke-linecap:butt;stroke-linejoin:miter;stroke:rgb(0%,0%,0%);stroke-opacity:1;stroke-miterlimit:10;" d="M 40 7 L 41.615039 7 L 41.615039 8.4 L 40 8.4 Z M 40 7 " transform="matrix(20,0,0,20,-79,-49)"/>
<g style="fill:rgb(0%,0%,0%);fill-opacity:1;">
  <use xlink:href="#glyph0-26" x="726.015625" y="110.007867"/>
  <use xlink:href="#glyph0-25" x="737.148438" y="110.007867"/>
</g>
<path style="fill-rule:evenodd;fill:rgb(100%,100%,100%);fill-opacity:1;stroke-width:0.1;stroke-linecap:butt;stroke-linejoin:miter;stroke:rgb(0%,0%,0%);stroke-opacity:1;stroke-miterlimit:10;" d="M 40 8.4 L 41.615039 8.4 L 41.615039 8.8 L 40 8.8 Z M 40 8.4 " transform="matrix(20,0,0,20,-79,-49)"/>
<path style="fill-rule:evenodd;fill:rgb(100%,100%,100%);fill-opacity:1;stroke-width:0.1;stroke-linecap:butt;stroke-linejoin:miter;stroke:rgb(0%,0%,0%);stroke-opacity:1;stroke-miterlimit:10;" d="M 40 8.8 L 41.615039 8.8 L 41.615039 9.2 L 40 9.2 Z M 40 8.8 " transform="matrix(20,0,0,20,-79,-49)"/>
<path style="fill-rule:evenodd;fill:rgb(100%,100%,100%);fill-opacity:1;stroke-width:0.1;stroke-linecap:butt;stroke-linejoin:miter;stroke:rgb(0%,0%,0%);stroke-opacity:1;stroke-miterlimit:10;" d="M 5 12 L 7.172461 12 L 7.172461 13.4 L 5 13.4 Z M 5 12 " transform="matrix(20,0,0,20,-79,-49)"/>
<g style="fill:rgb(0%,0%,0%);fill-opacity:1;">
  <use xlink:href="#glyph0-27" x="26.027344" y="210.007867"/>
  <use xlink:href="#glyph0-25" x="37.160156" y="210.007867"/>
  <use xlink:href="#glyph0-25" x="48.292969" y="210.007867"/>
</g>
<path style="fill-rule:evenodd;fill:rgb(100%,100%,100%);fill-opacity:1;stroke-width:0.1;stroke-linecap:butt;stroke-linejoin:miter;stroke:rgb(0%,0%,0%);stroke-opacity:1;stroke-miterlimit:10;" d="M 5 13.4 L 7.172461 13.4 L 7.172461 13.8 L 5 13.8 Z M 5 13.4 " transform="matrix(20,0,0,20,-79,-49)"/>
<path style="fill-rule:evenodd;fill:rgb(100%,100%,100%);fill-opacity:1;stroke-width:0.1;stroke-linecap:butt;stroke-linejoin:miter;stroke:rgb(0%,0%,0%);stroke-opacity:1;stroke-miterlimit:10;" d="M 5 13.8 L 7.172461 13.8 L 7.172461 14.2 L 5 14.2 Z M 5 13.8 " transform="matrix(20,0,0,20,-79,-49)"/>
<path style="fill-rule:evenodd;fill:rgb(100%,100%,100%);fill-opacity:1;stroke-width:0.1;stroke-linecap:butt;stroke-linejoin:miter;stroke:rgb(0%,0%,0%);stroke-opacity:1;stroke-miterlimit:10;" d="M 40 17 L 41.615039 17 L 41.615039 18.4 L 40 18.4 Z M 40 17 " transform="matrix(20,0,0,20,-79,-49)"/>
<g style="fill:rgb(0%,0%,0%);fill-opacity:1;">
  <use xlink:href="#glyph0-28" x="726.015625" y="310.007867"/>
  <use xlink:href="#glyph0-25" x="737.148438" y="310.007867"/>
</g>
<path style="fill-rule:evenodd;fill:rgb(100%,100%,100%);fill-opacity:1;stroke-width:0.1;stroke-linecap:butt;stroke-linejoin:miter;stroke:rgb(0%,0%,0%);stroke-opacity:1;stroke-miterlimit:10;" d="M 40 18.4 L 41.615039 18.4 L 41.615039 18.8 L 40 18.8 Z M 40 18.4 " transform="matrix(20,0,0,20,-79,-49)"/>
<path style="fill-rule:evenodd;fill:rgb(100%,100%,100%);fill-opacity:1;stroke-width:0.1;stroke-linecap:butt;stroke-linejoin:miter;stroke:rgb(0%,0%,0%);stroke-opacity:1;stroke-miterlimit:10;" d="M 40 18.8 L 41.615039 18.8 L 41.615039 19.2 L 40 19.2 Z M 40 18.8 " transform="matrix(20,0,0,20,-79,-49)"/>
<path style="fill-rule:evenodd;fill:rgb(100%,100%,100%);fill-opacity:1;stroke-width:0.1;stroke-linecap:butt;stroke-linejoin:miter;stroke:rgb(0%,0%,0%);stroke-opacity:1;stroke-miterlimit:10;" d="M 16.5 13 L 18.115039 13 L 18.115039 14.4 L 16.5 14.4 Z M 16.5 13 " transform="matrix(20,0,0,20,-79,-49)"/>
<g style="fill:rgb(0%,0%,0%);fill-opacity:1;">
  <use xlink:href="#glyph0-29" x="256.015625" y="230.007867"/>
  <use xlink:href="#glyph0-25" x="267.148438" y="230.007867"/>
</g>
<path style="fill-rule:evenodd;fill:rgb(100%,100%,100%);fill-opacity:1;stroke-width:0.1;stroke-linecap:butt;stroke-linejoin:miter;stroke:rgb(0%,0%,0%);stroke-opacity:1;stroke-miterlimit:10;" d="M 16.5 14.4 L 18.115039 14.4 L 18.115039 14.8 L 16.5 14.8 Z M 16.5 14.4 " transform="matrix(20,0,0,20,-79,-49)"/>
<path style="fill-rule:evenodd;fill:rgb(100%,100%,100%);fill-opacity:1;stroke-width:0.1;stroke-linecap:butt;stroke-linejoin:miter;stroke:rgb(0%,0%,0%);stroke-opacity:1;stroke-miterlimit:10;" d="M 16.5 14.8 L 18.115039 14.8 L 18.115039 15.2 L 16.5 15.2 Z M 16.5 14.8 " transform="matrix(20,0,0,20,-79,-49)"/>
<path style="fill-rule:evenodd;fill:rgb(100%,100%,100%);fill-opacity:1;stroke-width:0.1;stroke-linecap:butt;stroke-linejoin:miter;stroke:rgb(0%,0%,0%);stroke-opacity:1;stroke-miterlimit:10;" d="M 49 6.5 L 50.057422 6.5 L 50.057422 7.9 L 49 7.9 Z M 49 6.5 " transform="matrix(20,0,0,20,-79,-49)"/>
<g style="fill:rgb(0%,0%,0%);fill-opacity:1;">
  <use xlink:href="#glyph0-25" x="906.007813" y="100.007867"/>
</g>
<path style="fill-rule:evenodd;fill:rgb(100%,100%,100%);fill-opacity:1;stroke-width:0.1;stroke-linecap:butt;stroke-linejoin:miter;stroke:rgb(0%,0%,0%);stroke-opacity:1;stroke-miterlimit:10;" d="M 49 7.9 L 50.057422 7.9 L 50.057422 8.3 L 49 8.3 Z M 49 7.9 " transform="matrix(20,0,0,20,-79,-49)"/>
<path style="fill-rule:evenodd;fill:rgb(100%,100%,100%);fill-opacity:1;stroke-width:0.1;stroke-linecap:butt;stroke-linejoin:miter;stroke:rgb(0%,0%,0%);stroke-opacity:1;stroke-miterlimit:10;" d="M 49 8.3 L 50.057422 8.3 L 50.057422 8.7 L 49 8.7 Z M 49 8.3 " transform="matrix(20,0,0,20,-79,-49)"/>
<path style="fill-rule:evenodd;fill:rgb(100%,100%,100%);fill-opacity:1;stroke-width:0.1;stroke-linecap:butt;stroke-linejoin:miter;stroke:rgb(0%,0%,0%);stroke-opacity:1;stroke-miterlimit:10;" d="M 27.5 17 L 29.672461 17 L 29.672461 18.4 L 27.5 18.4 Z M 27.5 17 " transform="matrix(20,0,0,20,-79,-49)"/>
<g style="fill:rgb(0%,0%,0%);fill-opacity:1;">
  <use xlink:href="#glyph0-24" x="476.027344" y="310.007867"/>
  <use xlink:href="#glyph0-25" x="487.160156" y="310.007867"/>
  <use xlink:href="#glyph0-25" x="498.292969" y="310.007867"/>
</g>
<path style="fill-rule:evenodd;fill:rgb(100%,100%,100%);fill-opacity:1;stroke-width:0.1;stroke-linecap:butt;stroke-linejoin:miter;stroke:rgb(0%,0%,0%);stroke-opacity:1;stroke-miterlimit:10;" d="M 27.5 18.4 L 29.672461 18.4 L 29.672461 18.8 L 27.5 18.8 Z M 27.5 18.4 " transform="matrix(20,0,0,20,-79,-49)"/>
<path style="fill-rule:evenodd;fill:rgb(100%,100%,100%);fill-opacity:1;stroke-width:0.1;stroke-linecap:butt;stroke-linejoin:miter;stroke:rgb(0%,0%,0%);stroke-opacity:1;stroke-miterlimit:10;" d="M 27.5 18.8 L 29.672461 18.8 L 29.672461 19.2 L 27.5 19.2 Z M 27.5 18.8 " transform="matrix(20,0,0,20,-79,-49)"/>
<path style="fill:none;stroke-width:0.1;stroke-linecap:butt;stroke-linejoin:miter;stroke:rgb(0%,0%,0%);stroke-opacity:1;stroke-miterlimit:10;" d="M 49 4.4 C 48.482617 4.577344 48.105273 5.025781 48.018555 5.56582 C 47.932031 6.105859 48.150586 6.649805 48.586523 6.979883 " transform="matrix(20,0,0,20,-79,-49)"/>
<path style="fill-rule:evenodd;fill:rgb(0%,0%,0%);fill-opacity:1;stroke-width:0.1;stroke-linecap:butt;stroke-linejoin:miter;stroke:rgb(0%,0%,0%);stroke-opacity:1;stroke-miterlimit:10;" d="M 48.894336 7.163672 L 48.340234 7.238086 L 48.539453 7.042188 L 48.502344 6.765039 Z M 48.894336 7.163672 " transform="matrix(20,0,0,20,-79,-49)"/>
<path style="fill:none;stroke-width:0.1;stroke-linecap:butt;stroke-linejoin:miter;stroke:rgb(0%,0%,0%);stroke-opacity:1;stroke-miterlimit:10;" d="M 16.5 9.4 C 15.313281 10.399805 15.160937 12.171875 16.159766 13.359375 " transform="matrix(20,0,0,20,-79,-49)"/>
<path style="fill-rule:evenodd;fill:rgb(0%,0%,0%);fill-opacity:1;stroke-width:0.1;stroke-linecap:butt;stroke-linejoin:miter;stroke:rgb(0%,0%,0%);stroke-opacity:1;stroke-miterlimit:10;" d="M 16.414453 13.62793 L 15.871094 13.49707 L 16.127734 13.386328 L 16.193164 13.114648 Z M 16.414453 13.62793 " transform="matrix(20,0,0,20,-79,-49)"/>
<path style="fill:none;stroke-width:0.1;stroke-linecap:butt;stroke-linejoin:miter;stroke:rgb(0%,0%,0%);stroke-opacity:1;stroke-miterlimit:10;" d="M 27.5 14.4 C 26.960547 14.681641 26.592773 15.208984 26.515234 15.8125 C 26.4375 16.416016 26.659961 17.019531 27.110547 17.42832 " transform="matrix(20,0,0,20,-79,-49)"/>
<path style="fill-rule:evenodd;fill:rgb(0%,0%,0%);fill-opacity:1;stroke-width:0.1;stroke-linecap:butt;stroke-linejoin:miter;stroke:rgb(0%,0%,0%);stroke-opacity:1;stroke-miterlimit:10;" d="M 27.400977 17.648242 L 26.841992 17.638477 L 27.068359 17.474805 L 27.073242 17.195312 Z M 27.400977 17.648242 " transform="matrix(20,0,0,20,-79,-49)"/>
<path style="fill:none;stroke-width:0.1;stroke-linecap:butt;stroke-linejoin:miter;stroke:rgb(0%,0%,0%);stroke-opacity:1;stroke-miterlimit:10;" d="M 5 9.4 C 4.460547 9.681641 4.092773 10.208984 4.015234 10.8125 C 3.9375 11.416016 4.159961 12.019531 4.610547 12.42832 " transform="matrix(20,0,0,20,-79,-49)"/>
<path style="fill-rule:evenodd;fill:rgb(0%,0%,0%);fill-opacity:1;stroke-width:0.1;stroke-linecap:butt;stroke-linejoin:miter;stroke:rgb(0%,0%,0%);stroke-opacity:1;stroke-miterlimit:10;" d="M 4.900977 12.648242 L 4.341992 12.638477 L 4.568359 12.474805 L 4.573242 12.195312 Z M 4.900977 12.648242 " transform="matrix(20,0,0,20,-79,-49)"/>
<path style="fill:none;stroke-width:0.1;stroke-linecap:butt;stroke-linejoin:miter;stroke:rgb(0%,0%,0%);stroke-opacity:1;stroke-miterlimit:10;" d="M 40 4.4 C 39.460547 4.681641 39.092773 5.208984 39.015234 5.8125 C 38.9375 6.416016 39.159961 7.019531 39.610547 7.42832 " transform="matrix(20,0,0,20,-79,-49)"/>
<path style="fill-rule:evenodd;fill:rgb(0%,0%,0%);fill-opacity:1;stroke-width:0.1;stroke-linecap:butt;stroke-linejoin:miter;stroke:rgb(0%,0%,0%);stroke-opacity:1;stroke-miterlimit:10;" d="M 39.900977 7.648242 L 39.341992 7.638477 L 39.568359 7.474805 L 39.573242 7.195312 Z M 39.900977 7.648242 " transform="matrix(20,0,0,20,-79,-49)"/>
<path style="fill:none;stroke-width:0.1;stroke-linecap:butt;stroke-linejoin:miter;stroke:rgb(0%,0%,0%);stroke-opacity:1;stroke-miterlimit:10;" d="M 40 14.4 C 39.460547 14.681641 39.092773 15.208984 39.015234 15.8125 C 38.9375 16.416016 39.159961 17.019531 39.610547 17.42832 " transform="matrix(20,0,0,20,-79,-49)"/>
<path style="fill-rule:evenodd;fill:rgb(0%,0%,0%);fill-opacity:1;stroke-width:0.1;stroke-linecap:butt;stroke-linejoin:miter;stroke:rgb(0%,0%,0%);stroke-opacity:1;stroke-miterlimit:10;" d="M 39.900977 17.648242 L 39.341992 17.638477 L 39.568359 17.474805 L 39.573242 17.195312 Z M 39.900977 17.648242 " transform="matrix(20,0,0,20,-79,-49)"/>
<path style="fill:none;stroke-width:0.1;stroke-linecap:butt;stroke-linejoin:miter;stroke:rgb(0%,0%,0%);stroke-opacity:1;stroke-miterlimit:10;" d="M 27.5 4.4 C 26.960547 4.681641 26.592773 5.208984 26.515234 5.8125 C 26.4375 6.416016 26.659961 7.019531 27.110547 7.42832 " transform="matrix(20,0,0,20,-79,-49)"/>
<path style="fill-rule:evenodd;fill:rgb(0%,0%,0%);fill-opacity:1;stroke-width:0.1;stroke-linecap:butt;stroke-linejoin:miter;stroke:rgb(0%,0%,0%);stroke-opacity:1;stroke-miterlimit:10;" d="M 27.400977 7.648242 L 26.841992 7.638477 L 27.068359 7.474805 L 27.073242 7.195312 Z M 27.400977 7.648242 " transform="matrix(20,0,0,20,-79,-49)"/>
<path style="fill:none;stroke-width:0.1;stroke-linecap:butt;stroke-linejoin:miter;stroke:rgb(0%,0%,0%);stroke-opacity:1;stroke-miterlimit:10;" d="M 16.039453 8.357031 C 14.760156 8.814648 13.544727 9.43418 12.422461 10.2 " transform="matrix(20,0,0,20,-79,-49)"/>
<path style="fill-rule:evenodd;fill:rgb(0%,0%,0%);fill-opacity:1;stroke-width:0.1;stroke-linecap:butt;stroke-linejoin:miter;stroke:rgb(0%,0%,0%);stroke-opacity:1;stroke-miterlimit:10;" d="M 16.393555 8.234375 L 15.994922 8.626367 L 16.036914 8.35 L 15.841016 8.150586 Z M 16.393555 8.234375 " transform="matrix(20,0,0,20,-79,-49)"/>
<path style="fill:none;stroke-width:0.1;stroke-linecap:butt;stroke-linejoin:miter;stroke:rgb(0%,0%,0%);stroke-opacity:1;stroke-miterlimit:10;" d="M 27.130664 3.516992 C 25.085938 5.325977 23.535352 7.625977 22.625 10.2 " transform="matrix(20,0,0,20,-79,-49)"/>
<path style="fill-rule:evenodd;fill:rgb(0%,0%,0%);fill-opacity:1;stroke-width:0.1;stroke-linecap:butt;stroke-linejoin:miter;stroke:rgb(0%,0%,0%);stroke-opacity:1;stroke-miterlimit:10;" d="M 27.414062 3.271484 L 27.189648 3.783594 L 27.125781 3.511328 L 26.869727 3.399219 Z M 27.414062 3.271484 " transform="matrix(20,0,0,20,-79,-49)"/>
<path style="fill:none;stroke-width:0.1;stroke-linecap:butt;stroke-linejoin:miter;stroke:rgb(0%,0%,0%);stroke-opacity:1;stroke-miterlimit:10;" d="M 27.100586 12.922266 C 25.739453 12.011914 24.222266 11.360352 22.625 11 " transform="matrix(20,0,0,20,-79,-49)"/>
<path style="fill-rule:evenodd;fill:rgb(0%,0%,0%);fill-opacity:1;stroke-width:0.1;stroke-linecap:butt;stroke-linejoin:miter;stroke:rgb(0%,0%,0%);stroke-opacity:1;stroke-miterlimit:10;" d="M 27.409375 13.13457 L 26.857813 13.044141 L 27.105469 12.914844 L 27.150586 12.638867 Z M 27.409375 13.13457 " transform="matrix(20,0,0,20,-79,-49)"/>
<path style="fill:none;stroke-width:0.1;stroke-linecap:butt;stroke-linejoin:miter;stroke:rgb(0%,0%,0%);stroke-opacity:1;stroke-miterlimit:10;" d="M 39.520898 3.282227 C 38.136914 3.56582 36.85957 4.230078 35.832422 5.2 " transform="matrix(20,0,0,20,-79,-49)"/>
<path style="fill-rule:evenodd;fill:rgb(0%,0%,0%);fill-opacity:1;stroke-width:0.1;stroke-linecap:butt;stroke-linejoin:miter;stroke:rgb(0%,0%,0%);stroke-opacity:1;stroke-miterlimit:10;" d="M 39.889258 3.21543 L 39.428516 3.531836 L 39.517773 3.266992 L 39.35957 3.036523 Z M 39.889258 3.21543 " transform="matrix(20,0,0,20,-79,-49)"/>
<path style="fill:none;stroke-width:0.1;stroke-linecap:butt;stroke-linejoin:miter;stroke:rgb(0%,0%,0%);stroke-opacity:1;stroke-miterlimit:10;" d="M 48.514648 3.220703 C 46.930664 3.347461 45.448633 4.051953 44.35 5.2 " transform="matrix(20,0,0,20,-79,-49)"/>
<path style="fill-rule:evenodd;fill:rgb(0%,0%,0%);fill-opacity:1;stroke-width:0.1;stroke-linecap:butt;stroke-linejoin:miter;stroke:rgb(0%,0%,0%);stroke-opacity:1;stroke-miterlimit:10;" d="M 48.888281 3.200586 L 48.389453 3.453125 L 48.513281 3.202344 L 48.386914 2.953125 Z M 48.888281 3.200586 " transform="matrix(20,0,0,20,-79,-49)"/>
<path style="fill:none;stroke-width:0.1;stroke-linecap:butt;stroke-linejoin:miter;stroke:rgb(0%,0%,0%);stroke-opacity:1;stroke-miterlimit:10;" d="M 39.518555 13.268945 C 37.848633 13.545703 36.26582 14.206836 34.894922 15.2 " transform="matrix(20,0,0,20,-79,-49)"/>
<path style="fill-rule:evenodd;fill:rgb(0%,0%,0%);fill-opacity:1;stroke-width:0.1;stroke-linecap:butt;stroke-linejoin:miter;stroke:rgb(0%,0%,0%);stroke-opacity:1;stroke-miterlimit:10;" d="M 39.889063 13.213281 L 39.422461 13.521289 L 39.516602 13.258203 L 39.362695 13.025 Z M 39.889063 13.213281 " transform="matrix(20,0,0,20,-79,-49)"/>
<path style="fill:none;stroke-width:0.1;stroke-linecap:butt;stroke-linejoin:miter;stroke:rgb(0%,0%,0%);stroke-opacity:1;stroke-miterlimit:10;" d="M 51.054297 13.395117 C 50.035156 13.86543 49.084961 14.472656 48.230078 15.2 " transform="matrix(20,0,0,20,-79,-49)"/>
<path style="fill-rule:evenodd;fill:rgb(0%,0%,0%);fill-opacity:1;stroke-width:0.1;stroke-linecap:butt;stroke-linejoin:miter;stroke:rgb(0%,0%,0%);stroke-opacity:1;stroke-miterlimit:10;" d="M 51.39668 13.242773 L 51.030469 13.665234 L 51.050195 13.386328 L 50.839063 13.20332 Z M 51.39668 13.242773 " transform="matrix(20,0,0,20,-79,-49)"/>
</g>
</svg>
